G04 #@! TF.FileFunction,Copper,L1,Top,Signal*
%FSLAX46Y46*%
G04 Gerber Fmt 4.6, Leading zero omitted, Abs format (unit mm)*
G04 Created by KiCad (PCBNEW (2015-10-28 BZR 6285)-product) date Sun 15 Nov 2015 10:30:48 AM CET*
%MOMM*%
G01*
G04 APERTURE LIST*
%ADD10C,0.100000*%
%ADD11C,2.286000*%
%ADD12R,2.000000X2.000000*%
%ADD13C,2.000000*%
%ADD14O,1.600000X2.300000*%
%ADD15C,1.998980*%
%ADD16C,1.905000*%
%ADD17C,1.219200*%
%ADD18C,0.600000*%
%ADD19C,0.254000*%
G04 APERTURE END LIST*
D10*
D11*
X127000000Y-92075000D03*
X149860000Y-92075000D03*
D12*
X163195000Y-99695000D03*
D13*
X165735000Y-99695000D03*
D12*
X158115000Y-99695000D03*
D13*
X160655000Y-99695000D03*
D12*
X153035000Y-99695000D03*
D13*
X155575000Y-99695000D03*
D12*
X147955000Y-99695000D03*
D13*
X150495000Y-99695000D03*
D14*
X155575000Y-94615000D03*
X158115000Y-94615000D03*
X160655000Y-94615000D03*
X163195000Y-94615000D03*
X163195000Y-86995000D03*
X160655000Y-86995000D03*
X158115000Y-86995000D03*
X155575000Y-86995000D03*
D12*
X165735000Y-104775000D03*
D13*
X163195000Y-104775000D03*
D12*
X160655000Y-104775000D03*
D13*
X158115000Y-104775000D03*
D12*
X155575000Y-104775000D03*
D13*
X153035000Y-104775000D03*
D12*
X150495000Y-104775000D03*
D13*
X147955000Y-104775000D03*
D12*
X145415000Y-104775000D03*
D13*
X142875000Y-104775000D03*
D12*
X140335000Y-104775000D03*
D13*
X137795000Y-104775000D03*
D15*
X161290000Y-109220000D03*
X151130000Y-109220000D03*
X129322102Y-111542102D03*
X122137898Y-104357898D03*
X159385000Y-83820000D03*
X149225000Y-83820000D03*
X122137898Y-99912898D03*
X129322102Y-107097102D03*
D16*
X158750000Y-111760000D03*
X158750000Y-116840000D03*
X151130000Y-111760000D03*
X151130000Y-116840000D03*
D14*
X135890000Y-116205000D03*
X138430000Y-116205000D03*
X140970000Y-116205000D03*
X143510000Y-116205000D03*
X143510000Y-108585000D03*
X140970000Y-108585000D03*
X138430000Y-108585000D03*
X135890000Y-108585000D03*
D17*
X129010165Y-116099835D03*
X130069835Y-115040165D03*
D18*
X132080000Y-109855000D03*
X136525000Y-100965000D03*
D19*
X134620000Y-109855000D02*
X132080000Y-109855000D01*
X134620000Y-109855000D02*
X135890000Y-108585000D01*
X143510000Y-116205000D02*
X144145000Y-116840000D01*
X144145000Y-116840000D02*
X151130000Y-116840000D01*
X166370000Y-96520000D02*
X164465000Y-94615000D01*
X164465000Y-94615000D02*
X163195000Y-94615000D01*
X168910000Y-107950000D02*
X159385000Y-116840000D01*
X168910000Y-99060000D02*
X168910000Y-107950000D01*
X166370000Y-96520000D02*
X168910000Y-99060000D01*
X159385000Y-116840000D02*
X158750000Y-116840000D01*
X158750000Y-116840000D02*
X151130000Y-116840000D01*
X138430000Y-102870000D02*
X137795000Y-103505000D01*
X137795000Y-103505000D02*
X137795000Y-104775000D01*
X145415000Y-104775000D02*
X145415000Y-103505000D01*
X139065000Y-102870000D02*
X138430000Y-102870000D01*
X144780000Y-102870000D02*
X139065000Y-102870000D01*
X145415000Y-103505000D02*
X144780000Y-102870000D01*
X137795000Y-104775000D02*
X137795000Y-104140000D01*
X145415000Y-104140000D02*
X145415000Y-104775000D01*
X163195000Y-99695000D02*
X163195000Y-104775000D01*
X142240000Y-101600000D02*
X141605000Y-102235000D01*
X141605000Y-102235000D02*
X135890000Y-102235000D01*
X146050000Y-97790000D02*
X142240000Y-101600000D01*
X150495000Y-99060000D02*
X150495000Y-98425000D01*
X149860000Y-97790000D02*
X146050000Y-97790000D01*
X150495000Y-98425000D02*
X149860000Y-97790000D01*
X135255000Y-102870000D02*
X135890000Y-102235000D01*
X122137900Y-104357900D02*
X122890200Y-103605600D01*
X122890200Y-103605600D02*
X133985000Y-103605600D01*
X134519400Y-103605600D02*
X133985000Y-103605600D01*
X135255000Y-102870000D02*
X134519400Y-103605600D01*
X150495000Y-99060000D02*
X150495000Y-99695000D01*
X165402300Y-100027700D02*
X165735000Y-99695000D01*
X160655000Y-99060000D02*
X160655000Y-98425000D01*
X160020000Y-97790000D02*
X153035000Y-97790000D01*
X160655000Y-98425000D02*
X160020000Y-97790000D01*
X153035000Y-99060000D02*
X153035000Y-98425000D01*
X153035000Y-98425000D02*
X153035000Y-97790000D01*
X153035000Y-97790000D02*
X153035000Y-86360000D01*
X150495000Y-83820000D02*
X149225000Y-83820000D01*
X153035000Y-86360000D02*
X150495000Y-83820000D01*
X160655000Y-99695000D02*
X160655000Y-99060000D01*
X153035000Y-99060000D02*
X153035000Y-99695000D01*
X153035000Y-99695000D02*
X153035000Y-104775000D01*
X160655000Y-99695000D02*
X160655000Y-104775000D01*
X142875000Y-104775000D02*
X142875000Y-106680000D01*
X140335000Y-106680000D02*
X140335000Y-104775000D01*
X147955000Y-106680000D02*
X142875000Y-106680000D01*
X142875000Y-106680000D02*
X140335000Y-106680000D01*
X140335000Y-106680000D02*
X130810000Y-106680000D01*
X130810000Y-106680000D02*
X129739204Y-106680000D01*
X129739204Y-106680000D02*
X129322102Y-107097102D01*
X155575000Y-106045000D02*
X154940000Y-106680000D01*
X154940000Y-106680000D02*
X147955000Y-106680000D01*
X140335000Y-104775000D02*
X140335000Y-105410000D01*
X129540000Y-107315000D02*
X129322102Y-107097102D01*
X147955000Y-104775000D02*
X147955000Y-106680000D01*
X155575000Y-106045000D02*
X155575000Y-104775000D01*
X147955000Y-99695000D02*
X147955000Y-104775000D01*
X155575000Y-99695000D02*
X155575000Y-104775000D01*
X140970000Y-108585000D02*
X140970000Y-109855000D01*
X146050000Y-110490000D02*
X149225000Y-107315000D01*
X145415000Y-110490000D02*
X146050000Y-110490000D01*
X141605000Y-110490000D02*
X145415000Y-110490000D01*
X140970000Y-109855000D02*
X141605000Y-110490000D01*
X161290000Y-109220000D02*
X161290000Y-107315000D01*
X167640000Y-106680000D02*
X167005000Y-107315000D01*
X167005000Y-107315000D02*
X161290000Y-107315000D01*
X161290000Y-107315000D02*
X149225000Y-107315000D01*
X140970000Y-107950000D02*
X140970000Y-108585000D01*
X158115000Y-95885000D02*
X158750000Y-96520000D01*
X165100000Y-96520000D02*
X167005000Y-98425000D01*
X158750000Y-96520000D02*
X165100000Y-96520000D01*
X158115000Y-94615000D02*
X158115000Y-95885000D01*
X167005000Y-98425000D02*
X167640000Y-99060000D01*
X167640000Y-99060000D02*
X167640000Y-106680000D01*
X140970000Y-108585000D02*
X140970000Y-108585000D01*
X136525000Y-100965000D02*
X135255000Y-100965000D01*
X133985000Y-102235000D02*
X133350000Y-102235000D01*
X135255000Y-100965000D02*
X133985000Y-102235000D01*
X122137898Y-101182898D02*
X122137898Y-99912898D01*
X133350000Y-102235000D02*
X123190000Y-102235000D01*
X123190000Y-102235000D02*
X122137898Y-101182898D01*
X122137898Y-100547898D02*
X122137898Y-99912898D01*
X138430000Y-109855000D02*
X136742898Y-111542102D01*
X136742898Y-111542102D02*
X129322102Y-111542102D01*
X138430000Y-108585000D02*
X138430000Y-109855000D01*
X138430000Y-108585000D02*
X138430000Y-109220000D01*
X129540000Y-111760000D02*
X129322102Y-111542102D01*
X138430000Y-116205000D02*
X138430000Y-115570000D01*
X134620000Y-114300000D02*
X133985000Y-114935000D01*
X137160000Y-114300000D02*
X134620000Y-114300000D01*
X138430000Y-115570000D02*
X137160000Y-114300000D01*
X138430000Y-116205000D02*
X138430000Y-116205000D01*
X129750330Y-116840000D02*
X129010165Y-116099835D01*
X133985000Y-114935000D02*
X132080000Y-116840000D01*
X132080000Y-116840000D02*
X129750330Y-116840000D01*
X129115330Y-116205000D02*
X129010165Y-116099835D01*
X129010200Y-116099800D02*
X129115600Y-115994400D01*
X130069835Y-115040165D02*
X130704835Y-115040165D01*
X140970000Y-114300000D02*
X140970000Y-116205000D01*
X140335000Y-113665000D02*
X140970000Y-114300000D01*
X132080000Y-113665000D02*
X140335000Y-113665000D01*
X130704835Y-115040165D02*
X132080000Y-113665000D01*
X130175000Y-114935000D02*
X130069835Y-115040165D01*
X151130000Y-111760000D02*
X158750000Y-111760000D01*
G36*
X138480277Y-81519724D02*
X138718728Y-81679051D01*
X139000000Y-81735000D01*
X151000000Y-81735000D01*
X151281272Y-81679051D01*
X151519723Y-81519723D01*
X152304447Y-80735000D01*
X159695554Y-80735000D01*
X169265000Y-90304447D01*
X169265000Y-109695553D01*
X159695554Y-119265000D01*
X152304447Y-119265000D01*
X151519723Y-118480277D01*
X151425210Y-118417126D01*
X151507861Y-118413878D01*
X151975712Y-118220088D01*
X152068554Y-117958159D01*
X157811446Y-117958159D01*
X157904288Y-118220088D01*
X158496801Y-118438675D01*
X159127861Y-118413878D01*
X159595712Y-118220088D01*
X159688554Y-117958159D01*
X158750000Y-117019605D01*
X157811446Y-117958159D01*
X152068554Y-117958159D01*
X151130000Y-117019605D01*
X150191446Y-117958159D01*
X150284288Y-118220088D01*
X150406029Y-118265000D01*
X139000000Y-118265000D01*
X138718728Y-118320949D01*
X138480277Y-118480276D01*
X137695554Y-119265000D01*
X130304447Y-119265000D01*
X127385762Y-116346315D01*
X127765350Y-116346315D01*
X127954429Y-116803923D01*
X128304235Y-117154340D01*
X128761513Y-117344218D01*
X129177280Y-117344581D01*
X129211514Y-117378815D01*
X129458725Y-117543996D01*
X129750330Y-117602000D01*
X132080000Y-117602000D01*
X132371605Y-117543996D01*
X132618815Y-117378815D01*
X134523879Y-115473751D01*
X134455000Y-115820030D01*
X134455000Y-116589970D01*
X134564233Y-117139121D01*
X134875302Y-117604668D01*
X135340849Y-117915737D01*
X135890000Y-118024970D01*
X136439151Y-117915737D01*
X136904698Y-117604668D01*
X137160000Y-117222582D01*
X137415302Y-117604668D01*
X137880849Y-117915737D01*
X138430000Y-118024970D01*
X138979151Y-117915737D01*
X139444698Y-117604668D01*
X139700000Y-117222582D01*
X139955302Y-117604668D01*
X140420849Y-117915737D01*
X140970000Y-118024970D01*
X141519151Y-117915737D01*
X141984698Y-117604668D01*
X142237149Y-117226849D01*
X142585104Y-117659500D01*
X143078181Y-117929367D01*
X143160961Y-117946904D01*
X143383000Y-117824915D01*
X143383000Y-116332000D01*
X143637000Y-116332000D01*
X143637000Y-117824915D01*
X143859039Y-117946904D01*
X143941819Y-117929367D01*
X144434896Y-117659500D01*
X144787166Y-117221483D01*
X144945000Y-116682000D01*
X144945000Y-116586801D01*
X149531325Y-116586801D01*
X149556122Y-117217861D01*
X149749912Y-117685712D01*
X150011841Y-117778554D01*
X150950395Y-116840000D01*
X151309605Y-116840000D01*
X152248159Y-117778554D01*
X152510088Y-117685712D01*
X152728675Y-117093199D01*
X152708777Y-116586801D01*
X157151325Y-116586801D01*
X157176122Y-117217861D01*
X157369912Y-117685712D01*
X157631841Y-117778554D01*
X158570395Y-116840000D01*
X158929605Y-116840000D01*
X159868159Y-117778554D01*
X160130088Y-117685712D01*
X160348675Y-117093199D01*
X160323878Y-116462139D01*
X160130088Y-115994288D01*
X159868159Y-115901446D01*
X158929605Y-116840000D01*
X158570395Y-116840000D01*
X157631841Y-115901446D01*
X157369912Y-115994288D01*
X157151325Y-116586801D01*
X152708777Y-116586801D01*
X152703878Y-116462139D01*
X152510088Y-115994288D01*
X152248159Y-115901446D01*
X151309605Y-116840000D01*
X150950395Y-116840000D01*
X150011841Y-115901446D01*
X149749912Y-115994288D01*
X149531325Y-116586801D01*
X144945000Y-116586801D01*
X144945000Y-116332000D01*
X143637000Y-116332000D01*
X143383000Y-116332000D01*
X143363000Y-116332000D01*
X143363000Y-116078000D01*
X143383000Y-116078000D01*
X143383000Y-114585085D01*
X143637000Y-114585085D01*
X143637000Y-116078000D01*
X144945000Y-116078000D01*
X144945000Y-115728000D01*
X144943199Y-115721841D01*
X150191446Y-115721841D01*
X151130000Y-116660395D01*
X152068554Y-115721841D01*
X157811446Y-115721841D01*
X158750000Y-116660395D01*
X159688554Y-115721841D01*
X159595712Y-115459912D01*
X159003199Y-115241325D01*
X158372139Y-115266122D01*
X157904288Y-115459912D01*
X157811446Y-115721841D01*
X152068554Y-115721841D01*
X151975712Y-115459912D01*
X151383199Y-115241325D01*
X150752139Y-115266122D01*
X150284288Y-115459912D01*
X150191446Y-115721841D01*
X144943199Y-115721841D01*
X144787166Y-115188517D01*
X144434896Y-114750500D01*
X143941819Y-114480633D01*
X143859039Y-114463096D01*
X143637000Y-114585085D01*
X143383000Y-114585085D01*
X143160961Y-114463096D01*
X143078181Y-114480633D01*
X142585104Y-114750500D01*
X142237149Y-115183151D01*
X141984698Y-114805332D01*
X141732000Y-114636484D01*
X141732000Y-114300000D01*
X141673996Y-114008395D01*
X141607834Y-113909377D01*
X141508816Y-113761185D01*
X140873815Y-113126185D01*
X140842157Y-113105032D01*
X140626605Y-112961004D01*
X140335000Y-112903000D01*
X132080000Y-112903000D01*
X131788395Y-112961004D01*
X131572843Y-113105032D01*
X131541185Y-113126185D01*
X130709306Y-113958064D01*
X130318487Y-113795782D01*
X129823355Y-113795350D01*
X129365747Y-113984429D01*
X129015330Y-114334235D01*
X128825452Y-114791513D01*
X128825397Y-114855074D01*
X128763685Y-114855020D01*
X128306077Y-115044099D01*
X127955660Y-115393905D01*
X127765782Y-115851183D01*
X127765350Y-116346315D01*
X127385762Y-116346315D01*
X120735000Y-109695554D01*
X120735000Y-105242775D01*
X120751436Y-105282553D01*
X121210825Y-105742744D01*
X121811351Y-105992104D01*
X122461592Y-105992672D01*
X123062553Y-105744360D01*
X123522744Y-105284971D01*
X123772104Y-104684445D01*
X123772381Y-104367600D01*
X134519400Y-104367600D01*
X134811005Y-104309596D01*
X135058215Y-104144415D01*
X135793815Y-103408816D01*
X135793817Y-103408813D01*
X136205631Y-102997000D01*
X137235595Y-102997000D01*
X137091004Y-103213395D01*
X137072925Y-103304282D01*
X136870057Y-103388106D01*
X136409722Y-103847637D01*
X136160284Y-104448352D01*
X136159716Y-105098795D01*
X136408106Y-105699943D01*
X136625782Y-105918000D01*
X130454560Y-105918000D01*
X130249175Y-105712256D01*
X129648649Y-105462896D01*
X128998408Y-105462328D01*
X128397447Y-105710640D01*
X127937256Y-106170029D01*
X127687896Y-106770555D01*
X127687328Y-107420796D01*
X127935640Y-108021757D01*
X128395029Y-108481948D01*
X128995555Y-108731308D01*
X129645796Y-108731876D01*
X129693899Y-108712000D01*
X134455000Y-108712000D01*
X134455000Y-109062000D01*
X134612834Y-109601483D01*
X134965104Y-110039500D01*
X135458181Y-110309367D01*
X135540961Y-110326904D01*
X135763000Y-110204915D01*
X135763000Y-108712000D01*
X134455000Y-108712000D01*
X129693899Y-108712000D01*
X130246757Y-108483564D01*
X130706948Y-108024175D01*
X130948688Y-107442000D01*
X134714584Y-107442000D01*
X134612834Y-107568517D01*
X134455000Y-108108000D01*
X134455000Y-108458000D01*
X135763000Y-108458000D01*
X135763000Y-108438000D01*
X136017000Y-108438000D01*
X136017000Y-108458000D01*
X136037000Y-108458000D01*
X136037000Y-108712000D01*
X136017000Y-108712000D01*
X136017000Y-110204915D01*
X136239039Y-110326904D01*
X136321819Y-110309367D01*
X136814896Y-110039500D01*
X137162851Y-109606849D01*
X137338157Y-109869212D01*
X136427268Y-110780102D01*
X130775772Y-110780102D01*
X130708564Y-110617447D01*
X130249175Y-110157256D01*
X129648649Y-109907896D01*
X128998408Y-109907328D01*
X128397447Y-110155640D01*
X127937256Y-110615029D01*
X127687896Y-111215555D01*
X127687328Y-111865796D01*
X127935640Y-112466757D01*
X128395029Y-112926948D01*
X128995555Y-113176308D01*
X129645796Y-113176876D01*
X130246757Y-112928564D01*
X130706948Y-112469175D01*
X130775492Y-112304102D01*
X136742898Y-112304102D01*
X137034503Y-112246098D01*
X137281713Y-112080917D01*
X138968816Y-110393815D01*
X139078871Y-110229106D01*
X139444698Y-109984668D01*
X139700000Y-109602582D01*
X139955302Y-109984668D01*
X140321130Y-110229107D01*
X140431185Y-110393815D01*
X141066185Y-111028816D01*
X141214377Y-111127834D01*
X141313395Y-111193996D01*
X141605000Y-111252000D01*
X146050000Y-111252000D01*
X146341605Y-111193996D01*
X146588815Y-111028815D01*
X149540630Y-108077000D01*
X149961458Y-108077000D01*
X149745154Y-108292927D01*
X149495794Y-108893453D01*
X149495226Y-109543694D01*
X149743538Y-110144655D01*
X150121678Y-110523456D01*
X149784968Y-110859579D01*
X149542776Y-111442841D01*
X149542225Y-112074388D01*
X149783398Y-112658072D01*
X150229579Y-113105032D01*
X150812841Y-113347224D01*
X151444388Y-113347775D01*
X152028072Y-113106602D01*
X152475032Y-112660421D01*
X152532510Y-112522000D01*
X157347174Y-112522000D01*
X157403398Y-112658072D01*
X157849579Y-113105032D01*
X158432841Y-113347224D01*
X159064388Y-113347775D01*
X159648072Y-113106602D01*
X160095032Y-112660421D01*
X160337224Y-112077159D01*
X160337775Y-111445612D01*
X160096602Y-110861928D01*
X159650421Y-110414968D01*
X159067159Y-110172776D01*
X158435612Y-110172225D01*
X157851928Y-110413398D01*
X157404968Y-110859579D01*
X157347490Y-110998000D01*
X152532826Y-110998000D01*
X152476602Y-110861928D01*
X152138264Y-110522999D01*
X152514846Y-110147073D01*
X152764206Y-109546547D01*
X152764774Y-108896306D01*
X152516462Y-108295345D01*
X152298498Y-108077000D01*
X160121458Y-108077000D01*
X159905154Y-108292927D01*
X159655794Y-108893453D01*
X159655226Y-109543694D01*
X159903538Y-110144655D01*
X160362927Y-110604846D01*
X160963453Y-110854206D01*
X161613694Y-110854774D01*
X162214655Y-110606462D01*
X162674846Y-110147073D01*
X162924206Y-109546547D01*
X162924774Y-108896306D01*
X162676462Y-108295345D01*
X162458498Y-108077000D01*
X167005000Y-108077000D01*
X167296605Y-108018996D01*
X167543815Y-107853815D01*
X168178816Y-107218815D01*
X168309391Y-107023395D01*
X168343996Y-106971605D01*
X168402000Y-106680000D01*
X168402000Y-99060000D01*
X168343996Y-98768395D01*
X168277834Y-98669377D01*
X168178816Y-98521185D01*
X167543815Y-97886185D01*
X165638815Y-95981185D01*
X165494864Y-95885000D01*
X165391605Y-95816004D01*
X165100000Y-95758000D01*
X164370416Y-95758000D01*
X164472166Y-95631483D01*
X164630000Y-95092000D01*
X164630000Y-94742000D01*
X163322000Y-94742000D01*
X163322000Y-94762000D01*
X163068000Y-94762000D01*
X163068000Y-94742000D01*
X163048000Y-94742000D01*
X163048000Y-94488000D01*
X163068000Y-94488000D01*
X163068000Y-92995085D01*
X163322000Y-92995085D01*
X163322000Y-94488000D01*
X164630000Y-94488000D01*
X164630000Y-94138000D01*
X164472166Y-93598517D01*
X164119896Y-93160500D01*
X163626819Y-92890633D01*
X163544039Y-92873096D01*
X163322000Y-92995085D01*
X163068000Y-92995085D01*
X162845961Y-92873096D01*
X162763181Y-92890633D01*
X162270104Y-93160500D01*
X161922149Y-93593151D01*
X161669698Y-93215332D01*
X161204151Y-92904263D01*
X160655000Y-92795030D01*
X160105849Y-92904263D01*
X159640302Y-93215332D01*
X159385000Y-93597418D01*
X159129698Y-93215332D01*
X158664151Y-92904263D01*
X158115000Y-92795030D01*
X157565849Y-92904263D01*
X157100302Y-93215332D01*
X156845000Y-93597418D01*
X156589698Y-93215332D01*
X156124151Y-92904263D01*
X155575000Y-92795030D01*
X155025849Y-92904263D01*
X154560302Y-93215332D01*
X154249233Y-93680879D01*
X154140000Y-94230030D01*
X154140000Y-94999970D01*
X154249233Y-95549121D01*
X154560302Y-96014668D01*
X155025849Y-96325737D01*
X155575000Y-96434970D01*
X156124151Y-96325737D01*
X156589698Y-96014668D01*
X156845000Y-95632582D01*
X157100302Y-96014668D01*
X157466130Y-96259107D01*
X157576185Y-96423815D01*
X158180369Y-97028000D01*
X153797000Y-97028000D01*
X153797000Y-86610030D01*
X154140000Y-86610030D01*
X154140000Y-87379970D01*
X154249233Y-87929121D01*
X154560302Y-88394668D01*
X155025849Y-88705737D01*
X155575000Y-88814970D01*
X156124151Y-88705737D01*
X156589698Y-88394668D01*
X156845000Y-88012582D01*
X157100302Y-88394668D01*
X157565849Y-88705737D01*
X158115000Y-88814970D01*
X158664151Y-88705737D01*
X159129698Y-88394668D01*
X159385000Y-88012582D01*
X159640302Y-88394668D01*
X160105849Y-88705737D01*
X160655000Y-88814970D01*
X161204151Y-88705737D01*
X161669698Y-88394668D01*
X161925000Y-88012582D01*
X162180302Y-88394668D01*
X162645849Y-88705737D01*
X163195000Y-88814970D01*
X163744151Y-88705737D01*
X164209698Y-88394668D01*
X164520767Y-87929121D01*
X164630000Y-87379970D01*
X164630000Y-86610030D01*
X164520767Y-86060879D01*
X164209698Y-85595332D01*
X163744151Y-85284263D01*
X163195000Y-85175030D01*
X162645849Y-85284263D01*
X162180302Y-85595332D01*
X161925000Y-85977418D01*
X161669698Y-85595332D01*
X161204151Y-85284263D01*
X160655000Y-85175030D01*
X160135763Y-85278313D01*
X160309655Y-85206462D01*
X160769846Y-84747073D01*
X161019206Y-84146547D01*
X161019774Y-83496306D01*
X160771462Y-82895345D01*
X160312073Y-82435154D01*
X159711547Y-82185794D01*
X159061306Y-82185226D01*
X158460345Y-82433538D01*
X158000154Y-82892927D01*
X157750794Y-83493453D01*
X157750226Y-84143694D01*
X157998538Y-84744655D01*
X158457927Y-85204846D01*
X158635423Y-85278549D01*
X158115000Y-85175030D01*
X157565849Y-85284263D01*
X157100302Y-85595332D01*
X156845000Y-85977418D01*
X156589698Y-85595332D01*
X156124151Y-85284263D01*
X155575000Y-85175030D01*
X155025849Y-85284263D01*
X154560302Y-85595332D01*
X154249233Y-86060879D01*
X154140000Y-86610030D01*
X153797000Y-86610030D01*
X153797000Y-86360000D01*
X153738996Y-86068395D01*
X153733974Y-86060879D01*
X153573815Y-85821184D01*
X151033815Y-83281185D01*
X150786605Y-83116004D01*
X150695117Y-83097806D01*
X150611462Y-82895345D01*
X150152073Y-82435154D01*
X149551547Y-82185794D01*
X148901306Y-82185226D01*
X148300345Y-82433538D01*
X147840154Y-82892927D01*
X147590794Y-83493453D01*
X147590226Y-84143694D01*
X147838538Y-84744655D01*
X148297927Y-85204846D01*
X148898453Y-85454206D01*
X149548694Y-85454774D01*
X150149655Y-85206462D01*
X150477029Y-84879659D01*
X152273000Y-86675631D01*
X152273000Y-98047560D01*
X152035000Y-98047560D01*
X151799683Y-98091838D01*
X151583559Y-98230910D01*
X151486090Y-98373561D01*
X151422363Y-98309722D01*
X151217117Y-98224497D01*
X151198996Y-98133395D01*
X151132834Y-98034377D01*
X151033816Y-97886185D01*
X150398815Y-97251185D01*
X150358124Y-97223996D01*
X150151605Y-97086004D01*
X149860000Y-97028000D01*
X146050000Y-97028000D01*
X145758395Y-97086004D01*
X145659377Y-97152166D01*
X145511185Y-97251184D01*
X141701188Y-101061182D01*
X141701185Y-101061184D01*
X141289370Y-101473000D01*
X137326463Y-101473000D01*
X137459838Y-101151799D01*
X137460162Y-100779833D01*
X137318117Y-100436057D01*
X137055327Y-100172808D01*
X136711799Y-100030162D01*
X136339833Y-100029838D01*
X135996057Y-100171883D01*
X135964886Y-100203000D01*
X135255000Y-100203000D01*
X134963395Y-100261004D01*
X134716184Y-100426185D01*
X133669370Y-101473000D01*
X123505630Y-101473000D01*
X123197389Y-101164759D01*
X123522744Y-100839971D01*
X123772104Y-100239445D01*
X123772672Y-99589204D01*
X123524360Y-98988243D01*
X123064971Y-98528052D01*
X122464445Y-98278692D01*
X121814204Y-98278124D01*
X121213243Y-98526436D01*
X120753052Y-98985825D01*
X120735000Y-99029299D01*
X120735000Y-93330963D01*
X125923642Y-93330963D01*
X126039806Y-93612658D01*
X126701333Y-93863062D01*
X127408329Y-93841249D01*
X127960194Y-93612658D01*
X128076358Y-93330963D01*
X127000000Y-92254605D01*
X125923642Y-93330963D01*
X120735000Y-93330963D01*
X120735000Y-91776333D01*
X125211938Y-91776333D01*
X125233751Y-92483329D01*
X125462342Y-93035194D01*
X125744037Y-93151358D01*
X126820395Y-92075000D01*
X127179605Y-92075000D01*
X128255963Y-93151358D01*
X128537658Y-93035194D01*
X128767831Y-92427114D01*
X148081692Y-92427114D01*
X148351806Y-93080840D01*
X148851529Y-93581436D01*
X149504782Y-93852691D01*
X150212114Y-93853308D01*
X150865840Y-93583194D01*
X151366436Y-93083471D01*
X151637691Y-92430218D01*
X151638308Y-91722886D01*
X151368194Y-91069160D01*
X150868471Y-90568564D01*
X150215218Y-90297309D01*
X149507886Y-90296692D01*
X148854160Y-90566806D01*
X148353564Y-91066529D01*
X148082309Y-91719782D01*
X148081692Y-92427114D01*
X128767831Y-92427114D01*
X128788062Y-92373667D01*
X128766249Y-91666671D01*
X128537658Y-91114806D01*
X128255963Y-90998642D01*
X127179605Y-92075000D01*
X126820395Y-92075000D01*
X125744037Y-90998642D01*
X125462342Y-91114806D01*
X125211938Y-91776333D01*
X120735000Y-91776333D01*
X120735000Y-90819037D01*
X125923642Y-90819037D01*
X127000000Y-91895395D01*
X128076358Y-90819037D01*
X127960194Y-90537342D01*
X127298667Y-90286938D01*
X126591671Y-90308751D01*
X126039806Y-90537342D01*
X125923642Y-90819037D01*
X120735000Y-90819037D01*
X120735000Y-90304446D01*
X130304447Y-80735000D01*
X137695554Y-80735000D01*
X138480277Y-81519724D01*
X138480277Y-81519724D01*
G37*
X138480277Y-81519724D02*
X138718728Y-81679051D01*
X139000000Y-81735000D01*
X151000000Y-81735000D01*
X151281272Y-81679051D01*
X151519723Y-81519723D01*
X152304447Y-80735000D01*
X159695554Y-80735000D01*
X169265000Y-90304447D01*
X169265000Y-109695553D01*
X159695554Y-119265000D01*
X152304447Y-119265000D01*
X151519723Y-118480277D01*
X151425210Y-118417126D01*
X151507861Y-118413878D01*
X151975712Y-118220088D01*
X152068554Y-117958159D01*
X157811446Y-117958159D01*
X157904288Y-118220088D01*
X158496801Y-118438675D01*
X159127861Y-118413878D01*
X159595712Y-118220088D01*
X159688554Y-117958159D01*
X158750000Y-117019605D01*
X157811446Y-117958159D01*
X152068554Y-117958159D01*
X151130000Y-117019605D01*
X150191446Y-117958159D01*
X150284288Y-118220088D01*
X150406029Y-118265000D01*
X139000000Y-118265000D01*
X138718728Y-118320949D01*
X138480277Y-118480276D01*
X137695554Y-119265000D01*
X130304447Y-119265000D01*
X127385762Y-116346315D01*
X127765350Y-116346315D01*
X127954429Y-116803923D01*
X128304235Y-117154340D01*
X128761513Y-117344218D01*
X129177280Y-117344581D01*
X129211514Y-117378815D01*
X129458725Y-117543996D01*
X129750330Y-117602000D01*
X132080000Y-117602000D01*
X132371605Y-117543996D01*
X132618815Y-117378815D01*
X134523879Y-115473751D01*
X134455000Y-115820030D01*
X134455000Y-116589970D01*
X134564233Y-117139121D01*
X134875302Y-117604668D01*
X135340849Y-117915737D01*
X135890000Y-118024970D01*
X136439151Y-117915737D01*
X136904698Y-117604668D01*
X137160000Y-117222582D01*
X137415302Y-117604668D01*
X137880849Y-117915737D01*
X138430000Y-118024970D01*
X138979151Y-117915737D01*
X139444698Y-117604668D01*
X139700000Y-117222582D01*
X139955302Y-117604668D01*
X140420849Y-117915737D01*
X140970000Y-118024970D01*
X141519151Y-117915737D01*
X141984698Y-117604668D01*
X142237149Y-117226849D01*
X142585104Y-117659500D01*
X143078181Y-117929367D01*
X143160961Y-117946904D01*
X143383000Y-117824915D01*
X143383000Y-116332000D01*
X143637000Y-116332000D01*
X143637000Y-117824915D01*
X143859039Y-117946904D01*
X143941819Y-117929367D01*
X144434896Y-117659500D01*
X144787166Y-117221483D01*
X144945000Y-116682000D01*
X144945000Y-116586801D01*
X149531325Y-116586801D01*
X149556122Y-117217861D01*
X149749912Y-117685712D01*
X150011841Y-117778554D01*
X150950395Y-116840000D01*
X151309605Y-116840000D01*
X152248159Y-117778554D01*
X152510088Y-117685712D01*
X152728675Y-117093199D01*
X152708777Y-116586801D01*
X157151325Y-116586801D01*
X157176122Y-117217861D01*
X157369912Y-117685712D01*
X157631841Y-117778554D01*
X158570395Y-116840000D01*
X158929605Y-116840000D01*
X159868159Y-117778554D01*
X160130088Y-117685712D01*
X160348675Y-117093199D01*
X160323878Y-116462139D01*
X160130088Y-115994288D01*
X159868159Y-115901446D01*
X158929605Y-116840000D01*
X158570395Y-116840000D01*
X157631841Y-115901446D01*
X157369912Y-115994288D01*
X157151325Y-116586801D01*
X152708777Y-116586801D01*
X152703878Y-116462139D01*
X152510088Y-115994288D01*
X152248159Y-115901446D01*
X151309605Y-116840000D01*
X150950395Y-116840000D01*
X150011841Y-115901446D01*
X149749912Y-115994288D01*
X149531325Y-116586801D01*
X144945000Y-116586801D01*
X144945000Y-116332000D01*
X143637000Y-116332000D01*
X143383000Y-116332000D01*
X143363000Y-116332000D01*
X143363000Y-116078000D01*
X143383000Y-116078000D01*
X143383000Y-114585085D01*
X143637000Y-114585085D01*
X143637000Y-116078000D01*
X144945000Y-116078000D01*
X144945000Y-115728000D01*
X144943199Y-115721841D01*
X150191446Y-115721841D01*
X151130000Y-116660395D01*
X152068554Y-115721841D01*
X157811446Y-115721841D01*
X158750000Y-116660395D01*
X159688554Y-115721841D01*
X159595712Y-115459912D01*
X159003199Y-115241325D01*
X158372139Y-115266122D01*
X157904288Y-115459912D01*
X157811446Y-115721841D01*
X152068554Y-115721841D01*
X151975712Y-115459912D01*
X151383199Y-115241325D01*
X150752139Y-115266122D01*
X150284288Y-115459912D01*
X150191446Y-115721841D01*
X144943199Y-115721841D01*
X144787166Y-115188517D01*
X144434896Y-114750500D01*
X143941819Y-114480633D01*
X143859039Y-114463096D01*
X143637000Y-114585085D01*
X143383000Y-114585085D01*
X143160961Y-114463096D01*
X143078181Y-114480633D01*
X142585104Y-114750500D01*
X142237149Y-115183151D01*
X141984698Y-114805332D01*
X141732000Y-114636484D01*
X141732000Y-114300000D01*
X141673996Y-114008395D01*
X141607834Y-113909377D01*
X141508816Y-113761185D01*
X140873815Y-113126185D01*
X140842157Y-113105032D01*
X140626605Y-112961004D01*
X140335000Y-112903000D01*
X132080000Y-112903000D01*
X131788395Y-112961004D01*
X131572843Y-113105032D01*
X131541185Y-113126185D01*
X130709306Y-113958064D01*
X130318487Y-113795782D01*
X129823355Y-113795350D01*
X129365747Y-113984429D01*
X129015330Y-114334235D01*
X128825452Y-114791513D01*
X128825397Y-114855074D01*
X128763685Y-114855020D01*
X128306077Y-115044099D01*
X127955660Y-115393905D01*
X127765782Y-115851183D01*
X127765350Y-116346315D01*
X127385762Y-116346315D01*
X120735000Y-109695554D01*
X120735000Y-105242775D01*
X120751436Y-105282553D01*
X121210825Y-105742744D01*
X121811351Y-105992104D01*
X122461592Y-105992672D01*
X123062553Y-105744360D01*
X123522744Y-105284971D01*
X123772104Y-104684445D01*
X123772381Y-104367600D01*
X134519400Y-104367600D01*
X134811005Y-104309596D01*
X135058215Y-104144415D01*
X135793815Y-103408816D01*
X135793817Y-103408813D01*
X136205631Y-102997000D01*
X137235595Y-102997000D01*
X137091004Y-103213395D01*
X137072925Y-103304282D01*
X136870057Y-103388106D01*
X136409722Y-103847637D01*
X136160284Y-104448352D01*
X136159716Y-105098795D01*
X136408106Y-105699943D01*
X136625782Y-105918000D01*
X130454560Y-105918000D01*
X130249175Y-105712256D01*
X129648649Y-105462896D01*
X128998408Y-105462328D01*
X128397447Y-105710640D01*
X127937256Y-106170029D01*
X127687896Y-106770555D01*
X127687328Y-107420796D01*
X127935640Y-108021757D01*
X128395029Y-108481948D01*
X128995555Y-108731308D01*
X129645796Y-108731876D01*
X129693899Y-108712000D01*
X134455000Y-108712000D01*
X134455000Y-109062000D01*
X134612834Y-109601483D01*
X134965104Y-110039500D01*
X135458181Y-110309367D01*
X135540961Y-110326904D01*
X135763000Y-110204915D01*
X135763000Y-108712000D01*
X134455000Y-108712000D01*
X129693899Y-108712000D01*
X130246757Y-108483564D01*
X130706948Y-108024175D01*
X130948688Y-107442000D01*
X134714584Y-107442000D01*
X134612834Y-107568517D01*
X134455000Y-108108000D01*
X134455000Y-108458000D01*
X135763000Y-108458000D01*
X135763000Y-108438000D01*
X136017000Y-108438000D01*
X136017000Y-108458000D01*
X136037000Y-108458000D01*
X136037000Y-108712000D01*
X136017000Y-108712000D01*
X136017000Y-110204915D01*
X136239039Y-110326904D01*
X136321819Y-110309367D01*
X136814896Y-110039500D01*
X137162851Y-109606849D01*
X137338157Y-109869212D01*
X136427268Y-110780102D01*
X130775772Y-110780102D01*
X130708564Y-110617447D01*
X130249175Y-110157256D01*
X129648649Y-109907896D01*
X128998408Y-109907328D01*
X128397447Y-110155640D01*
X127937256Y-110615029D01*
X127687896Y-111215555D01*
X127687328Y-111865796D01*
X127935640Y-112466757D01*
X128395029Y-112926948D01*
X128995555Y-113176308D01*
X129645796Y-113176876D01*
X130246757Y-112928564D01*
X130706948Y-112469175D01*
X130775492Y-112304102D01*
X136742898Y-112304102D01*
X137034503Y-112246098D01*
X137281713Y-112080917D01*
X138968816Y-110393815D01*
X139078871Y-110229106D01*
X139444698Y-109984668D01*
X139700000Y-109602582D01*
X139955302Y-109984668D01*
X140321130Y-110229107D01*
X140431185Y-110393815D01*
X141066185Y-111028816D01*
X141214377Y-111127834D01*
X141313395Y-111193996D01*
X141605000Y-111252000D01*
X146050000Y-111252000D01*
X146341605Y-111193996D01*
X146588815Y-111028815D01*
X149540630Y-108077000D01*
X149961458Y-108077000D01*
X149745154Y-108292927D01*
X149495794Y-108893453D01*
X149495226Y-109543694D01*
X149743538Y-110144655D01*
X150121678Y-110523456D01*
X149784968Y-110859579D01*
X149542776Y-111442841D01*
X149542225Y-112074388D01*
X149783398Y-112658072D01*
X150229579Y-113105032D01*
X150812841Y-113347224D01*
X151444388Y-113347775D01*
X152028072Y-113106602D01*
X152475032Y-112660421D01*
X152532510Y-112522000D01*
X157347174Y-112522000D01*
X157403398Y-112658072D01*
X157849579Y-113105032D01*
X158432841Y-113347224D01*
X159064388Y-113347775D01*
X159648072Y-113106602D01*
X160095032Y-112660421D01*
X160337224Y-112077159D01*
X160337775Y-111445612D01*
X160096602Y-110861928D01*
X159650421Y-110414968D01*
X159067159Y-110172776D01*
X158435612Y-110172225D01*
X157851928Y-110413398D01*
X157404968Y-110859579D01*
X157347490Y-110998000D01*
X152532826Y-110998000D01*
X152476602Y-110861928D01*
X152138264Y-110522999D01*
X152514846Y-110147073D01*
X152764206Y-109546547D01*
X152764774Y-108896306D01*
X152516462Y-108295345D01*
X152298498Y-108077000D01*
X160121458Y-108077000D01*
X159905154Y-108292927D01*
X159655794Y-108893453D01*
X159655226Y-109543694D01*
X159903538Y-110144655D01*
X160362927Y-110604846D01*
X160963453Y-110854206D01*
X161613694Y-110854774D01*
X162214655Y-110606462D01*
X162674846Y-110147073D01*
X162924206Y-109546547D01*
X162924774Y-108896306D01*
X162676462Y-108295345D01*
X162458498Y-108077000D01*
X167005000Y-108077000D01*
X167296605Y-108018996D01*
X167543815Y-107853815D01*
X168178816Y-107218815D01*
X168309391Y-107023395D01*
X168343996Y-106971605D01*
X168402000Y-106680000D01*
X168402000Y-99060000D01*
X168343996Y-98768395D01*
X168277834Y-98669377D01*
X168178816Y-98521185D01*
X167543815Y-97886185D01*
X165638815Y-95981185D01*
X165494864Y-95885000D01*
X165391605Y-95816004D01*
X165100000Y-95758000D01*
X164370416Y-95758000D01*
X164472166Y-95631483D01*
X164630000Y-95092000D01*
X164630000Y-94742000D01*
X163322000Y-94742000D01*
X163322000Y-94762000D01*
X163068000Y-94762000D01*
X163068000Y-94742000D01*
X163048000Y-94742000D01*
X163048000Y-94488000D01*
X163068000Y-94488000D01*
X163068000Y-92995085D01*
X163322000Y-92995085D01*
X163322000Y-94488000D01*
X164630000Y-94488000D01*
X164630000Y-94138000D01*
X164472166Y-93598517D01*
X164119896Y-93160500D01*
X163626819Y-92890633D01*
X163544039Y-92873096D01*
X163322000Y-92995085D01*
X163068000Y-92995085D01*
X162845961Y-92873096D01*
X162763181Y-92890633D01*
X162270104Y-93160500D01*
X161922149Y-93593151D01*
X161669698Y-93215332D01*
X161204151Y-92904263D01*
X160655000Y-92795030D01*
X160105849Y-92904263D01*
X159640302Y-93215332D01*
X159385000Y-93597418D01*
X159129698Y-93215332D01*
X158664151Y-92904263D01*
X158115000Y-92795030D01*
X157565849Y-92904263D01*
X157100302Y-93215332D01*
X156845000Y-93597418D01*
X156589698Y-93215332D01*
X156124151Y-92904263D01*
X155575000Y-92795030D01*
X155025849Y-92904263D01*
X154560302Y-93215332D01*
X154249233Y-93680879D01*
X154140000Y-94230030D01*
X154140000Y-94999970D01*
X154249233Y-95549121D01*
X154560302Y-96014668D01*
X155025849Y-96325737D01*
X155575000Y-96434970D01*
X156124151Y-96325737D01*
X156589698Y-96014668D01*
X156845000Y-95632582D01*
X157100302Y-96014668D01*
X157466130Y-96259107D01*
X157576185Y-96423815D01*
X158180369Y-97028000D01*
X153797000Y-97028000D01*
X153797000Y-86610030D01*
X154140000Y-86610030D01*
X154140000Y-87379970D01*
X154249233Y-87929121D01*
X154560302Y-88394668D01*
X155025849Y-88705737D01*
X155575000Y-88814970D01*
X156124151Y-88705737D01*
X156589698Y-88394668D01*
X156845000Y-88012582D01*
X157100302Y-88394668D01*
X157565849Y-88705737D01*
X158115000Y-88814970D01*
X158664151Y-88705737D01*
X159129698Y-88394668D01*
X159385000Y-88012582D01*
X159640302Y-88394668D01*
X160105849Y-88705737D01*
X160655000Y-88814970D01*
X161204151Y-88705737D01*
X161669698Y-88394668D01*
X161925000Y-88012582D01*
X162180302Y-88394668D01*
X162645849Y-88705737D01*
X163195000Y-88814970D01*
X163744151Y-88705737D01*
X164209698Y-88394668D01*
X164520767Y-87929121D01*
X164630000Y-87379970D01*
X164630000Y-86610030D01*
X164520767Y-86060879D01*
X164209698Y-85595332D01*
X163744151Y-85284263D01*
X163195000Y-85175030D01*
X162645849Y-85284263D01*
X162180302Y-85595332D01*
X161925000Y-85977418D01*
X161669698Y-85595332D01*
X161204151Y-85284263D01*
X160655000Y-85175030D01*
X160135763Y-85278313D01*
X160309655Y-85206462D01*
X160769846Y-84747073D01*
X161019206Y-84146547D01*
X161019774Y-83496306D01*
X160771462Y-82895345D01*
X160312073Y-82435154D01*
X159711547Y-82185794D01*
X159061306Y-82185226D01*
X158460345Y-82433538D01*
X158000154Y-82892927D01*
X157750794Y-83493453D01*
X157750226Y-84143694D01*
X157998538Y-84744655D01*
X158457927Y-85204846D01*
X158635423Y-85278549D01*
X158115000Y-85175030D01*
X157565849Y-85284263D01*
X157100302Y-85595332D01*
X156845000Y-85977418D01*
X156589698Y-85595332D01*
X156124151Y-85284263D01*
X155575000Y-85175030D01*
X155025849Y-85284263D01*
X154560302Y-85595332D01*
X154249233Y-86060879D01*
X154140000Y-86610030D01*
X153797000Y-86610030D01*
X153797000Y-86360000D01*
X153738996Y-86068395D01*
X153733974Y-86060879D01*
X153573815Y-85821184D01*
X151033815Y-83281185D01*
X150786605Y-83116004D01*
X150695117Y-83097806D01*
X150611462Y-82895345D01*
X150152073Y-82435154D01*
X149551547Y-82185794D01*
X148901306Y-82185226D01*
X148300345Y-82433538D01*
X147840154Y-82892927D01*
X147590794Y-83493453D01*
X147590226Y-84143694D01*
X147838538Y-84744655D01*
X148297927Y-85204846D01*
X148898453Y-85454206D01*
X149548694Y-85454774D01*
X150149655Y-85206462D01*
X150477029Y-84879659D01*
X152273000Y-86675631D01*
X152273000Y-98047560D01*
X152035000Y-98047560D01*
X151799683Y-98091838D01*
X151583559Y-98230910D01*
X151486090Y-98373561D01*
X151422363Y-98309722D01*
X151217117Y-98224497D01*
X151198996Y-98133395D01*
X151132834Y-98034377D01*
X151033816Y-97886185D01*
X150398815Y-97251185D01*
X150358124Y-97223996D01*
X150151605Y-97086004D01*
X149860000Y-97028000D01*
X146050000Y-97028000D01*
X145758395Y-97086004D01*
X145659377Y-97152166D01*
X145511185Y-97251184D01*
X141701188Y-101061182D01*
X141701185Y-101061184D01*
X141289370Y-101473000D01*
X137326463Y-101473000D01*
X137459838Y-101151799D01*
X137460162Y-100779833D01*
X137318117Y-100436057D01*
X137055327Y-100172808D01*
X136711799Y-100030162D01*
X136339833Y-100029838D01*
X135996057Y-100171883D01*
X135964886Y-100203000D01*
X135255000Y-100203000D01*
X134963395Y-100261004D01*
X134716184Y-100426185D01*
X133669370Y-101473000D01*
X123505630Y-101473000D01*
X123197389Y-101164759D01*
X123522744Y-100839971D01*
X123772104Y-100239445D01*
X123772672Y-99589204D01*
X123524360Y-98988243D01*
X123064971Y-98528052D01*
X122464445Y-98278692D01*
X121814204Y-98278124D01*
X121213243Y-98526436D01*
X120753052Y-98985825D01*
X120735000Y-99029299D01*
X120735000Y-93330963D01*
X125923642Y-93330963D01*
X126039806Y-93612658D01*
X126701333Y-93863062D01*
X127408329Y-93841249D01*
X127960194Y-93612658D01*
X128076358Y-93330963D01*
X127000000Y-92254605D01*
X125923642Y-93330963D01*
X120735000Y-93330963D01*
X120735000Y-91776333D01*
X125211938Y-91776333D01*
X125233751Y-92483329D01*
X125462342Y-93035194D01*
X125744037Y-93151358D01*
X126820395Y-92075000D01*
X127179605Y-92075000D01*
X128255963Y-93151358D01*
X128537658Y-93035194D01*
X128767831Y-92427114D01*
X148081692Y-92427114D01*
X148351806Y-93080840D01*
X148851529Y-93581436D01*
X149504782Y-93852691D01*
X150212114Y-93853308D01*
X150865840Y-93583194D01*
X151366436Y-93083471D01*
X151637691Y-92430218D01*
X151638308Y-91722886D01*
X151368194Y-91069160D01*
X150868471Y-90568564D01*
X150215218Y-90297309D01*
X149507886Y-90296692D01*
X148854160Y-90566806D01*
X148353564Y-91066529D01*
X148082309Y-91719782D01*
X148081692Y-92427114D01*
X128767831Y-92427114D01*
X128788062Y-92373667D01*
X128766249Y-91666671D01*
X128537658Y-91114806D01*
X128255963Y-90998642D01*
X127179605Y-92075000D01*
X126820395Y-92075000D01*
X125744037Y-90998642D01*
X125462342Y-91114806D01*
X125211938Y-91776333D01*
X120735000Y-91776333D01*
X120735000Y-90819037D01*
X125923642Y-90819037D01*
X127000000Y-91895395D01*
X128076358Y-90819037D01*
X127960194Y-90537342D01*
X127298667Y-90286938D01*
X126591671Y-90308751D01*
X126039806Y-90537342D01*
X125923642Y-90819037D01*
X120735000Y-90819037D01*
X120735000Y-90304446D01*
X130304447Y-80735000D01*
X137695554Y-80735000D01*
X138480277Y-81519724D01*
M02*
