G04 #@! TF.FileFunction,Copper,L2,Bot,Signal*
%FSLAX46Y46*%
G04 Gerber Fmt 4.6, Leading zero omitted, Abs format (unit mm)*
G04 Created by KiCad (PCBNEW 4.0.1-stable) date Sun 07 Feb 2016 10:26:34 PM CET*
%MOMM*%
G01*
G04 APERTURE LIST*
%ADD10C,0.100000*%
%ADD11C,2.286000*%
%ADD12O,2.300000X1.600000*%
%ADD13R,2.000000X2.000000*%
%ADD14C,2.000000*%
%ADD15C,1.998980*%
%ADD16C,1.905000*%
%ADD17C,1.219200*%
%ADD18C,0.254000*%
G04 APERTURE END LIST*
D10*
D11*
X130453146Y-95613146D03*
X144595281Y-109755281D03*
D12*
X158970000Y-100000000D03*
X158970000Y-97460000D03*
X158970000Y-94920000D03*
X158970000Y-92380000D03*
X151350000Y-92380000D03*
X151350000Y-94920000D03*
X151350000Y-97460000D03*
X151350000Y-100000000D03*
D13*
X158970000Y-88205000D03*
D14*
X156430000Y-88205000D03*
D13*
X153890000Y-88205000D03*
D14*
X151350000Y-88205000D03*
D13*
X148810000Y-88205000D03*
D14*
X146270000Y-88205000D03*
D13*
X143730000Y-88205000D03*
D14*
X141190000Y-88205000D03*
D15*
X147957102Y-105932898D03*
X140772898Y-113117102D03*
X154307102Y-104662898D03*
X147122898Y-111847102D03*
X161927102Y-105297898D03*
X154742898Y-112482102D03*
D16*
X159233026Y-104399872D03*
X162825128Y-107991974D03*
X153844872Y-109788026D03*
X157436974Y-113380128D03*
D17*
X147540000Y-96939300D03*
X147540000Y-95440700D03*
D13*
X138650000Y-88205000D03*
D14*
X136110000Y-88205000D03*
D13*
X133570000Y-88205000D03*
D14*
X131030000Y-88205000D03*
D12*
X155160000Y-100000000D03*
X155160000Y-97460000D03*
X155160000Y-94920000D03*
X155160000Y-92380000D03*
X162780000Y-92380000D03*
X162780000Y-94920000D03*
X162780000Y-97460000D03*
X162780000Y-100000000D03*
D18*
X162825128Y-107991974D02*
X157436974Y-113380128D01*
X157436974Y-113380128D02*
X157436974Y-114233026D01*
X157436974Y-114233026D02*
X154525000Y-117145000D01*
X154525000Y-117145000D02*
X134840000Y-117145000D01*
X134840000Y-117145000D02*
X132300000Y-114605000D01*
X132300000Y-114605000D02*
X132300000Y-97460000D01*
X132300000Y-97460000D02*
X130453146Y-95613146D01*
X158970000Y-92380000D02*
X161510000Y-89840000D01*
X127855000Y-93015000D02*
X130453146Y-95613146D01*
X127855000Y-88570000D02*
X127855000Y-93015000D01*
X133570000Y-82855000D02*
X127855000Y-88570000D01*
X156430000Y-82855000D02*
X133570000Y-82855000D01*
X161510000Y-87935000D02*
X156430000Y-82855000D01*
X161510000Y-89840000D02*
X161510000Y-87935000D01*
X155160000Y-92380000D02*
X158970000Y-92380000D01*
X155160000Y-92380000D02*
X153890000Y-91110000D01*
X145635000Y-100000000D02*
X151350000Y-100000000D01*
X145000000Y-99365000D02*
X145635000Y-100000000D01*
X145000000Y-94920000D02*
X145000000Y-99365000D01*
X148810000Y-91110000D02*
X145000000Y-94920000D01*
X153890000Y-91110000D02*
X148810000Y-91110000D01*
X147957102Y-105932898D02*
X149227102Y-105932898D01*
X153890000Y-97460000D02*
X153255000Y-98095000D01*
X153255000Y-98095000D02*
X153255000Y-101905000D01*
X155160000Y-97460000D02*
X153890000Y-97460000D01*
X149227102Y-105932898D02*
X153255000Y-101905000D01*
X162780000Y-94920000D02*
X162145000Y-94920000D01*
X162145000Y-94920000D02*
X160875000Y-96190000D01*
X161927102Y-103592102D02*
X161927102Y-105297898D01*
X160875000Y-102540000D02*
X161927102Y-103592102D01*
X160875000Y-96190000D02*
X160875000Y-102540000D01*
X148696000Y-95440700D02*
X147540000Y-95440700D01*
X149445000Y-96190000D02*
X148696000Y-95440700D01*
X157065000Y-96190000D02*
X149445000Y-96190000D01*
X158335000Y-94920000D02*
X157065000Y-96190000D01*
X158970000Y-94920000D02*
X158335000Y-94920000D01*
X141190000Y-106985000D02*
X141190000Y-107620000D01*
X140772898Y-108037102D02*
X140772898Y-113117102D01*
X141190000Y-107620000D02*
X140772898Y-108037102D01*
X141190000Y-88205000D02*
X141190000Y-87300000D01*
X141190000Y-87300000D02*
X141825000Y-86665000D01*
X158335000Y-86665000D02*
X158970000Y-87300000D01*
X141825000Y-86665000D02*
X158335000Y-86665000D01*
X158970000Y-87300000D02*
X158970000Y-88205000D01*
X139920000Y-86665000D02*
X140555000Y-86665000D01*
X139920000Y-86665000D02*
X136745000Y-86665000D01*
X136745000Y-86665000D02*
X136110000Y-87300000D01*
X140555000Y-86665000D02*
X141190000Y-87300000D01*
X141190000Y-88205000D02*
X141190000Y-87935000D01*
X136110000Y-87300000D02*
X136110000Y-88205000D01*
X141190000Y-106985000D02*
X141190000Y-88205000D01*
X140772900Y-113117100D02*
X141190000Y-112700000D01*
X147122898Y-111847102D02*
X147122898Y-109107898D01*
X147122898Y-109107898D02*
X146905000Y-108890000D01*
X142460000Y-104445000D02*
X146905000Y-108890000D01*
X142460000Y-94920000D02*
X142460000Y-104445000D01*
X146270000Y-89840000D02*
X146270000Y-88205000D01*
X146270000Y-91110000D02*
X142460000Y-94920000D01*
X146270000Y-89840000D02*
X146270000Y-91110000D01*
X146905000Y-111629204D02*
X147122898Y-111847102D01*
X146270000Y-88205000D02*
X143730000Y-88205000D01*
X146025700Y-88449300D02*
X146270000Y-88205000D01*
X143730000Y-103810000D02*
X143730000Y-104445000D01*
X151767102Y-112482102D02*
X154742898Y-112482102D01*
X143730000Y-104445000D02*
X151767102Y-112482102D01*
X148810000Y-88205000D02*
X148810000Y-89840000D01*
X148810000Y-89840000D02*
X143730000Y-94920000D01*
X143730000Y-94920000D02*
X143730000Y-103810000D01*
X155160000Y-100000000D02*
X155160000Y-100326846D01*
X155160000Y-100326846D02*
X159233026Y-104399872D01*
X153844900Y-109788000D02*
X159233000Y-104399900D01*
G36*
X164265000Y-90304447D02*
X164265000Y-91493010D01*
X164179668Y-91365302D01*
X163714121Y-91054233D01*
X163164970Y-90945000D01*
X162395030Y-90945000D01*
X161845879Y-91054233D01*
X161380332Y-91365302D01*
X161069263Y-91830849D01*
X160960030Y-92380000D01*
X161069263Y-92929151D01*
X161380332Y-93394698D01*
X161762418Y-93650000D01*
X161380332Y-93905302D01*
X161069263Y-94370849D01*
X160960030Y-94920000D01*
X160977839Y-95009531D01*
X160721091Y-95266279D01*
X160789970Y-94920000D01*
X160680737Y-94370849D01*
X160369668Y-93905302D01*
X159991849Y-93652851D01*
X160424500Y-93304896D01*
X160694367Y-92811819D01*
X160711904Y-92729039D01*
X160589915Y-92507000D01*
X159097000Y-92507000D01*
X159097000Y-92527000D01*
X158843000Y-92527000D01*
X158843000Y-92507000D01*
X157350085Y-92507000D01*
X157228096Y-92729039D01*
X157245633Y-92811819D01*
X157515500Y-93304896D01*
X157948151Y-93652851D01*
X157570332Y-93905302D01*
X157259263Y-94370849D01*
X157150030Y-94920000D01*
X157167839Y-95009531D01*
X156911091Y-95266279D01*
X156979970Y-94920000D01*
X156870737Y-94370849D01*
X156559668Y-93905302D01*
X156181849Y-93652851D01*
X156614500Y-93304896D01*
X156884367Y-92811819D01*
X156901904Y-92729039D01*
X156779915Y-92507000D01*
X155287000Y-92507000D01*
X155287000Y-92527000D01*
X155033000Y-92527000D01*
X155033000Y-92507000D01*
X153540085Y-92507000D01*
X153418096Y-92729039D01*
X153435633Y-92811819D01*
X153705500Y-93304896D01*
X154138151Y-93652851D01*
X153760332Y-93905302D01*
X153449263Y-94370849D01*
X153340030Y-94920000D01*
X153441078Y-95428000D01*
X153068922Y-95428000D01*
X153169970Y-94920000D01*
X153060737Y-94370849D01*
X152749668Y-93905302D01*
X152367582Y-93650000D01*
X152749668Y-93394698D01*
X153060737Y-92929151D01*
X153169970Y-92380000D01*
X153100542Y-92030961D01*
X153418096Y-92030961D01*
X153540085Y-92253000D01*
X155033000Y-92253000D01*
X155033000Y-90945000D01*
X155287000Y-90945000D01*
X155287000Y-92253000D01*
X156779915Y-92253000D01*
X156901904Y-92030961D01*
X157228096Y-92030961D01*
X157350085Y-92253000D01*
X158843000Y-92253000D01*
X158843000Y-90945000D01*
X159097000Y-90945000D01*
X159097000Y-92253000D01*
X160589915Y-92253000D01*
X160711904Y-92030961D01*
X160694367Y-91948181D01*
X160424500Y-91455104D01*
X159986483Y-91102834D01*
X159447000Y-90945000D01*
X159097000Y-90945000D01*
X158843000Y-90945000D01*
X158493000Y-90945000D01*
X157953517Y-91102834D01*
X157515500Y-91455104D01*
X157245633Y-91948181D01*
X157228096Y-92030961D01*
X156901904Y-92030961D01*
X156884367Y-91948181D01*
X156614500Y-91455104D01*
X156176483Y-91102834D01*
X155637000Y-90945000D01*
X155287000Y-90945000D01*
X155033000Y-90945000D01*
X154683000Y-90945000D01*
X154143517Y-91102834D01*
X153705500Y-91455104D01*
X153435633Y-91948181D01*
X153418096Y-92030961D01*
X153100542Y-92030961D01*
X153060737Y-91830849D01*
X152749668Y-91365302D01*
X152284121Y-91054233D01*
X151734970Y-90945000D01*
X150965030Y-90945000D01*
X150415879Y-91054233D01*
X149950332Y-91365302D01*
X149639263Y-91830849D01*
X149530030Y-92380000D01*
X149639263Y-92929151D01*
X149950332Y-93394698D01*
X150332418Y-93650000D01*
X149950332Y-93905302D01*
X149639263Y-94370849D01*
X149530030Y-94920000D01*
X149598871Y-95266086D01*
X149234923Y-94901993D01*
X149234858Y-94901950D01*
X149234815Y-94901885D01*
X149110830Y-94819041D01*
X148987745Y-94736762D01*
X148987669Y-94736747D01*
X148987605Y-94736704D01*
X148840191Y-94707381D01*
X148696153Y-94678701D01*
X148696079Y-94678716D01*
X148696000Y-94678700D01*
X148537925Y-94678700D01*
X148245930Y-94386195D01*
X147788652Y-94196317D01*
X147293520Y-94195885D01*
X146835912Y-94384964D01*
X146485495Y-94734770D01*
X146295617Y-95192048D01*
X146295185Y-95687180D01*
X146484264Y-96144788D01*
X146529169Y-96189772D01*
X146485495Y-96233370D01*
X146295617Y-96690648D01*
X146295185Y-97185780D01*
X146484264Y-97643388D01*
X146834070Y-97993805D01*
X147291348Y-98183683D01*
X147786480Y-98184115D01*
X148244088Y-97995036D01*
X148594505Y-97645230D01*
X148784383Y-97187952D01*
X148784815Y-96692820D01*
X148724649Y-96547206D01*
X148906077Y-96728707D01*
X148906142Y-96728750D01*
X148906185Y-96728815D01*
X149029019Y-96810890D01*
X149153254Y-96893938D01*
X149153331Y-96893953D01*
X149153395Y-96893996D01*
X149300326Y-96923223D01*
X149444847Y-96951999D01*
X149444921Y-96951984D01*
X149445000Y-96952000D01*
X149631078Y-96952000D01*
X149530030Y-97460000D01*
X149639263Y-98009151D01*
X149950332Y-98474698D01*
X150328151Y-98727149D01*
X149895500Y-99075104D01*
X149625633Y-99568181D01*
X149608096Y-99650961D01*
X149730085Y-99873000D01*
X151223000Y-99873000D01*
X151223000Y-99853000D01*
X151477000Y-99853000D01*
X151477000Y-99873000D01*
X151497000Y-99873000D01*
X151497000Y-100127000D01*
X151477000Y-100127000D01*
X151477000Y-101435000D01*
X151827000Y-101435000D01*
X152366483Y-101277166D01*
X152493000Y-101175416D01*
X152493000Y-101589370D01*
X149208963Y-104873407D01*
X148884175Y-104548052D01*
X148283649Y-104298692D01*
X147633408Y-104298124D01*
X147032447Y-104546436D01*
X146572256Y-105005825D01*
X146322896Y-105606351D01*
X146322587Y-105959957D01*
X144492000Y-104129370D01*
X144492000Y-100349039D01*
X149608096Y-100349039D01*
X149625633Y-100431819D01*
X149895500Y-100924896D01*
X150333517Y-101277166D01*
X150873000Y-101435000D01*
X151223000Y-101435000D01*
X151223000Y-100127000D01*
X149730085Y-100127000D01*
X149608096Y-100349039D01*
X144492000Y-100349039D01*
X144492000Y-95235630D01*
X149348815Y-90378815D01*
X149413991Y-90281272D01*
X149513996Y-90131605D01*
X149569526Y-89852440D01*
X149810000Y-89852440D01*
X150045317Y-89808162D01*
X150261441Y-89669090D01*
X150358910Y-89526439D01*
X150422637Y-89590278D01*
X151023352Y-89839716D01*
X151673795Y-89840284D01*
X152274943Y-89591894D01*
X152341574Y-89525379D01*
X152425910Y-89656441D01*
X152638110Y-89801431D01*
X152890000Y-89852440D01*
X154890000Y-89852440D01*
X155125317Y-89808162D01*
X155341441Y-89669090D01*
X155438910Y-89526439D01*
X155502637Y-89590278D01*
X156103352Y-89839716D01*
X156753795Y-89840284D01*
X157354943Y-89591894D01*
X157421574Y-89525379D01*
X157505910Y-89656441D01*
X157718110Y-89801431D01*
X157970000Y-89852440D01*
X159970000Y-89852440D01*
X160205317Y-89808162D01*
X160421441Y-89669090D01*
X160566431Y-89456890D01*
X160617440Y-89205000D01*
X160617440Y-87205000D01*
X160573162Y-86969683D01*
X160434090Y-86753559D01*
X160221890Y-86608569D01*
X159970000Y-86557560D01*
X159305191Y-86557560D01*
X158873815Y-86126185D01*
X158839953Y-86103559D01*
X158626605Y-85961004D01*
X158335000Y-85903000D01*
X155460192Y-85903000D01*
X155535010Y-85791027D01*
X155567154Y-85713424D01*
X155644757Y-85526074D01*
X155720877Y-85143391D01*
X155720877Y-84856607D01*
X155644757Y-84473926D01*
X155535010Y-84208974D01*
X155535010Y-84208973D01*
X155318237Y-83884549D01*
X155250641Y-83816954D01*
X155115451Y-83681762D01*
X154791027Y-83464990D01*
X154526074Y-83355243D01*
X154143391Y-83279123D01*
X154071000Y-83279123D01*
X154000000Y-83265000D01*
X136000000Y-83265000D01*
X135929000Y-83279123D01*
X135856609Y-83279123D01*
X135473926Y-83355243D01*
X135286576Y-83432846D01*
X135208973Y-83464990D01*
X134884549Y-83681763D01*
X134816954Y-83749359D01*
X134681762Y-83884549D01*
X134464990Y-84208973D01*
X134464990Y-84208974D01*
X134355243Y-84473926D01*
X134279123Y-84856607D01*
X134279123Y-85143391D01*
X134355243Y-85526074D01*
X134464990Y-85791027D01*
X134681762Y-86115451D01*
X134816954Y-86250641D01*
X134884549Y-86318237D01*
X135208973Y-86535010D01*
X135216192Y-86538000D01*
X135473926Y-86644757D01*
X135562131Y-86662302D01*
X135185057Y-86818106D01*
X135118426Y-86884621D01*
X135034090Y-86753559D01*
X134821890Y-86608569D01*
X134570000Y-86557560D01*
X132570000Y-86557560D01*
X132334683Y-86601838D01*
X132118559Y-86740910D01*
X132021090Y-86883561D01*
X131957363Y-86819722D01*
X131356648Y-86570284D01*
X130706205Y-86569716D01*
X130105057Y-86818106D01*
X129644722Y-87277637D01*
X129395284Y-87878352D01*
X129394716Y-88528795D01*
X129643106Y-89129943D01*
X130102637Y-89590278D01*
X130703352Y-89839716D01*
X131353795Y-89840284D01*
X131954943Y-89591894D01*
X132021574Y-89525379D01*
X132105910Y-89656441D01*
X132318110Y-89801431D01*
X132570000Y-89852440D01*
X134570000Y-89852440D01*
X134805317Y-89808162D01*
X135021441Y-89669090D01*
X135118910Y-89526439D01*
X135182637Y-89590278D01*
X135783352Y-89839716D01*
X136433795Y-89840284D01*
X137034943Y-89591894D01*
X137101574Y-89525379D01*
X137185910Y-89656441D01*
X137398110Y-89801431D01*
X137650000Y-89852440D01*
X139650000Y-89852440D01*
X139885317Y-89808162D01*
X140101441Y-89669090D01*
X140198910Y-89526439D01*
X140262637Y-89590278D01*
X140428000Y-89658943D01*
X140428000Y-107304370D01*
X140234083Y-107498287D01*
X140068902Y-107745497D01*
X140010898Y-108037102D01*
X140010898Y-111663432D01*
X139848243Y-111730640D01*
X139388052Y-112190029D01*
X139138692Y-112790555D01*
X139138278Y-113265000D01*
X136000000Y-113265000D01*
X135929000Y-113279123D01*
X135856609Y-113279123D01*
X135473926Y-113355243D01*
X135286576Y-113432846D01*
X135208973Y-113464990D01*
X134884549Y-113681763D01*
X134816954Y-113749359D01*
X134681762Y-113884549D01*
X134464990Y-114208973D01*
X134435933Y-114279123D01*
X134355243Y-114473926D01*
X134279123Y-114856607D01*
X134279123Y-115143391D01*
X134355243Y-115526074D01*
X134464990Y-115791027D01*
X134681762Y-116115451D01*
X134816954Y-116250641D01*
X134884549Y-116318237D01*
X135208973Y-116535010D01*
X135286576Y-116567154D01*
X135473926Y-116644757D01*
X135856609Y-116720877D01*
X135929000Y-116720877D01*
X136000000Y-116735000D01*
X154000000Y-116735000D01*
X154071000Y-116720877D01*
X154143391Y-116720877D01*
X154526074Y-116644757D01*
X154791027Y-116535010D01*
X155115451Y-116318238D01*
X155250641Y-116183046D01*
X155318237Y-116115451D01*
X155535010Y-115791027D01*
X155567154Y-115713424D01*
X155644757Y-115526074D01*
X155720877Y-115143391D01*
X155720877Y-114856607D01*
X155644757Y-114473926D01*
X155535010Y-114208974D01*
X155535010Y-114208973D01*
X155385443Y-113985130D01*
X155667553Y-113868564D01*
X155940036Y-113596556D01*
X155863096Y-113757989D01*
X156127501Y-114331523D01*
X156591262Y-114760216D01*
X157059113Y-114954006D01*
X157309974Y-114834444D01*
X157309974Y-113507128D01*
X157563974Y-113507128D01*
X157563974Y-114834444D01*
X157814835Y-114954006D01*
X158388369Y-114689601D01*
X158817062Y-114225840D01*
X159010852Y-113757989D01*
X158891290Y-113507128D01*
X157563974Y-113507128D01*
X157309974Y-113507128D01*
X156029620Y-113507128D01*
X156127744Y-113409175D01*
X156192540Y-113253128D01*
X157130366Y-113253128D01*
X157243225Y-113365987D01*
X157422833Y-113186379D01*
X157309974Y-113073520D01*
X157309974Y-111925812D01*
X157563974Y-111925812D01*
X157563974Y-113253128D01*
X158891290Y-113253128D01*
X159010852Y-113002267D01*
X158746447Y-112428733D01*
X158282686Y-112000040D01*
X157814835Y-111806250D01*
X157563974Y-111925812D01*
X157309974Y-111925812D01*
X157059113Y-111806250D01*
X156485579Y-112070655D01*
X156399850Y-112163396D01*
X156384014Y-112147560D01*
X156376355Y-112155219D01*
X156129360Y-111557447D01*
X155669971Y-111097256D01*
X155069445Y-110847896D01*
X155030211Y-110847862D01*
X155189904Y-110688447D01*
X155432096Y-110105185D01*
X155432647Y-109473638D01*
X155375412Y-109335118D01*
X156340695Y-108369835D01*
X161251250Y-108369835D01*
X161515655Y-108943369D01*
X161979416Y-109372062D01*
X162447267Y-109565852D01*
X162698128Y-109446290D01*
X162698128Y-108118974D01*
X161370812Y-108118974D01*
X161251250Y-108369835D01*
X156340695Y-108369835D01*
X158779895Y-105930635D01*
X158915867Y-105987096D01*
X159547414Y-105987647D01*
X160131098Y-105746474D01*
X160292360Y-105585494D01*
X160292328Y-105621592D01*
X160540640Y-106222553D01*
X161000029Y-106682744D01*
X161599788Y-106931786D01*
X161592560Y-106939014D01*
X161615454Y-106961908D01*
X161445040Y-107146262D01*
X161251250Y-107614113D01*
X161370812Y-107864974D01*
X162518520Y-107864974D01*
X162631379Y-107977833D01*
X162810987Y-107798225D01*
X162698128Y-107685366D01*
X162698128Y-106747838D01*
X162851757Y-106684360D01*
X162952128Y-106584164D01*
X162952128Y-107685366D01*
X162839269Y-107798225D01*
X163018877Y-107977833D01*
X163131736Y-107864974D01*
X164265000Y-107864974D01*
X164265000Y-108118974D01*
X162952128Y-108118974D01*
X162952128Y-109446290D01*
X163202989Y-109565852D01*
X163776523Y-109301447D01*
X164205216Y-108837686D01*
X164265000Y-108693354D01*
X164265000Y-109695553D01*
X156695554Y-117265000D01*
X133304447Y-117265000D01*
X125735000Y-109695554D01*
X125735000Y-96021475D01*
X128686898Y-96021475D01*
X128977606Y-96666307D01*
X129492952Y-97150805D01*
X130044817Y-97379394D01*
X130326146Y-97262346D01*
X130326146Y-95740146D01*
X130580146Y-95740146D01*
X130580146Y-97262346D01*
X130861475Y-97379394D01*
X131506307Y-97088686D01*
X131990805Y-96573340D01*
X132219394Y-96021475D01*
X132102346Y-95740146D01*
X130580146Y-95740146D01*
X130326146Y-95740146D01*
X128803946Y-95740146D01*
X128686898Y-96021475D01*
X125735000Y-96021475D01*
X125735000Y-95204817D01*
X128686898Y-95204817D01*
X128803946Y-95486146D01*
X130326146Y-95486146D01*
X130326146Y-93963946D01*
X130580146Y-93963946D01*
X130580146Y-95486146D01*
X132102346Y-95486146D01*
X132219394Y-95204817D01*
X131928686Y-94559985D01*
X131413340Y-94075487D01*
X130861475Y-93846898D01*
X130580146Y-93963946D01*
X130326146Y-93963946D01*
X130044817Y-93846898D01*
X129399985Y-94137606D01*
X128915487Y-94652952D01*
X128686898Y-95204817D01*
X125735000Y-95204817D01*
X125735000Y-90304446D01*
X133304447Y-82735000D01*
X156695554Y-82735000D01*
X164265000Y-90304447D01*
X164265000Y-90304447D01*
G37*
X164265000Y-90304447D02*
X164265000Y-91493010D01*
X164179668Y-91365302D01*
X163714121Y-91054233D01*
X163164970Y-90945000D01*
X162395030Y-90945000D01*
X161845879Y-91054233D01*
X161380332Y-91365302D01*
X161069263Y-91830849D01*
X160960030Y-92380000D01*
X161069263Y-92929151D01*
X161380332Y-93394698D01*
X161762418Y-93650000D01*
X161380332Y-93905302D01*
X161069263Y-94370849D01*
X160960030Y-94920000D01*
X160977839Y-95009531D01*
X160721091Y-95266279D01*
X160789970Y-94920000D01*
X160680737Y-94370849D01*
X160369668Y-93905302D01*
X159991849Y-93652851D01*
X160424500Y-93304896D01*
X160694367Y-92811819D01*
X160711904Y-92729039D01*
X160589915Y-92507000D01*
X159097000Y-92507000D01*
X159097000Y-92527000D01*
X158843000Y-92527000D01*
X158843000Y-92507000D01*
X157350085Y-92507000D01*
X157228096Y-92729039D01*
X157245633Y-92811819D01*
X157515500Y-93304896D01*
X157948151Y-93652851D01*
X157570332Y-93905302D01*
X157259263Y-94370849D01*
X157150030Y-94920000D01*
X157167839Y-95009531D01*
X156911091Y-95266279D01*
X156979970Y-94920000D01*
X156870737Y-94370849D01*
X156559668Y-93905302D01*
X156181849Y-93652851D01*
X156614500Y-93304896D01*
X156884367Y-92811819D01*
X156901904Y-92729039D01*
X156779915Y-92507000D01*
X155287000Y-92507000D01*
X155287000Y-92527000D01*
X155033000Y-92527000D01*
X155033000Y-92507000D01*
X153540085Y-92507000D01*
X153418096Y-92729039D01*
X153435633Y-92811819D01*
X153705500Y-93304896D01*
X154138151Y-93652851D01*
X153760332Y-93905302D01*
X153449263Y-94370849D01*
X153340030Y-94920000D01*
X153441078Y-95428000D01*
X153068922Y-95428000D01*
X153169970Y-94920000D01*
X153060737Y-94370849D01*
X152749668Y-93905302D01*
X152367582Y-93650000D01*
X152749668Y-93394698D01*
X153060737Y-92929151D01*
X153169970Y-92380000D01*
X153100542Y-92030961D01*
X153418096Y-92030961D01*
X153540085Y-92253000D01*
X155033000Y-92253000D01*
X155033000Y-90945000D01*
X155287000Y-90945000D01*
X155287000Y-92253000D01*
X156779915Y-92253000D01*
X156901904Y-92030961D01*
X157228096Y-92030961D01*
X157350085Y-92253000D01*
X158843000Y-92253000D01*
X158843000Y-90945000D01*
X159097000Y-90945000D01*
X159097000Y-92253000D01*
X160589915Y-92253000D01*
X160711904Y-92030961D01*
X160694367Y-91948181D01*
X160424500Y-91455104D01*
X159986483Y-91102834D01*
X159447000Y-90945000D01*
X159097000Y-90945000D01*
X158843000Y-90945000D01*
X158493000Y-90945000D01*
X157953517Y-91102834D01*
X157515500Y-91455104D01*
X157245633Y-91948181D01*
X157228096Y-92030961D01*
X156901904Y-92030961D01*
X156884367Y-91948181D01*
X156614500Y-91455104D01*
X156176483Y-91102834D01*
X155637000Y-90945000D01*
X155287000Y-90945000D01*
X155033000Y-90945000D01*
X154683000Y-90945000D01*
X154143517Y-91102834D01*
X153705500Y-91455104D01*
X153435633Y-91948181D01*
X153418096Y-92030961D01*
X153100542Y-92030961D01*
X153060737Y-91830849D01*
X152749668Y-91365302D01*
X152284121Y-91054233D01*
X151734970Y-90945000D01*
X150965030Y-90945000D01*
X150415879Y-91054233D01*
X149950332Y-91365302D01*
X149639263Y-91830849D01*
X149530030Y-92380000D01*
X149639263Y-92929151D01*
X149950332Y-93394698D01*
X150332418Y-93650000D01*
X149950332Y-93905302D01*
X149639263Y-94370849D01*
X149530030Y-94920000D01*
X149598871Y-95266086D01*
X149234923Y-94901993D01*
X149234858Y-94901950D01*
X149234815Y-94901885D01*
X149110830Y-94819041D01*
X148987745Y-94736762D01*
X148987669Y-94736747D01*
X148987605Y-94736704D01*
X148840191Y-94707381D01*
X148696153Y-94678701D01*
X148696079Y-94678716D01*
X148696000Y-94678700D01*
X148537925Y-94678700D01*
X148245930Y-94386195D01*
X147788652Y-94196317D01*
X147293520Y-94195885D01*
X146835912Y-94384964D01*
X146485495Y-94734770D01*
X146295617Y-95192048D01*
X146295185Y-95687180D01*
X146484264Y-96144788D01*
X146529169Y-96189772D01*
X146485495Y-96233370D01*
X146295617Y-96690648D01*
X146295185Y-97185780D01*
X146484264Y-97643388D01*
X146834070Y-97993805D01*
X147291348Y-98183683D01*
X147786480Y-98184115D01*
X148244088Y-97995036D01*
X148594505Y-97645230D01*
X148784383Y-97187952D01*
X148784815Y-96692820D01*
X148724649Y-96547206D01*
X148906077Y-96728707D01*
X148906142Y-96728750D01*
X148906185Y-96728815D01*
X149029019Y-96810890D01*
X149153254Y-96893938D01*
X149153331Y-96893953D01*
X149153395Y-96893996D01*
X149300326Y-96923223D01*
X149444847Y-96951999D01*
X149444921Y-96951984D01*
X149445000Y-96952000D01*
X149631078Y-96952000D01*
X149530030Y-97460000D01*
X149639263Y-98009151D01*
X149950332Y-98474698D01*
X150328151Y-98727149D01*
X149895500Y-99075104D01*
X149625633Y-99568181D01*
X149608096Y-99650961D01*
X149730085Y-99873000D01*
X151223000Y-99873000D01*
X151223000Y-99853000D01*
X151477000Y-99853000D01*
X151477000Y-99873000D01*
X151497000Y-99873000D01*
X151497000Y-100127000D01*
X151477000Y-100127000D01*
X151477000Y-101435000D01*
X151827000Y-101435000D01*
X152366483Y-101277166D01*
X152493000Y-101175416D01*
X152493000Y-101589370D01*
X149208963Y-104873407D01*
X148884175Y-104548052D01*
X148283649Y-104298692D01*
X147633408Y-104298124D01*
X147032447Y-104546436D01*
X146572256Y-105005825D01*
X146322896Y-105606351D01*
X146322587Y-105959957D01*
X144492000Y-104129370D01*
X144492000Y-100349039D01*
X149608096Y-100349039D01*
X149625633Y-100431819D01*
X149895500Y-100924896D01*
X150333517Y-101277166D01*
X150873000Y-101435000D01*
X151223000Y-101435000D01*
X151223000Y-100127000D01*
X149730085Y-100127000D01*
X149608096Y-100349039D01*
X144492000Y-100349039D01*
X144492000Y-95235630D01*
X149348815Y-90378815D01*
X149413991Y-90281272D01*
X149513996Y-90131605D01*
X149569526Y-89852440D01*
X149810000Y-89852440D01*
X150045317Y-89808162D01*
X150261441Y-89669090D01*
X150358910Y-89526439D01*
X150422637Y-89590278D01*
X151023352Y-89839716D01*
X151673795Y-89840284D01*
X152274943Y-89591894D01*
X152341574Y-89525379D01*
X152425910Y-89656441D01*
X152638110Y-89801431D01*
X152890000Y-89852440D01*
X154890000Y-89852440D01*
X155125317Y-89808162D01*
X155341441Y-89669090D01*
X155438910Y-89526439D01*
X155502637Y-89590278D01*
X156103352Y-89839716D01*
X156753795Y-89840284D01*
X157354943Y-89591894D01*
X157421574Y-89525379D01*
X157505910Y-89656441D01*
X157718110Y-89801431D01*
X157970000Y-89852440D01*
X159970000Y-89852440D01*
X160205317Y-89808162D01*
X160421441Y-89669090D01*
X160566431Y-89456890D01*
X160617440Y-89205000D01*
X160617440Y-87205000D01*
X160573162Y-86969683D01*
X160434090Y-86753559D01*
X160221890Y-86608569D01*
X159970000Y-86557560D01*
X159305191Y-86557560D01*
X158873815Y-86126185D01*
X158839953Y-86103559D01*
X158626605Y-85961004D01*
X158335000Y-85903000D01*
X155460192Y-85903000D01*
X155535010Y-85791027D01*
X155567154Y-85713424D01*
X155644757Y-85526074D01*
X155720877Y-85143391D01*
X155720877Y-84856607D01*
X155644757Y-84473926D01*
X155535010Y-84208974D01*
X155535010Y-84208973D01*
X155318237Y-83884549D01*
X155250641Y-83816954D01*
X155115451Y-83681762D01*
X154791027Y-83464990D01*
X154526074Y-83355243D01*
X154143391Y-83279123D01*
X154071000Y-83279123D01*
X154000000Y-83265000D01*
X136000000Y-83265000D01*
X135929000Y-83279123D01*
X135856609Y-83279123D01*
X135473926Y-83355243D01*
X135286576Y-83432846D01*
X135208973Y-83464990D01*
X134884549Y-83681763D01*
X134816954Y-83749359D01*
X134681762Y-83884549D01*
X134464990Y-84208973D01*
X134464990Y-84208974D01*
X134355243Y-84473926D01*
X134279123Y-84856607D01*
X134279123Y-85143391D01*
X134355243Y-85526074D01*
X134464990Y-85791027D01*
X134681762Y-86115451D01*
X134816954Y-86250641D01*
X134884549Y-86318237D01*
X135208973Y-86535010D01*
X135216192Y-86538000D01*
X135473926Y-86644757D01*
X135562131Y-86662302D01*
X135185057Y-86818106D01*
X135118426Y-86884621D01*
X135034090Y-86753559D01*
X134821890Y-86608569D01*
X134570000Y-86557560D01*
X132570000Y-86557560D01*
X132334683Y-86601838D01*
X132118559Y-86740910D01*
X132021090Y-86883561D01*
X131957363Y-86819722D01*
X131356648Y-86570284D01*
X130706205Y-86569716D01*
X130105057Y-86818106D01*
X129644722Y-87277637D01*
X129395284Y-87878352D01*
X129394716Y-88528795D01*
X129643106Y-89129943D01*
X130102637Y-89590278D01*
X130703352Y-89839716D01*
X131353795Y-89840284D01*
X131954943Y-89591894D01*
X132021574Y-89525379D01*
X132105910Y-89656441D01*
X132318110Y-89801431D01*
X132570000Y-89852440D01*
X134570000Y-89852440D01*
X134805317Y-89808162D01*
X135021441Y-89669090D01*
X135118910Y-89526439D01*
X135182637Y-89590278D01*
X135783352Y-89839716D01*
X136433795Y-89840284D01*
X137034943Y-89591894D01*
X137101574Y-89525379D01*
X137185910Y-89656441D01*
X137398110Y-89801431D01*
X137650000Y-89852440D01*
X139650000Y-89852440D01*
X139885317Y-89808162D01*
X140101441Y-89669090D01*
X140198910Y-89526439D01*
X140262637Y-89590278D01*
X140428000Y-89658943D01*
X140428000Y-107304370D01*
X140234083Y-107498287D01*
X140068902Y-107745497D01*
X140010898Y-108037102D01*
X140010898Y-111663432D01*
X139848243Y-111730640D01*
X139388052Y-112190029D01*
X139138692Y-112790555D01*
X139138278Y-113265000D01*
X136000000Y-113265000D01*
X135929000Y-113279123D01*
X135856609Y-113279123D01*
X135473926Y-113355243D01*
X135286576Y-113432846D01*
X135208973Y-113464990D01*
X134884549Y-113681763D01*
X134816954Y-113749359D01*
X134681762Y-113884549D01*
X134464990Y-114208973D01*
X134435933Y-114279123D01*
X134355243Y-114473926D01*
X134279123Y-114856607D01*
X134279123Y-115143391D01*
X134355243Y-115526074D01*
X134464990Y-115791027D01*
X134681762Y-116115451D01*
X134816954Y-116250641D01*
X134884549Y-116318237D01*
X135208973Y-116535010D01*
X135286576Y-116567154D01*
X135473926Y-116644757D01*
X135856609Y-116720877D01*
X135929000Y-116720877D01*
X136000000Y-116735000D01*
X154000000Y-116735000D01*
X154071000Y-116720877D01*
X154143391Y-116720877D01*
X154526074Y-116644757D01*
X154791027Y-116535010D01*
X155115451Y-116318238D01*
X155250641Y-116183046D01*
X155318237Y-116115451D01*
X155535010Y-115791027D01*
X155567154Y-115713424D01*
X155644757Y-115526074D01*
X155720877Y-115143391D01*
X155720877Y-114856607D01*
X155644757Y-114473926D01*
X155535010Y-114208974D01*
X155535010Y-114208973D01*
X155385443Y-113985130D01*
X155667553Y-113868564D01*
X155940036Y-113596556D01*
X155863096Y-113757989D01*
X156127501Y-114331523D01*
X156591262Y-114760216D01*
X157059113Y-114954006D01*
X157309974Y-114834444D01*
X157309974Y-113507128D01*
X157563974Y-113507128D01*
X157563974Y-114834444D01*
X157814835Y-114954006D01*
X158388369Y-114689601D01*
X158817062Y-114225840D01*
X159010852Y-113757989D01*
X158891290Y-113507128D01*
X157563974Y-113507128D01*
X157309974Y-113507128D01*
X156029620Y-113507128D01*
X156127744Y-113409175D01*
X156192540Y-113253128D01*
X157130366Y-113253128D01*
X157243225Y-113365987D01*
X157422833Y-113186379D01*
X157309974Y-113073520D01*
X157309974Y-111925812D01*
X157563974Y-111925812D01*
X157563974Y-113253128D01*
X158891290Y-113253128D01*
X159010852Y-113002267D01*
X158746447Y-112428733D01*
X158282686Y-112000040D01*
X157814835Y-111806250D01*
X157563974Y-111925812D01*
X157309974Y-111925812D01*
X157059113Y-111806250D01*
X156485579Y-112070655D01*
X156399850Y-112163396D01*
X156384014Y-112147560D01*
X156376355Y-112155219D01*
X156129360Y-111557447D01*
X155669971Y-111097256D01*
X155069445Y-110847896D01*
X155030211Y-110847862D01*
X155189904Y-110688447D01*
X155432096Y-110105185D01*
X155432647Y-109473638D01*
X155375412Y-109335118D01*
X156340695Y-108369835D01*
X161251250Y-108369835D01*
X161515655Y-108943369D01*
X161979416Y-109372062D01*
X162447267Y-109565852D01*
X162698128Y-109446290D01*
X162698128Y-108118974D01*
X161370812Y-108118974D01*
X161251250Y-108369835D01*
X156340695Y-108369835D01*
X158779895Y-105930635D01*
X158915867Y-105987096D01*
X159547414Y-105987647D01*
X160131098Y-105746474D01*
X160292360Y-105585494D01*
X160292328Y-105621592D01*
X160540640Y-106222553D01*
X161000029Y-106682744D01*
X161599788Y-106931786D01*
X161592560Y-106939014D01*
X161615454Y-106961908D01*
X161445040Y-107146262D01*
X161251250Y-107614113D01*
X161370812Y-107864974D01*
X162518520Y-107864974D01*
X162631379Y-107977833D01*
X162810987Y-107798225D01*
X162698128Y-107685366D01*
X162698128Y-106747838D01*
X162851757Y-106684360D01*
X162952128Y-106584164D01*
X162952128Y-107685366D01*
X162839269Y-107798225D01*
X163018877Y-107977833D01*
X163131736Y-107864974D01*
X164265000Y-107864974D01*
X164265000Y-108118974D01*
X162952128Y-108118974D01*
X162952128Y-109446290D01*
X163202989Y-109565852D01*
X163776523Y-109301447D01*
X164205216Y-108837686D01*
X164265000Y-108693354D01*
X164265000Y-109695553D01*
X156695554Y-117265000D01*
X133304447Y-117265000D01*
X125735000Y-109695554D01*
X125735000Y-96021475D01*
X128686898Y-96021475D01*
X128977606Y-96666307D01*
X129492952Y-97150805D01*
X130044817Y-97379394D01*
X130326146Y-97262346D01*
X130326146Y-95740146D01*
X130580146Y-95740146D01*
X130580146Y-97262346D01*
X130861475Y-97379394D01*
X131506307Y-97088686D01*
X131990805Y-96573340D01*
X132219394Y-96021475D01*
X132102346Y-95740146D01*
X130580146Y-95740146D01*
X130326146Y-95740146D01*
X128803946Y-95740146D01*
X128686898Y-96021475D01*
X125735000Y-96021475D01*
X125735000Y-95204817D01*
X128686898Y-95204817D01*
X128803946Y-95486146D01*
X130326146Y-95486146D01*
X130326146Y-93963946D01*
X130580146Y-93963946D01*
X130580146Y-95486146D01*
X132102346Y-95486146D01*
X132219394Y-95204817D01*
X131928686Y-94559985D01*
X131413340Y-94075487D01*
X130861475Y-93846898D01*
X130580146Y-93963946D01*
X130326146Y-93963946D01*
X130044817Y-93846898D01*
X129399985Y-94137606D01*
X128915487Y-94652952D01*
X128686898Y-95204817D01*
X125735000Y-95204817D01*
X125735000Y-90304446D01*
X133304447Y-82735000D01*
X156695554Y-82735000D01*
X164265000Y-90304447D01*
M02*
