(export (version D)
  (design
    (source /home/sjoerd/synced/randomwatch/kicad/v6-multiled/trial1.sch)
    (date "Thu 09 Apr 2015 03:11:36 PM CEST")
    (tool "eeschema (2013-may-18)-stable"))
  (components
    (comp (ref M16)
      (value LED)
      (libsource (lib device) (part LED))
      (sheetpath (names /) (tstamps /))
      (tstamp 5509BFB7))
    (comp (ref M32)
      (value LED)
      (libsource (lib device) (part LED))
      (sheetpath (names /) (tstamps /))
      (tstamp 5509BFC6))
    (comp (ref SW1)
      (value SW_PUSH)
      (libsource (lib device) (part SW_PUSH))
      (sheetpath (names /) (tstamps /))
      (tstamp 5509C2E7))
    (comp (ref U1)
      (value DS1302)
      (libsource (lib special) (part DS1302))
      (sheetpath (names /) (tstamps /))
      (tstamp 5517D412))
    (comp (ref X1)
      (value CRYSTAL)
      (libsource (lib device) (part CRYSTAL))
      (sheetpath (names /) (tstamps /))
      (tstamp 5517D4BD))
    (comp (ref BT1)
      (value BATTERY)
      (libsource (lib device) (part BATTERY))
      (sheetpath (names /) (tstamps /))
      (tstamp 55182120))
    (comp (ref PROG1)
      (value WATCHP10)
      (footprint AVR-ISP-10)
      (libsource (lib watchp10) (part WATCHP10))
      (sheetpath (names /) (tstamps /))
      (tstamp 55185D8E))
    (comp (ref BAND1)
      (value WATCHP10)
      (footprint WatchP10)
      (libsource (lib watchp10) (part WATCHP10))
      (sheetpath (names /) (tstamps /))
      (tstamp 55185E04))
    (comp (ref IC1)
      (value ATTINY84A-P)
      (footprint DIP14)
      (libsource (lib atmel) (part ATTINY84A-P))
      (sheetpath (names /) (tstamps /))
      (tstamp 55251281))
    (comp (ref M8)
      (value LED)
      (libsource (lib device) (part LED))
      (sheetpath (names /) (tstamps /))
      (tstamp 5525156C))
    (comp (ref M4)
      (value LED)
      (libsource (lib device) (part LED))
      (sheetpath (names /) (tstamps /))
      (tstamp 55251572))
    (comp (ref M2)
      (value LED)
      (libsource (lib device) (part LED))
      (sheetpath (names /) (tstamps /))
      (tstamp 55251578))
    (comp (ref M1)
      (value LED)
      (libsource (lib device) (part LED))
      (sheetpath (names /) (tstamps /))
      (tstamp 5525157E))
    (comp (ref H8)
      (value LED)
      (libsource (lib device) (part LED))
      (sheetpath (names /) (tstamps /))
      (tstamp 55251584))
    (comp (ref H4)
      (value LED)
      (libsource (lib device) (part LED))
      (sheetpath (names /) (tstamps /))
      (tstamp 5525158A))
    (comp (ref H2)
      (value LED)
      (libsource (lib device) (part LED))
      (sheetpath (names /) (tstamps /))
      (tstamp 55251590))
    (comp (ref H1)
      (value LED)
      (libsource (lib device) (part LED))
      (sheetpath (names /) (tstamps /))
      (tstamp 55251596))
    (comp (ref R1)
      (value R)
      (libsource (lib device) (part R))
      (sheetpath (names /) (tstamps /))
      (tstamp 55251683))
    (comp (ref R2)
      (value R)
      (libsource (lib device) (part R))
      (sheetpath (names /) (tstamps /))
      (tstamp 5525169A)))
  (libparts
    (libpart (lib device) (part BATTERY)
      (fields
        (field (name Reference) BT)
        (field (name Value) BATTERY)
        (field (name Footprint) ~)
        (field (name Datasheet) ~))
      (pins
        (pin (num 1) (name +) (type passive))
        (pin (num 2) (name -) (type passive))))
    (libpart (lib device) (part CRYSTAL)
      (fields
        (field (name Reference) X)
        (field (name Value) CRYSTAL)
        (field (name Footprint) ~)
        (field (name Datasheet) ~))
      (pins
        (pin (num 1) (name 1) (type passive))
        (pin (num 2) (name 2) (type passive))))
    (libpart (lib device) (part LED)
      (footprints
        (fp LED-3MM)
        (fp LED-5MM)
        (fp LED-10MM)
        (fp LED-0603)
        (fp LED-0805)
        (fp LED-1206)
        (fp LEDV))
      (fields
        (field (name Reference) D)
        (field (name Value) LED)
        (field (name Footprint) ~)
        (field (name Datasheet) ~))
      (pins
        (pin (num 1) (name A) (type passive))
        (pin (num 2) (name K) (type passive))))
    (libpart (lib device) (part R)
      (description Resistance)
      (footprints
        (fp R?)
        (fp SM0603)
        (fp SM0805)
        (fp R?-*)
        (fp SM1206))
      (fields
        (field (name Reference) R)
        (field (name Value) R)
        (field (name Footprint) ~)
        (field (name Datasheet) ~))
      (pins
        (pin (num 1) (name ~) (type passive))
        (pin (num 2) (name ~) (type passive))))
    (libpart (lib device) (part SW_PUSH)
      (description "Push Button")
      (fields
        (field (name Reference) SW)
        (field (name Value) SW_PUSH)
        (field (name Footprint) ~)
        (field (name Datasheet) ~))
      (pins
        (pin (num 1) (name 1) (type passive))
        (pin (num 2) (name 2) (type passive))))
    (libpart (lib special) (part DS1302)
      (description "TimeKeeper DALLAS/MAXIM")
      (docs maxim/DS1302.pdf)
      (fields
        (field (name Reference) U)
        (field (name Value) DS1302))
      (pins
        (pin (num 1) (name VCC) (type power_in))
        (pin (num 2) (name XTAL1) (type input))
        (pin (num 3) (name XTAL2) (type input))
        (pin (num 4) (name GND) (type power_in))
        (pin (num 5) (name RST) (type input))
        (pin (num 6) (name DQ) (type BiDi))
        (pin (num 7) (name SCLK) (type input))
        (pin (num 8) (name VBAT) (type input))))
    (libpart (lib atmel) (part ATTINY24A-P)
      (description "ATTINY24A, PDIP14, 2k Flash, 128B SRAM, 128B EEPROM, dW")
      (docs http://www.atmel.com/dyn/resources/prod_documents/doc8183.pdf)
      (fields
        (field (name Reference) IC)
        (field (name Value) ATTINY24A-P)
        (field (name Footprint) DIP14)
        (field (name Datasheet) ~))
      (pins
        (pin (num 1) (name VCC) (type power_in))
        (pin (num 2) (name "(PCINT8/CLKI/XTAL1)PB0") (type BiDi))
        (pin (num 3) (name "(PCINT9/XTAL2)PB1") (type BiDi))
        (pin (num 4) (name "(PCINT11/dW/~RESET~)PB3") (type BiDi))
        (pin (num 5) (name "(PCINT10/CKOUT/OC0A/INT0)PB2") (type BiDi))
        (pin (num 6) (name "(PCINT7/ICP/OC0B/ADC7)PA7") (type BiDi))
        (pin (num 7) (name "(PCINT6/SDA/DI/MOSI/OC1A/ADC6)PA6") (type BiDi))
        (pin (num 8) (name "(PCINT5/DO/MISO/OC1B/ADC5)PA5") (type BiDi))
        (pin (num 9) (name "(PCINT4/USCK/SCL/T1/ADC4)PA4") (type BiDi))
        (pin (num 10) (name "(PCINT3/T0/ADC3)PA3") (type BiDi))
        (pin (num 11) (name "(PCINT2/AIN1/ADC2)PA2") (type BiDi))
        (pin (num 12) (name "(PCINT1/AIN0/ADC1)PA1") (type BiDi))
        (pin (num 13) (name "(PCINT0/AREF/ADC0)PA0") (type BiDi))
        (pin (num 14) (name GND) (type power_in))))
    (libpart (lib watchp10) (part WatchP10)
      (fields
        (field (name Reference) CON)
        (field (name Value) WatchP10)
        (field (name Footprint) AVR-ISP-10)
        (field (name Datasheet) ~))
      (pins
        (pin (num 1) (name ~) (type passive))
        (pin (num 2) (name ~) (type passive))
        (pin (num 3) (name ~) (type passive))
        (pin (num 4) (name ~) (type passive))
        (pin (num 5) (name ~) (type passive))
        (pin (num 6) (name ~) (type passive))
        (pin (num 7) (name ~) (type passive))
        (pin (num 8) (name ~) (type passive))
        (pin (num 9) (name ~) (type passive))
        (pin (num 10) (name ~) (type passive)))))
  (libraries
    (library (logical device)
      (uri /usr/share/kicad/library/device.lib))
    (library (logical special)
      (uri /usr/share/kicad/library/special.lib))
    (library (logical atmel)
      (uri /usr/share/kicad/library/atmel.lib))
    (library (logical watchp10)
      (uri watchp10.lib)))
  (nets
    (net (code 1) (name GND)
      (node (ref U1) (pin 4))
      (node (ref U1) (pin 8))
      (node (ref SW1) (pin 2))
      (node (ref IC1) (pin 14))
      (node (ref BAND1) (pin 4))
      (node (ref PROG1) (pin 4))
      (node (ref BT1) (pin 2)))
    (net (code 2) (name "")
      (node (ref PROG1) (pin 2))
      (node (ref IC1) (pin 1)))
    (net (code 3) (name /MOSI)
      (node (ref IC1) (pin 7))
      (node (ref PROG1) (pin 1)))
    (net (code 4) (name /MISO)
      (node (ref PROG1) (pin 9))
      (node (ref IC1) (pin 8)))
    (net (code 5) (name /SCK)
      (node (ref IC1) (pin 9))
      (node (ref PROG1) (pin 7)))
    (net (code 6) (name /D8)
      (node (ref H8) (pin 1))
      (node (ref M8) (pin 1)))
    (net (code 7) (name /D4)
      (node (ref M4) (pin 1))
      (node (ref H4) (pin 1)))
    (net (code 8) (name /D2)
      (node (ref M2) (pin 1))
      (node (ref H2) (pin 1)))
    (net (code 9) (name /D1)
      (node (ref H1) (pin 1))
      (node (ref M1) (pin 1)))
    (net (code 10) (name "")
      (node (ref IC1) (pin 2)))
    (net (code 11) (name "")
      (node (ref BAND1) (pin 5)))
    (net (code 12) (name "")
      (node (ref BAND1) (pin 6)))
    (net (code 13) (name "")
      (node (ref BAND1) (pin 8)))
    (net (code 14) (name "")
      (node (ref BAND1) (pin 10)))
    (net (code 15) (name /X1)
      (node (ref X1) (pin 1))
      (node (ref U1) (pin 2)))
    (net (code 16) (name /X2)
      (node (ref U1) (pin 3))
      (node (ref X1) (pin 2)))
    (net (code 17) (name "")
      (node (ref H1) (pin 2))
      (node (ref H8) (pin 2))
      (node (ref H4) (pin 2))
      (node (ref R2) (pin 2))
      (node (ref H2) (pin 2)))
    (net (code 18) (name "")
      (node (ref IC1) (pin 3)))
    (net (code 19) (name "")
      (node (ref IC1) (pin 5)))
    (net (code 20) (name "")
      (node (ref IC1) (pin 6)))
    (net (code 21) (name "")
      (node (ref IC1) (pin 10)))
    (net (code 22) (name "")
      (node (ref IC1) (pin 11)))
    (net (code 23) (name "")
      (node (ref IC1) (pin 12)))
    (net (code 24) (name "")
      (node (ref IC1) (pin 13)))
    (net (code 25) (name /H_EN)
      (node (ref R1) (pin 2)))
    (net (code 26) (name /M_EN)
      (node (ref R2) (pin 1)))
    (net (code 27) (name "")
      (node (ref M32) (pin 2))
      (node (ref R1) (pin 1))
      (node (ref M8) (pin 2))
      (node (ref M4) (pin 2))
      (node (ref M2) (pin 2))
      (node (ref M16) (pin 2))
      (node (ref M1) (pin 2)))
    (net (code 28) (name /D32)
      (node (ref M32) (pin 1)))
    (net (code 29) (name "")
      (node (ref PROG1) (pin 3)))
    (net (code 30) (name /CE)
      (node (ref BAND1) (pin 1))
      (node (ref U1) (pin 5)))
    (net (code 31) (name /CLK)
      (node (ref BAND1) (pin 9))
      (node (ref U1) (pin 7)))
    (net (code 32) (name /VBAT)
      (node (ref U1) (pin 1))
      (node (ref BT1) (pin 1))
      (node (ref BAND1) (pin 2)))
    (net (code 33) (name /DATA)
      (node (ref BAND1) (pin 7))
      (node (ref U1) (pin 6)))
    (net (code 34) (name "")
      (node (ref PROG1) (pin 6)))
    (net (code 35) (name "")
      (node (ref PROG1) (pin 8)))
    (net (code 36) (name "")
      (node (ref PROG1) (pin 10)))
    (net (code 37) (name "")
      (node (ref BAND1) (pin 3)))
    (net (code 38) (name /D16)
      (node (ref M16) (pin 1)))
    (net (code 39) (name /RST)
      (node (ref PROG1) (pin 5))
      (node (ref IC1) (pin 4))
      (node (ref SW1) (pin 1)))))