G04 #@! TF.FileFunction,Copper,L2,Bot,Signal*
%FSLAX46Y46*%
G04 Gerber Fmt 4.6, Leading zero omitted, Abs format (unit mm)*
G04 Created by KiCad (PCBNEW 4.0.1-stable) date Sat 05 Mar 2016 10:41:42 PM CET*
%MOMM*%
G01*
G04 APERTURE LIST*
%ADD10C,0.100000*%
%ADD11C,0.200000*%
%ADD12C,2.286000*%
%ADD13O,2.300000X1.600000*%
%ADD14R,2.000000X2.000000*%
%ADD15C,2.000000*%
%ADD16C,1.905000*%
%ADD17C,1.219200*%
%ADD18C,1.998980*%
%ADD19R,1.778000X1.778000*%
%ADD20C,0.254000*%
G04 APERTURE END LIST*
D10*
D11*
X158000000Y-118000000D02*
X157000000Y-118000000D01*
X165000000Y-111000000D02*
X158000000Y-118000000D01*
X165000000Y-110000000D02*
X165000000Y-111000000D01*
X132000000Y-118000000D02*
X133000000Y-118000000D01*
X125000000Y-111000000D02*
X132000000Y-118000000D01*
X125000000Y-110000000D02*
X125000000Y-111000000D01*
X125000000Y-89000000D02*
X125000000Y-90000000D01*
X132000000Y-82000000D02*
X125000000Y-89000000D01*
X133000000Y-82000000D02*
X132000000Y-82000000D01*
X165000000Y-89000000D02*
X165000000Y-90000000D01*
X158000000Y-82000000D02*
X165000000Y-89000000D01*
X157000000Y-82000000D02*
X158000000Y-82000000D01*
X165000000Y-110000000D02*
X165000000Y-108000000D01*
X155000000Y-118000000D02*
X157000000Y-118000000D01*
X125000000Y-110000000D02*
X125000000Y-108000000D01*
X135000000Y-118000000D02*
X133000000Y-118000000D01*
X125000000Y-90000000D02*
X125000000Y-92000000D01*
X135000000Y-82000000D02*
X133000000Y-82000000D01*
X157000000Y-82000000D02*
X155000000Y-82000000D01*
X165000000Y-90000000D02*
X165000000Y-92000000D01*
X125000000Y-92000000D02*
X125000000Y-108000000D01*
X165000000Y-92000000D02*
X165000000Y-108000000D01*
X155000000Y-118000000D02*
X135000000Y-118000000D01*
X135000000Y-82000000D02*
X155000000Y-82000000D01*
X136000000Y-114500000D02*
G75*
G03X136000000Y-116500000I0J-1000000D01*
G01*
X154000000Y-116500000D02*
G75*
G03X154000000Y-114500000I0J1000000D01*
G01*
X136000000Y-83500000D02*
G75*
G03X136000000Y-85500000I0J-1000000D01*
G01*
X154000000Y-85500000D02*
G75*
G03X154000000Y-83500000I0J1000000D01*
G01*
X136000000Y-85500000D02*
X141000000Y-85500000D01*
X145000000Y-83500000D02*
X136000000Y-83500000D01*
X154000000Y-85500000D02*
X149000000Y-85500000D01*
X145000000Y-83500000D02*
X154000000Y-83500000D01*
X141000000Y-85500000D02*
X149000000Y-85500000D01*
X154000000Y-116500000D02*
X136000000Y-116500000D01*
X145000000Y-114500000D02*
X136000000Y-114500000D01*
X145000000Y-114500000D02*
X154000000Y-114500000D01*
D12*
X131030000Y-108636000D03*
X145172135Y-94493865D03*
D13*
X150715000Y-93015000D03*
X150715000Y-95555000D03*
X150715000Y-98095000D03*
X150715000Y-100635000D03*
X158335000Y-100635000D03*
X158335000Y-98095000D03*
X158335000Y-95555000D03*
X158335000Y-93015000D03*
X162145000Y-95555000D03*
X162145000Y-98095000D03*
X162145000Y-100635000D03*
X162145000Y-103175000D03*
X154525000Y-103175000D03*
X154525000Y-100635000D03*
X154525000Y-98095000D03*
X154525000Y-95555000D03*
D14*
X158970000Y-87935000D03*
D15*
X156430000Y-87935000D03*
D14*
X153890000Y-87935000D03*
D15*
X151350000Y-87935000D03*
D14*
X148810000Y-87935000D03*
D15*
X146270000Y-87935000D03*
D14*
X143730000Y-87935000D03*
D15*
X141190000Y-87935000D03*
D16*
X156801974Y-115285128D03*
X153209872Y-111693026D03*
X162190128Y-109896974D03*
X158598026Y-106304872D03*
D17*
X149965700Y-105080000D03*
X151464300Y-105080000D03*
D14*
X133570000Y-87935000D03*
D15*
X131030000Y-87935000D03*
D14*
X138650000Y-87935000D03*
D15*
X136110000Y-87935000D03*
D18*
X162780000Y-89840000D03*
X157391846Y-84451846D03*
X132608154Y-115494000D03*
X127220000Y-110105846D03*
X127220000Y-89840000D03*
X132608154Y-84451846D03*
D19*
X141825000Y-106350000D03*
X139285000Y-106350000D03*
X141825000Y-108890000D03*
X139285000Y-108890000D03*
X141825000Y-111430000D03*
X139285000Y-111430000D03*
D20*
X148004436Y-104826000D02*
X139666000Y-104826000D01*
X139666000Y-104826000D02*
X139285000Y-105207000D01*
X139285000Y-105207000D02*
X139285000Y-106350000D01*
X150365000Y-93015000D02*
X150715000Y-93015000D01*
X148636790Y-94743210D02*
X150365000Y-93015000D01*
X148004436Y-104826000D02*
X148636790Y-104193646D01*
X148636790Y-104193646D02*
X148636790Y-94743210D01*
X162780000Y-89840000D02*
X162780000Y-91253492D01*
X162780000Y-91253492D02*
X163676010Y-92149502D01*
X163676010Y-92149502D02*
X163676010Y-97198990D01*
X163676010Y-97198990D02*
X162780000Y-98095000D01*
X162780000Y-98095000D02*
X162145000Y-98095000D01*
X148048000Y-103556000D02*
X148048000Y-93058566D01*
X148048000Y-93058566D02*
X148128781Y-92977785D01*
X139285000Y-108890000D02*
X138142000Y-108890000D01*
X138142000Y-108890000D02*
X137888000Y-108636000D01*
X137888000Y-108636000D02*
X137888000Y-105080000D01*
X138904000Y-104064000D02*
X147540000Y-104064000D01*
X147540000Y-104064000D02*
X148048000Y-103556000D01*
X137888000Y-105080000D02*
X138904000Y-104064000D01*
X154525000Y-103175000D02*
X154175000Y-103175000D01*
X154175000Y-103175000D02*
X152764910Y-101764910D01*
X152764910Y-101764910D02*
X152764910Y-93044710D01*
X152764910Y-93044710D02*
X151543666Y-91823466D01*
X151543666Y-91823466D02*
X149283100Y-91823466D01*
X149283100Y-91823466D02*
X148128781Y-92977785D01*
X152312399Y-106350000D02*
X154306389Y-104356010D01*
X155364190Y-104356010D02*
X156056010Y-103664190D01*
X156056010Y-102685810D02*
X154525000Y-101154800D01*
X156056010Y-103664190D02*
X156056010Y-102685810D01*
X154306389Y-104356010D02*
X155364190Y-104356010D01*
X141825000Y-106350000D02*
X152312399Y-106350000D01*
X154525000Y-101154800D02*
X154525000Y-100635000D01*
X152522823Y-106858010D02*
X145000000Y-106858010D01*
X143984010Y-107873990D02*
X143984020Y-107873990D01*
X143984020Y-107873990D02*
X145000000Y-106858010D01*
X156616800Y-103912600D02*
X156176000Y-104353400D01*
X156176000Y-104353400D02*
X156085234Y-104353400D01*
X156085234Y-104353400D02*
X155574614Y-104864020D01*
X155574614Y-104864020D02*
X154516813Y-104864020D01*
X154516813Y-104864020D02*
X152522823Y-106858010D01*
X143984010Y-107873990D02*
X142968000Y-108890000D01*
X142968000Y-108890000D02*
X141825000Y-108890000D01*
X154525000Y-98095000D02*
X154875000Y-98095000D01*
X154875000Y-98095000D02*
X156616800Y-99836800D01*
X156616800Y-99836800D02*
X156616800Y-100706600D01*
X156616800Y-100706600D02*
X156616800Y-103912600D01*
X154525000Y-98685600D02*
X156385600Y-96825000D01*
X158335000Y-95555000D02*
X157655600Y-95555000D01*
X157655600Y-95555000D02*
X156385600Y-96825000D01*
X156616800Y-103912600D02*
X156616800Y-100633500D01*
X154525000Y-98095000D02*
X154525000Y-98685600D01*
X150715000Y-95555000D02*
X149311000Y-95555000D01*
X149311000Y-95555000D02*
X149144800Y-95721200D01*
X149144800Y-95721200D02*
X149144800Y-104259100D01*
X149144800Y-104259100D02*
X149965700Y-105080000D01*
X151065000Y-98095000D02*
X150715000Y-98095000D01*
X152256900Y-99286900D02*
X151065000Y-98095000D01*
X151464300Y-105080000D02*
X152256900Y-104287400D01*
X152256900Y-104287400D02*
X152256900Y-99286900D01*
X158970000Y-87935000D02*
X158970000Y-86030000D01*
X158970000Y-86030000D02*
X157391846Y-84451846D01*
X157391800Y-84451800D02*
X156679100Y-85164500D01*
X143243600Y-85881400D02*
X141190000Y-87935000D01*
X155962200Y-85881400D02*
X143243600Y-85881400D01*
X156679100Y-85164500D02*
X155962200Y-85881400D01*
X158970000Y-87935000D02*
X158970000Y-86553700D01*
X143730000Y-87935000D02*
X143730000Y-89316300D01*
X126911800Y-106134500D02*
X143730000Y-89316300D01*
X126911800Y-109851800D02*
X126911800Y-106134500D01*
X152499600Y-86544600D02*
X153890000Y-87935000D01*
X147660400Y-86544600D02*
X152499600Y-86544600D01*
X146270000Y-87935000D02*
X147660400Y-86544600D01*
X132608200Y-85591900D02*
X133570000Y-86553700D01*
X132608200Y-84451800D02*
X132608200Y-85591900D01*
X133570000Y-87935000D02*
X133570000Y-86553700D01*
X160586900Y-97113100D02*
X162145000Y-95555000D01*
X160586900Y-108293800D02*
X160586900Y-97113100D01*
X162190100Y-109897000D02*
X160586900Y-108293800D01*
X162190100Y-109897000D02*
X156802000Y-115285100D01*
X154773500Y-113256600D02*
X156802000Y-115285100D01*
X144921900Y-113256600D02*
X154773500Y-113256600D01*
X143095300Y-111430000D02*
X144921900Y-113256600D01*
X141825000Y-111430000D02*
X143095300Y-111430000D01*
G36*
X164423000Y-89239002D02*
X164423000Y-110760998D01*
X157760998Y-117423000D01*
X132239002Y-117423000D01*
X130602406Y-115786404D01*
X131131408Y-115786404D01*
X131355717Y-116329272D01*
X131770698Y-116744977D01*
X132313174Y-116970233D01*
X132900558Y-116970746D01*
X133443426Y-116746437D01*
X133859131Y-116331456D01*
X134084387Y-115788980D01*
X134084639Y-115500000D01*
X134317743Y-115500000D01*
X134430173Y-116065223D01*
X134750346Y-116544397D01*
X135229520Y-116864570D01*
X135241998Y-116867052D01*
X135296753Y-116903638D01*
X135357674Y-116928872D01*
X135504750Y-116989793D01*
X135887433Y-117065913D01*
X135944261Y-117065913D01*
X136000000Y-117077000D01*
X154000000Y-117077000D01*
X154055739Y-117065913D01*
X154112567Y-117065913D01*
X154495249Y-116989793D01*
X154495250Y-116989793D01*
X154703247Y-116903638D01*
X154758002Y-116867052D01*
X154770480Y-116864570D01*
X155249654Y-116544397D01*
X155569827Y-116065223D01*
X155572347Y-116052555D01*
X155589396Y-116093817D01*
X155991170Y-116496293D01*
X156516381Y-116714380D01*
X157085072Y-116714876D01*
X157610663Y-116497706D01*
X158013139Y-116095932D01*
X158231226Y-115570721D01*
X158231722Y-115002030D01*
X158146210Y-114795075D01*
X161699992Y-111241292D01*
X161904535Y-111326226D01*
X162473226Y-111326722D01*
X162998817Y-111109552D01*
X163401293Y-110707778D01*
X163619380Y-110182567D01*
X163619876Y-109613876D01*
X163402706Y-109088285D01*
X163000932Y-108685809D01*
X162475721Y-108467722D01*
X161907030Y-108467226D01*
X161700038Y-108552753D01*
X161190900Y-108043616D01*
X161190900Y-104470417D01*
X161668000Y-104610000D01*
X162018000Y-104610000D01*
X162018000Y-103302000D01*
X162272000Y-103302000D01*
X162272000Y-104610000D01*
X162622000Y-104610000D01*
X163161483Y-104452166D01*
X163599500Y-104099896D01*
X163869367Y-103606819D01*
X163886904Y-103524039D01*
X163764915Y-103302000D01*
X162272000Y-103302000D01*
X162018000Y-103302000D01*
X161998000Y-103302000D01*
X161998000Y-103048000D01*
X162018000Y-103048000D01*
X162018000Y-103028000D01*
X162272000Y-103028000D01*
X162272000Y-103048000D01*
X163764915Y-103048000D01*
X163886904Y-102825961D01*
X163869367Y-102743181D01*
X163599500Y-102250104D01*
X163161483Y-101897834D01*
X162933466Y-101831124D01*
X163015562Y-101814794D01*
X163429850Y-101537975D01*
X163706669Y-101123687D01*
X163803875Y-100635000D01*
X163706669Y-100146313D01*
X163429850Y-99732025D01*
X163015562Y-99455206D01*
X162562066Y-99365000D01*
X163015562Y-99274794D01*
X163429850Y-98997975D01*
X163706669Y-98583687D01*
X163803875Y-98095000D01*
X163775722Y-97953463D01*
X164103102Y-97626083D01*
X164234033Y-97430131D01*
X164243403Y-97383023D01*
X164280010Y-97198990D01*
X164280010Y-92149502D01*
X164234033Y-91918361D01*
X164103102Y-91722409D01*
X163514689Y-91133997D01*
X163615272Y-91092437D01*
X164030977Y-90677456D01*
X164256233Y-90134980D01*
X164256746Y-89547596D01*
X164032437Y-89004728D01*
X163617456Y-88589023D01*
X163074980Y-88363767D01*
X162487596Y-88363254D01*
X161944728Y-88587563D01*
X161529023Y-89002544D01*
X161303767Y-89545020D01*
X161303254Y-90132404D01*
X161527563Y-90675272D01*
X161942544Y-91090977D01*
X162176000Y-91187917D01*
X162176000Y-91253492D01*
X162221977Y-91484633D01*
X162262649Y-91545502D01*
X162352908Y-91680584D01*
X163072010Y-92399687D01*
X163072010Y-94412923D01*
X163015562Y-94375206D01*
X162526875Y-94278000D01*
X161763125Y-94278000D01*
X161274438Y-94375206D01*
X160860150Y-94652025D01*
X160583331Y-95066313D01*
X160486125Y-95555000D01*
X160583331Y-96043687D01*
X160670969Y-96174847D01*
X160159808Y-96686008D01*
X160028877Y-96881959D01*
X159982900Y-97113100D01*
X159982900Y-98039825D01*
X159896669Y-97606313D01*
X159619850Y-97192025D01*
X159205562Y-96915206D01*
X158752066Y-96825000D01*
X159205562Y-96734794D01*
X159619850Y-96457975D01*
X159896669Y-96043687D01*
X159993875Y-95555000D01*
X159896669Y-95066313D01*
X159619850Y-94652025D01*
X159205562Y-94375206D01*
X159123466Y-94358876D01*
X159351483Y-94292166D01*
X159789500Y-93939896D01*
X160059367Y-93446819D01*
X160076904Y-93364039D01*
X159954915Y-93142000D01*
X158462000Y-93142000D01*
X158462000Y-93162000D01*
X158208000Y-93162000D01*
X158208000Y-93142000D01*
X156715085Y-93142000D01*
X156593096Y-93364039D01*
X156610633Y-93446819D01*
X156880500Y-93939896D01*
X157318517Y-94292166D01*
X157546534Y-94358876D01*
X157464438Y-94375206D01*
X157050150Y-94652025D01*
X156773331Y-95066313D01*
X156676125Y-95555000D01*
X156696912Y-95659503D01*
X155958511Y-96397905D01*
X155958508Y-96397907D01*
X155422926Y-96933490D01*
X155395562Y-96915206D01*
X154942066Y-96825000D01*
X155395562Y-96734794D01*
X155809850Y-96457975D01*
X156086669Y-96043687D01*
X156183875Y-95555000D01*
X156086669Y-95066313D01*
X155809850Y-94652025D01*
X155395562Y-94375206D01*
X154906875Y-94278000D01*
X154143125Y-94278000D01*
X153654438Y-94375206D01*
X153368910Y-94565990D01*
X153368910Y-93044710D01*
X153322933Y-92813569D01*
X153270490Y-92735082D01*
X153224305Y-92665961D01*
X156593096Y-92665961D01*
X156715085Y-92888000D01*
X158208000Y-92888000D01*
X158208000Y-91580000D01*
X158462000Y-91580000D01*
X158462000Y-92888000D01*
X159954915Y-92888000D01*
X160076904Y-92665961D01*
X160059367Y-92583181D01*
X159789500Y-92090104D01*
X159351483Y-91737834D01*
X158812000Y-91580000D01*
X158462000Y-91580000D01*
X158208000Y-91580000D01*
X157858000Y-91580000D01*
X157318517Y-91737834D01*
X156880500Y-92090104D01*
X156610633Y-92583181D01*
X156593096Y-92665961D01*
X153224305Y-92665961D01*
X153192003Y-92617618D01*
X151970758Y-91396374D01*
X151970757Y-91396373D01*
X151774807Y-91265443D01*
X151543666Y-91219466D01*
X149283100Y-91219466D01*
X149051960Y-91265442D01*
X148856008Y-91396373D01*
X147701692Y-92550690D01*
X147701689Y-92550692D01*
X147620908Y-92631474D01*
X147489977Y-92827425D01*
X147444000Y-93058566D01*
X147444000Y-103305815D01*
X147289816Y-103460000D01*
X138904000Y-103460000D01*
X138672859Y-103505977D01*
X138597995Y-103556000D01*
X138476908Y-103636907D01*
X137460908Y-104652908D01*
X137329977Y-104848859D01*
X137284000Y-105080000D01*
X137284000Y-108636000D01*
X137329977Y-108867141D01*
X137350463Y-108897800D01*
X137460908Y-109063092D01*
X137714907Y-109317092D01*
X137909656Y-109447219D01*
X137909656Y-109779000D01*
X137942917Y-109955765D01*
X137997847Y-110041128D01*
X137857673Y-110181301D01*
X137761000Y-110414690D01*
X137761000Y-111144250D01*
X137919750Y-111303000D01*
X139158000Y-111303000D01*
X139158000Y-111283000D01*
X139412000Y-111283000D01*
X139412000Y-111303000D01*
X139432000Y-111303000D01*
X139432000Y-111557000D01*
X139412000Y-111557000D01*
X139412000Y-112795250D01*
X139570750Y-112954000D01*
X140300309Y-112954000D01*
X140533698Y-112857327D01*
X140673840Y-112717186D01*
X140746785Y-112767027D01*
X140936000Y-112805344D01*
X142714000Y-112805344D01*
X142890765Y-112772083D01*
X143053113Y-112667615D01*
X143162027Y-112508215D01*
X143188517Y-112377402D01*
X144494807Y-113683692D01*
X144690759Y-113814623D01*
X144921900Y-113860600D01*
X154523316Y-113860600D01*
X154853855Y-114191139D01*
X154770480Y-114135430D01*
X154758002Y-114132948D01*
X154703247Y-114096362D01*
X154495250Y-114010207D01*
X154495249Y-114010207D01*
X154112567Y-113934087D01*
X154055739Y-113934087D01*
X154000000Y-113923000D01*
X136000000Y-113923000D01*
X135944261Y-113934087D01*
X135504750Y-114010207D01*
X135357674Y-114071128D01*
X135296753Y-114096362D01*
X135241998Y-114132948D01*
X135229520Y-114135430D01*
X134750346Y-114455603D01*
X134430173Y-114934777D01*
X134317743Y-115500000D01*
X134084639Y-115500000D01*
X134084900Y-115201596D01*
X133860591Y-114658728D01*
X133445610Y-114243023D01*
X132903134Y-114017767D01*
X132315750Y-114017254D01*
X131772882Y-114241563D01*
X131357177Y-114656544D01*
X131131921Y-115199020D01*
X131131408Y-115786404D01*
X130602406Y-115786404D01*
X126531752Y-111715750D01*
X137761000Y-111715750D01*
X137761000Y-112445310D01*
X137857673Y-112678699D01*
X138036302Y-112857327D01*
X138269691Y-112954000D01*
X138999250Y-112954000D01*
X139158000Y-112795250D01*
X139158000Y-111557000D01*
X137919750Y-111557000D01*
X137761000Y-111715750D01*
X126531752Y-111715750D01*
X125577000Y-110760998D01*
X125577000Y-110398250D01*
X125743254Y-110398250D01*
X125967563Y-110941118D01*
X126382544Y-111356823D01*
X126925020Y-111582079D01*
X127512404Y-111582592D01*
X128055272Y-111358283D01*
X128470977Y-110943302D01*
X128696233Y-110400826D01*
X128696746Y-109813442D01*
X128472437Y-109270574D01*
X128246587Y-109044329D01*
X129263752Y-109044329D01*
X129554460Y-109689161D01*
X130069806Y-110173659D01*
X130621671Y-110402248D01*
X130903000Y-110285200D01*
X130903000Y-108763000D01*
X131157000Y-108763000D01*
X131157000Y-110285200D01*
X131438329Y-110402248D01*
X132083161Y-110111540D01*
X132567659Y-109596194D01*
X132796248Y-109044329D01*
X132679200Y-108763000D01*
X131157000Y-108763000D01*
X130903000Y-108763000D01*
X129380800Y-108763000D01*
X129263752Y-109044329D01*
X128246587Y-109044329D01*
X128057456Y-108854869D01*
X127515800Y-108629953D01*
X127515800Y-108227671D01*
X129263752Y-108227671D01*
X129380800Y-108509000D01*
X130903000Y-108509000D01*
X130903000Y-106986800D01*
X131157000Y-106986800D01*
X131157000Y-108509000D01*
X132679200Y-108509000D01*
X132796248Y-108227671D01*
X132505540Y-107582839D01*
X131990194Y-107098341D01*
X131438329Y-106869752D01*
X131157000Y-106986800D01*
X130903000Y-106986800D01*
X130621671Y-106869752D01*
X129976839Y-107160460D01*
X129492341Y-107675806D01*
X129263752Y-108227671D01*
X127515800Y-108227671D01*
X127515800Y-106384684D01*
X139085795Y-94814689D01*
X143551854Y-94814689D01*
X143797965Y-95410323D01*
X144253280Y-95866434D01*
X144848483Y-96113583D01*
X145492959Y-96114146D01*
X146088593Y-95868035D01*
X146544704Y-95412720D01*
X146791853Y-94817517D01*
X146792416Y-94173041D01*
X146546305Y-93577407D01*
X146090990Y-93121296D01*
X145495787Y-92874147D01*
X144851311Y-92873584D01*
X144255677Y-93119695D01*
X143799566Y-93575010D01*
X143552417Y-94170213D01*
X143551854Y-94814689D01*
X139085795Y-94814689D01*
X144157093Y-89743392D01*
X144288024Y-89547440D01*
X144313106Y-89421344D01*
X144730000Y-89421344D01*
X144906765Y-89388083D01*
X145069113Y-89283615D01*
X145178027Y-89124215D01*
X145210431Y-88964199D01*
X145432254Y-89186409D01*
X145974918Y-89411743D01*
X146562505Y-89412256D01*
X147105560Y-89187870D01*
X147329225Y-88964595D01*
X147356917Y-89111765D01*
X147461385Y-89274113D01*
X147620785Y-89383027D01*
X147810000Y-89421344D01*
X149810000Y-89421344D01*
X149986765Y-89388083D01*
X150149113Y-89283615D01*
X150258027Y-89124215D01*
X150290431Y-88964199D01*
X150512254Y-89186409D01*
X151054918Y-89411743D01*
X151642505Y-89412256D01*
X152185560Y-89187870D01*
X152409225Y-88964595D01*
X152436917Y-89111765D01*
X152541385Y-89274113D01*
X152700785Y-89383027D01*
X152890000Y-89421344D01*
X154890000Y-89421344D01*
X155066765Y-89388083D01*
X155229113Y-89283615D01*
X155338027Y-89124215D01*
X155370431Y-88964199D01*
X155592254Y-89186409D01*
X156134918Y-89411743D01*
X156722505Y-89412256D01*
X157265560Y-89187870D01*
X157489225Y-88964595D01*
X157516917Y-89111765D01*
X157621385Y-89274113D01*
X157780785Y-89383027D01*
X157970000Y-89421344D01*
X159970000Y-89421344D01*
X160146765Y-89388083D01*
X160309113Y-89283615D01*
X160418027Y-89124215D01*
X160456344Y-88935000D01*
X160456344Y-86935000D01*
X160423083Y-86758235D01*
X160318615Y-86595887D01*
X160159215Y-86486973D01*
X159970000Y-86448656D01*
X159574000Y-86448656D01*
X159574000Y-86030000D01*
X159528023Y-85798859D01*
X159464829Y-85704283D01*
X159397093Y-85602908D01*
X158772116Y-84977931D01*
X158868079Y-84746826D01*
X158868592Y-84159442D01*
X158644283Y-83616574D01*
X158229302Y-83200869D01*
X157686826Y-82975613D01*
X157099442Y-82975100D01*
X156556574Y-83199409D01*
X156140869Y-83614390D01*
X155915613Y-84156866D01*
X155915100Y-84744250D01*
X156011605Y-84977810D01*
X155712016Y-85277400D01*
X155428055Y-85277400D01*
X155569827Y-85065223D01*
X155682257Y-84500000D01*
X155569827Y-83934777D01*
X155249654Y-83455603D01*
X154770480Y-83135430D01*
X154758002Y-83132948D01*
X154703247Y-83096362D01*
X154495250Y-83010207D01*
X154495249Y-83010207D01*
X154112567Y-82934087D01*
X154055739Y-82934087D01*
X154000000Y-82923000D01*
X136000000Y-82923000D01*
X135944261Y-82934087D01*
X135504750Y-83010207D01*
X135357674Y-83071128D01*
X135296753Y-83096362D01*
X135241998Y-83132948D01*
X135229520Y-83135430D01*
X134750346Y-83455603D01*
X134430173Y-83934777D01*
X134317743Y-84500000D01*
X134430173Y-85065223D01*
X134750346Y-85544397D01*
X135229520Y-85864570D01*
X135241998Y-85867052D01*
X135296753Y-85903638D01*
X135355760Y-85928079D01*
X135504750Y-85989793D01*
X135887433Y-86065913D01*
X135944261Y-86065913D01*
X136000000Y-86077000D01*
X142193815Y-86077000D01*
X141716475Y-86554340D01*
X141485082Y-86458257D01*
X140897495Y-86457744D01*
X140354440Y-86682130D01*
X140130775Y-86905405D01*
X140103083Y-86758235D01*
X139998615Y-86595887D01*
X139839215Y-86486973D01*
X139650000Y-86448656D01*
X137650000Y-86448656D01*
X137473235Y-86481917D01*
X137310887Y-86586385D01*
X137201973Y-86745785D01*
X137169569Y-86905801D01*
X136947746Y-86683591D01*
X136405082Y-86458257D01*
X135817495Y-86457744D01*
X135274440Y-86682130D01*
X135050775Y-86905405D01*
X135023083Y-86758235D01*
X134918615Y-86595887D01*
X134759215Y-86486973D01*
X134570000Y-86448656D01*
X134153105Y-86448656D01*
X134128023Y-86322559D01*
X134012671Y-86149923D01*
X133997093Y-86126608D01*
X133509154Y-85638669D01*
X133859131Y-85289302D01*
X134084387Y-84746826D01*
X134084900Y-84159442D01*
X133860591Y-83616574D01*
X133445610Y-83200869D01*
X132903134Y-82975613D01*
X132315750Y-82975100D01*
X131772882Y-83199409D01*
X131357177Y-83614390D01*
X131131921Y-84156866D01*
X131131408Y-84744250D01*
X131355717Y-85287118D01*
X131770698Y-85702823D01*
X132049273Y-85818498D01*
X132050177Y-85823041D01*
X132165529Y-85995677D01*
X132181108Y-86018992D01*
X132610772Y-86448656D01*
X132570000Y-86448656D01*
X132393235Y-86481917D01*
X132230887Y-86586385D01*
X132121973Y-86745785D01*
X132089569Y-86905801D01*
X131867746Y-86683591D01*
X131325082Y-86458257D01*
X130737495Y-86457744D01*
X130194440Y-86682130D01*
X129778591Y-87097254D01*
X129553257Y-87639918D01*
X129552744Y-88227505D01*
X129777130Y-88770560D01*
X130192254Y-89186409D01*
X130734918Y-89411743D01*
X131322505Y-89412256D01*
X131865560Y-89187870D01*
X132089225Y-88964595D01*
X132116917Y-89111765D01*
X132221385Y-89274113D01*
X132380785Y-89383027D01*
X132570000Y-89421344D01*
X134570000Y-89421344D01*
X134746765Y-89388083D01*
X134909113Y-89283615D01*
X135018027Y-89124215D01*
X135050431Y-88964199D01*
X135272254Y-89186409D01*
X135814918Y-89411743D01*
X136402505Y-89412256D01*
X136945560Y-89187870D01*
X137169225Y-88964595D01*
X137196917Y-89111765D01*
X137301385Y-89274113D01*
X137460785Y-89383027D01*
X137650000Y-89421344D01*
X139650000Y-89421344D01*
X139826765Y-89388083D01*
X139989113Y-89283615D01*
X140098027Y-89124215D01*
X140130431Y-88964199D01*
X140352254Y-89186409D01*
X140894918Y-89411743D01*
X141482505Y-89412256D01*
X142025560Y-89187870D01*
X142249225Y-88964595D01*
X142276917Y-89111765D01*
X142381385Y-89274113D01*
X142540785Y-89383027D01*
X142730000Y-89421344D01*
X142770771Y-89421344D01*
X126484708Y-105707408D01*
X126353777Y-105903359D01*
X126307800Y-106134500D01*
X126307800Y-108930203D01*
X125969023Y-109268390D01*
X125743767Y-109810866D01*
X125743254Y-110398250D01*
X125577000Y-110398250D01*
X125577000Y-90132404D01*
X125743254Y-90132404D01*
X125967563Y-90675272D01*
X126382544Y-91090977D01*
X126925020Y-91316233D01*
X127512404Y-91316746D01*
X128055272Y-91092437D01*
X128470977Y-90677456D01*
X128696233Y-90134980D01*
X128696746Y-89547596D01*
X128472437Y-89004728D01*
X128057456Y-88589023D01*
X127514980Y-88363767D01*
X126927596Y-88363254D01*
X126384728Y-88587563D01*
X125969023Y-89002544D01*
X125743767Y-89545020D01*
X125743254Y-90132404D01*
X125577000Y-90132404D01*
X125577000Y-89239002D01*
X132239002Y-82577000D01*
X157760998Y-82577000D01*
X164423000Y-89239002D01*
X164423000Y-89239002D01*
G37*
X164423000Y-89239002D02*
X164423000Y-110760998D01*
X157760998Y-117423000D01*
X132239002Y-117423000D01*
X130602406Y-115786404D01*
X131131408Y-115786404D01*
X131355717Y-116329272D01*
X131770698Y-116744977D01*
X132313174Y-116970233D01*
X132900558Y-116970746D01*
X133443426Y-116746437D01*
X133859131Y-116331456D01*
X134084387Y-115788980D01*
X134084639Y-115500000D01*
X134317743Y-115500000D01*
X134430173Y-116065223D01*
X134750346Y-116544397D01*
X135229520Y-116864570D01*
X135241998Y-116867052D01*
X135296753Y-116903638D01*
X135357674Y-116928872D01*
X135504750Y-116989793D01*
X135887433Y-117065913D01*
X135944261Y-117065913D01*
X136000000Y-117077000D01*
X154000000Y-117077000D01*
X154055739Y-117065913D01*
X154112567Y-117065913D01*
X154495249Y-116989793D01*
X154495250Y-116989793D01*
X154703247Y-116903638D01*
X154758002Y-116867052D01*
X154770480Y-116864570D01*
X155249654Y-116544397D01*
X155569827Y-116065223D01*
X155572347Y-116052555D01*
X155589396Y-116093817D01*
X155991170Y-116496293D01*
X156516381Y-116714380D01*
X157085072Y-116714876D01*
X157610663Y-116497706D01*
X158013139Y-116095932D01*
X158231226Y-115570721D01*
X158231722Y-115002030D01*
X158146210Y-114795075D01*
X161699992Y-111241292D01*
X161904535Y-111326226D01*
X162473226Y-111326722D01*
X162998817Y-111109552D01*
X163401293Y-110707778D01*
X163619380Y-110182567D01*
X163619876Y-109613876D01*
X163402706Y-109088285D01*
X163000932Y-108685809D01*
X162475721Y-108467722D01*
X161907030Y-108467226D01*
X161700038Y-108552753D01*
X161190900Y-108043616D01*
X161190900Y-104470417D01*
X161668000Y-104610000D01*
X162018000Y-104610000D01*
X162018000Y-103302000D01*
X162272000Y-103302000D01*
X162272000Y-104610000D01*
X162622000Y-104610000D01*
X163161483Y-104452166D01*
X163599500Y-104099896D01*
X163869367Y-103606819D01*
X163886904Y-103524039D01*
X163764915Y-103302000D01*
X162272000Y-103302000D01*
X162018000Y-103302000D01*
X161998000Y-103302000D01*
X161998000Y-103048000D01*
X162018000Y-103048000D01*
X162018000Y-103028000D01*
X162272000Y-103028000D01*
X162272000Y-103048000D01*
X163764915Y-103048000D01*
X163886904Y-102825961D01*
X163869367Y-102743181D01*
X163599500Y-102250104D01*
X163161483Y-101897834D01*
X162933466Y-101831124D01*
X163015562Y-101814794D01*
X163429850Y-101537975D01*
X163706669Y-101123687D01*
X163803875Y-100635000D01*
X163706669Y-100146313D01*
X163429850Y-99732025D01*
X163015562Y-99455206D01*
X162562066Y-99365000D01*
X163015562Y-99274794D01*
X163429850Y-98997975D01*
X163706669Y-98583687D01*
X163803875Y-98095000D01*
X163775722Y-97953463D01*
X164103102Y-97626083D01*
X164234033Y-97430131D01*
X164243403Y-97383023D01*
X164280010Y-97198990D01*
X164280010Y-92149502D01*
X164234033Y-91918361D01*
X164103102Y-91722409D01*
X163514689Y-91133997D01*
X163615272Y-91092437D01*
X164030977Y-90677456D01*
X164256233Y-90134980D01*
X164256746Y-89547596D01*
X164032437Y-89004728D01*
X163617456Y-88589023D01*
X163074980Y-88363767D01*
X162487596Y-88363254D01*
X161944728Y-88587563D01*
X161529023Y-89002544D01*
X161303767Y-89545020D01*
X161303254Y-90132404D01*
X161527563Y-90675272D01*
X161942544Y-91090977D01*
X162176000Y-91187917D01*
X162176000Y-91253492D01*
X162221977Y-91484633D01*
X162262649Y-91545502D01*
X162352908Y-91680584D01*
X163072010Y-92399687D01*
X163072010Y-94412923D01*
X163015562Y-94375206D01*
X162526875Y-94278000D01*
X161763125Y-94278000D01*
X161274438Y-94375206D01*
X160860150Y-94652025D01*
X160583331Y-95066313D01*
X160486125Y-95555000D01*
X160583331Y-96043687D01*
X160670969Y-96174847D01*
X160159808Y-96686008D01*
X160028877Y-96881959D01*
X159982900Y-97113100D01*
X159982900Y-98039825D01*
X159896669Y-97606313D01*
X159619850Y-97192025D01*
X159205562Y-96915206D01*
X158752066Y-96825000D01*
X159205562Y-96734794D01*
X159619850Y-96457975D01*
X159896669Y-96043687D01*
X159993875Y-95555000D01*
X159896669Y-95066313D01*
X159619850Y-94652025D01*
X159205562Y-94375206D01*
X159123466Y-94358876D01*
X159351483Y-94292166D01*
X159789500Y-93939896D01*
X160059367Y-93446819D01*
X160076904Y-93364039D01*
X159954915Y-93142000D01*
X158462000Y-93142000D01*
X158462000Y-93162000D01*
X158208000Y-93162000D01*
X158208000Y-93142000D01*
X156715085Y-93142000D01*
X156593096Y-93364039D01*
X156610633Y-93446819D01*
X156880500Y-93939896D01*
X157318517Y-94292166D01*
X157546534Y-94358876D01*
X157464438Y-94375206D01*
X157050150Y-94652025D01*
X156773331Y-95066313D01*
X156676125Y-95555000D01*
X156696912Y-95659503D01*
X155958511Y-96397905D01*
X155958508Y-96397907D01*
X155422926Y-96933490D01*
X155395562Y-96915206D01*
X154942066Y-96825000D01*
X155395562Y-96734794D01*
X155809850Y-96457975D01*
X156086669Y-96043687D01*
X156183875Y-95555000D01*
X156086669Y-95066313D01*
X155809850Y-94652025D01*
X155395562Y-94375206D01*
X154906875Y-94278000D01*
X154143125Y-94278000D01*
X153654438Y-94375206D01*
X153368910Y-94565990D01*
X153368910Y-93044710D01*
X153322933Y-92813569D01*
X153270490Y-92735082D01*
X153224305Y-92665961D01*
X156593096Y-92665961D01*
X156715085Y-92888000D01*
X158208000Y-92888000D01*
X158208000Y-91580000D01*
X158462000Y-91580000D01*
X158462000Y-92888000D01*
X159954915Y-92888000D01*
X160076904Y-92665961D01*
X160059367Y-92583181D01*
X159789500Y-92090104D01*
X159351483Y-91737834D01*
X158812000Y-91580000D01*
X158462000Y-91580000D01*
X158208000Y-91580000D01*
X157858000Y-91580000D01*
X157318517Y-91737834D01*
X156880500Y-92090104D01*
X156610633Y-92583181D01*
X156593096Y-92665961D01*
X153224305Y-92665961D01*
X153192003Y-92617618D01*
X151970758Y-91396374D01*
X151970757Y-91396373D01*
X151774807Y-91265443D01*
X151543666Y-91219466D01*
X149283100Y-91219466D01*
X149051960Y-91265442D01*
X148856008Y-91396373D01*
X147701692Y-92550690D01*
X147701689Y-92550692D01*
X147620908Y-92631474D01*
X147489977Y-92827425D01*
X147444000Y-93058566D01*
X147444000Y-103305815D01*
X147289816Y-103460000D01*
X138904000Y-103460000D01*
X138672859Y-103505977D01*
X138597995Y-103556000D01*
X138476908Y-103636907D01*
X137460908Y-104652908D01*
X137329977Y-104848859D01*
X137284000Y-105080000D01*
X137284000Y-108636000D01*
X137329977Y-108867141D01*
X137350463Y-108897800D01*
X137460908Y-109063092D01*
X137714907Y-109317092D01*
X137909656Y-109447219D01*
X137909656Y-109779000D01*
X137942917Y-109955765D01*
X137997847Y-110041128D01*
X137857673Y-110181301D01*
X137761000Y-110414690D01*
X137761000Y-111144250D01*
X137919750Y-111303000D01*
X139158000Y-111303000D01*
X139158000Y-111283000D01*
X139412000Y-111283000D01*
X139412000Y-111303000D01*
X139432000Y-111303000D01*
X139432000Y-111557000D01*
X139412000Y-111557000D01*
X139412000Y-112795250D01*
X139570750Y-112954000D01*
X140300309Y-112954000D01*
X140533698Y-112857327D01*
X140673840Y-112717186D01*
X140746785Y-112767027D01*
X140936000Y-112805344D01*
X142714000Y-112805344D01*
X142890765Y-112772083D01*
X143053113Y-112667615D01*
X143162027Y-112508215D01*
X143188517Y-112377402D01*
X144494807Y-113683692D01*
X144690759Y-113814623D01*
X144921900Y-113860600D01*
X154523316Y-113860600D01*
X154853855Y-114191139D01*
X154770480Y-114135430D01*
X154758002Y-114132948D01*
X154703247Y-114096362D01*
X154495250Y-114010207D01*
X154495249Y-114010207D01*
X154112567Y-113934087D01*
X154055739Y-113934087D01*
X154000000Y-113923000D01*
X136000000Y-113923000D01*
X135944261Y-113934087D01*
X135504750Y-114010207D01*
X135357674Y-114071128D01*
X135296753Y-114096362D01*
X135241998Y-114132948D01*
X135229520Y-114135430D01*
X134750346Y-114455603D01*
X134430173Y-114934777D01*
X134317743Y-115500000D01*
X134084639Y-115500000D01*
X134084900Y-115201596D01*
X133860591Y-114658728D01*
X133445610Y-114243023D01*
X132903134Y-114017767D01*
X132315750Y-114017254D01*
X131772882Y-114241563D01*
X131357177Y-114656544D01*
X131131921Y-115199020D01*
X131131408Y-115786404D01*
X130602406Y-115786404D01*
X126531752Y-111715750D01*
X137761000Y-111715750D01*
X137761000Y-112445310D01*
X137857673Y-112678699D01*
X138036302Y-112857327D01*
X138269691Y-112954000D01*
X138999250Y-112954000D01*
X139158000Y-112795250D01*
X139158000Y-111557000D01*
X137919750Y-111557000D01*
X137761000Y-111715750D01*
X126531752Y-111715750D01*
X125577000Y-110760998D01*
X125577000Y-110398250D01*
X125743254Y-110398250D01*
X125967563Y-110941118D01*
X126382544Y-111356823D01*
X126925020Y-111582079D01*
X127512404Y-111582592D01*
X128055272Y-111358283D01*
X128470977Y-110943302D01*
X128696233Y-110400826D01*
X128696746Y-109813442D01*
X128472437Y-109270574D01*
X128246587Y-109044329D01*
X129263752Y-109044329D01*
X129554460Y-109689161D01*
X130069806Y-110173659D01*
X130621671Y-110402248D01*
X130903000Y-110285200D01*
X130903000Y-108763000D01*
X131157000Y-108763000D01*
X131157000Y-110285200D01*
X131438329Y-110402248D01*
X132083161Y-110111540D01*
X132567659Y-109596194D01*
X132796248Y-109044329D01*
X132679200Y-108763000D01*
X131157000Y-108763000D01*
X130903000Y-108763000D01*
X129380800Y-108763000D01*
X129263752Y-109044329D01*
X128246587Y-109044329D01*
X128057456Y-108854869D01*
X127515800Y-108629953D01*
X127515800Y-108227671D01*
X129263752Y-108227671D01*
X129380800Y-108509000D01*
X130903000Y-108509000D01*
X130903000Y-106986800D01*
X131157000Y-106986800D01*
X131157000Y-108509000D01*
X132679200Y-108509000D01*
X132796248Y-108227671D01*
X132505540Y-107582839D01*
X131990194Y-107098341D01*
X131438329Y-106869752D01*
X131157000Y-106986800D01*
X130903000Y-106986800D01*
X130621671Y-106869752D01*
X129976839Y-107160460D01*
X129492341Y-107675806D01*
X129263752Y-108227671D01*
X127515800Y-108227671D01*
X127515800Y-106384684D01*
X139085795Y-94814689D01*
X143551854Y-94814689D01*
X143797965Y-95410323D01*
X144253280Y-95866434D01*
X144848483Y-96113583D01*
X145492959Y-96114146D01*
X146088593Y-95868035D01*
X146544704Y-95412720D01*
X146791853Y-94817517D01*
X146792416Y-94173041D01*
X146546305Y-93577407D01*
X146090990Y-93121296D01*
X145495787Y-92874147D01*
X144851311Y-92873584D01*
X144255677Y-93119695D01*
X143799566Y-93575010D01*
X143552417Y-94170213D01*
X143551854Y-94814689D01*
X139085795Y-94814689D01*
X144157093Y-89743392D01*
X144288024Y-89547440D01*
X144313106Y-89421344D01*
X144730000Y-89421344D01*
X144906765Y-89388083D01*
X145069113Y-89283615D01*
X145178027Y-89124215D01*
X145210431Y-88964199D01*
X145432254Y-89186409D01*
X145974918Y-89411743D01*
X146562505Y-89412256D01*
X147105560Y-89187870D01*
X147329225Y-88964595D01*
X147356917Y-89111765D01*
X147461385Y-89274113D01*
X147620785Y-89383027D01*
X147810000Y-89421344D01*
X149810000Y-89421344D01*
X149986765Y-89388083D01*
X150149113Y-89283615D01*
X150258027Y-89124215D01*
X150290431Y-88964199D01*
X150512254Y-89186409D01*
X151054918Y-89411743D01*
X151642505Y-89412256D01*
X152185560Y-89187870D01*
X152409225Y-88964595D01*
X152436917Y-89111765D01*
X152541385Y-89274113D01*
X152700785Y-89383027D01*
X152890000Y-89421344D01*
X154890000Y-89421344D01*
X155066765Y-89388083D01*
X155229113Y-89283615D01*
X155338027Y-89124215D01*
X155370431Y-88964199D01*
X155592254Y-89186409D01*
X156134918Y-89411743D01*
X156722505Y-89412256D01*
X157265560Y-89187870D01*
X157489225Y-88964595D01*
X157516917Y-89111765D01*
X157621385Y-89274113D01*
X157780785Y-89383027D01*
X157970000Y-89421344D01*
X159970000Y-89421344D01*
X160146765Y-89388083D01*
X160309113Y-89283615D01*
X160418027Y-89124215D01*
X160456344Y-88935000D01*
X160456344Y-86935000D01*
X160423083Y-86758235D01*
X160318615Y-86595887D01*
X160159215Y-86486973D01*
X159970000Y-86448656D01*
X159574000Y-86448656D01*
X159574000Y-86030000D01*
X159528023Y-85798859D01*
X159464829Y-85704283D01*
X159397093Y-85602908D01*
X158772116Y-84977931D01*
X158868079Y-84746826D01*
X158868592Y-84159442D01*
X158644283Y-83616574D01*
X158229302Y-83200869D01*
X157686826Y-82975613D01*
X157099442Y-82975100D01*
X156556574Y-83199409D01*
X156140869Y-83614390D01*
X155915613Y-84156866D01*
X155915100Y-84744250D01*
X156011605Y-84977810D01*
X155712016Y-85277400D01*
X155428055Y-85277400D01*
X155569827Y-85065223D01*
X155682257Y-84500000D01*
X155569827Y-83934777D01*
X155249654Y-83455603D01*
X154770480Y-83135430D01*
X154758002Y-83132948D01*
X154703247Y-83096362D01*
X154495250Y-83010207D01*
X154495249Y-83010207D01*
X154112567Y-82934087D01*
X154055739Y-82934087D01*
X154000000Y-82923000D01*
X136000000Y-82923000D01*
X135944261Y-82934087D01*
X135504750Y-83010207D01*
X135357674Y-83071128D01*
X135296753Y-83096362D01*
X135241998Y-83132948D01*
X135229520Y-83135430D01*
X134750346Y-83455603D01*
X134430173Y-83934777D01*
X134317743Y-84500000D01*
X134430173Y-85065223D01*
X134750346Y-85544397D01*
X135229520Y-85864570D01*
X135241998Y-85867052D01*
X135296753Y-85903638D01*
X135355760Y-85928079D01*
X135504750Y-85989793D01*
X135887433Y-86065913D01*
X135944261Y-86065913D01*
X136000000Y-86077000D01*
X142193815Y-86077000D01*
X141716475Y-86554340D01*
X141485082Y-86458257D01*
X140897495Y-86457744D01*
X140354440Y-86682130D01*
X140130775Y-86905405D01*
X140103083Y-86758235D01*
X139998615Y-86595887D01*
X139839215Y-86486973D01*
X139650000Y-86448656D01*
X137650000Y-86448656D01*
X137473235Y-86481917D01*
X137310887Y-86586385D01*
X137201973Y-86745785D01*
X137169569Y-86905801D01*
X136947746Y-86683591D01*
X136405082Y-86458257D01*
X135817495Y-86457744D01*
X135274440Y-86682130D01*
X135050775Y-86905405D01*
X135023083Y-86758235D01*
X134918615Y-86595887D01*
X134759215Y-86486973D01*
X134570000Y-86448656D01*
X134153105Y-86448656D01*
X134128023Y-86322559D01*
X134012671Y-86149923D01*
X133997093Y-86126608D01*
X133509154Y-85638669D01*
X133859131Y-85289302D01*
X134084387Y-84746826D01*
X134084900Y-84159442D01*
X133860591Y-83616574D01*
X133445610Y-83200869D01*
X132903134Y-82975613D01*
X132315750Y-82975100D01*
X131772882Y-83199409D01*
X131357177Y-83614390D01*
X131131921Y-84156866D01*
X131131408Y-84744250D01*
X131355717Y-85287118D01*
X131770698Y-85702823D01*
X132049273Y-85818498D01*
X132050177Y-85823041D01*
X132165529Y-85995677D01*
X132181108Y-86018992D01*
X132610772Y-86448656D01*
X132570000Y-86448656D01*
X132393235Y-86481917D01*
X132230887Y-86586385D01*
X132121973Y-86745785D01*
X132089569Y-86905801D01*
X131867746Y-86683591D01*
X131325082Y-86458257D01*
X130737495Y-86457744D01*
X130194440Y-86682130D01*
X129778591Y-87097254D01*
X129553257Y-87639918D01*
X129552744Y-88227505D01*
X129777130Y-88770560D01*
X130192254Y-89186409D01*
X130734918Y-89411743D01*
X131322505Y-89412256D01*
X131865560Y-89187870D01*
X132089225Y-88964595D01*
X132116917Y-89111765D01*
X132221385Y-89274113D01*
X132380785Y-89383027D01*
X132570000Y-89421344D01*
X134570000Y-89421344D01*
X134746765Y-89388083D01*
X134909113Y-89283615D01*
X135018027Y-89124215D01*
X135050431Y-88964199D01*
X135272254Y-89186409D01*
X135814918Y-89411743D01*
X136402505Y-89412256D01*
X136945560Y-89187870D01*
X137169225Y-88964595D01*
X137196917Y-89111765D01*
X137301385Y-89274113D01*
X137460785Y-89383027D01*
X137650000Y-89421344D01*
X139650000Y-89421344D01*
X139826765Y-89388083D01*
X139989113Y-89283615D01*
X140098027Y-89124215D01*
X140130431Y-88964199D01*
X140352254Y-89186409D01*
X140894918Y-89411743D01*
X141482505Y-89412256D01*
X142025560Y-89187870D01*
X142249225Y-88964595D01*
X142276917Y-89111765D01*
X142381385Y-89274113D01*
X142540785Y-89383027D01*
X142730000Y-89421344D01*
X142770771Y-89421344D01*
X126484708Y-105707408D01*
X126353777Y-105903359D01*
X126307800Y-106134500D01*
X126307800Y-108930203D01*
X125969023Y-109268390D01*
X125743767Y-109810866D01*
X125743254Y-110398250D01*
X125577000Y-110398250D01*
X125577000Y-90132404D01*
X125743254Y-90132404D01*
X125967563Y-90675272D01*
X126382544Y-91090977D01*
X126925020Y-91316233D01*
X127512404Y-91316746D01*
X128055272Y-91092437D01*
X128470977Y-90677456D01*
X128696233Y-90134980D01*
X128696746Y-89547596D01*
X128472437Y-89004728D01*
X128057456Y-88589023D01*
X127514980Y-88363767D01*
X126927596Y-88363254D01*
X126384728Y-88587563D01*
X125969023Y-89002544D01*
X125743767Y-89545020D01*
X125743254Y-90132404D01*
X125577000Y-90132404D01*
X125577000Y-89239002D01*
X132239002Y-82577000D01*
X157760998Y-82577000D01*
X164423000Y-89239002D01*
G36*
X159982900Y-105517033D02*
X159907499Y-105353477D01*
X159443738Y-104924784D01*
X158975887Y-104730994D01*
X158725026Y-104850556D01*
X158725026Y-106177872D01*
X159982900Y-106177872D01*
X159982900Y-106431872D01*
X158725026Y-106431872D01*
X158725026Y-107759188D01*
X158975887Y-107878750D01*
X159549421Y-107614345D01*
X159978114Y-107150584D01*
X159982900Y-107139030D01*
X159982900Y-108293800D01*
X160028877Y-108524941D01*
X160135422Y-108684396D01*
X160159808Y-108720892D01*
X160845793Y-109406878D01*
X160760876Y-109611381D01*
X160760380Y-110180072D01*
X160845891Y-110387024D01*
X157292107Y-113940809D01*
X157087567Y-113855876D01*
X156518876Y-113855380D01*
X156311960Y-113940876D01*
X155200592Y-112829508D01*
X155164428Y-112805344D01*
X155004641Y-112698577D01*
X154773500Y-112652600D01*
X154484708Y-112652600D01*
X154589960Y-112538738D01*
X154783750Y-112070887D01*
X154664188Y-111820026D01*
X153516480Y-111820026D01*
X153403621Y-111707167D01*
X153224013Y-111886775D01*
X153336872Y-111999634D01*
X153336872Y-112652600D01*
X153082872Y-112652600D01*
X153082872Y-111999634D01*
X153195731Y-111886775D01*
X153016123Y-111707167D01*
X152903264Y-111820026D01*
X151755556Y-111820026D01*
X151635994Y-112070887D01*
X151900399Y-112644421D01*
X151909247Y-112652600D01*
X145172085Y-112652600D01*
X143834650Y-111315165D01*
X151635994Y-111315165D01*
X151755556Y-111566026D01*
X153082872Y-111566026D01*
X153082872Y-110238710D01*
X153336872Y-110238710D01*
X153336872Y-111566026D01*
X154664188Y-111566026D01*
X154783750Y-111315165D01*
X154519345Y-110741631D01*
X154055584Y-110312938D01*
X153587733Y-110119148D01*
X153336872Y-110238710D01*
X153082872Y-110238710D01*
X152832011Y-110119148D01*
X152258477Y-110383553D01*
X151829784Y-110847314D01*
X151635994Y-111315165D01*
X143834650Y-111315165D01*
X143522392Y-111002908D01*
X143518040Y-111000000D01*
X143326441Y-110871977D01*
X143200344Y-110846895D01*
X143200344Y-110541000D01*
X143167083Y-110364235D01*
X143062615Y-110201887D01*
X143002026Y-110160488D01*
X143053113Y-110127615D01*
X143162027Y-109968215D01*
X143200344Y-109779000D01*
X143200344Y-109447219D01*
X143395092Y-109317092D01*
X144411085Y-108301100D01*
X144411112Y-108301082D01*
X145250185Y-107462010D01*
X152522823Y-107462010D01*
X152753964Y-107416033D01*
X152949915Y-107285102D01*
X153552284Y-106682733D01*
X157024148Y-106682733D01*
X157288553Y-107256267D01*
X157752314Y-107684960D01*
X158220165Y-107878750D01*
X158471026Y-107759188D01*
X158471026Y-106431872D01*
X157143710Y-106431872D01*
X157024148Y-106682733D01*
X153552284Y-106682733D01*
X154308006Y-105927011D01*
X157024148Y-105927011D01*
X157143710Y-106177872D01*
X158471026Y-106177872D01*
X158471026Y-104850556D01*
X158220165Y-104730994D01*
X157646631Y-104995399D01*
X157217938Y-105459160D01*
X157024148Y-105927011D01*
X154308006Y-105927011D01*
X154766998Y-105468020D01*
X155574614Y-105468020D01*
X155805755Y-105422043D01*
X156001706Y-105291112D01*
X156375003Y-104917816D01*
X156407141Y-104911423D01*
X156603092Y-104780492D01*
X157043892Y-104339693D01*
X157174823Y-104143741D01*
X157183544Y-104099896D01*
X157220800Y-103912600D01*
X157220800Y-101652000D01*
X157464438Y-101814794D01*
X157953125Y-101912000D01*
X158716875Y-101912000D01*
X159205562Y-101814794D01*
X159619850Y-101537975D01*
X159896669Y-101123687D01*
X159982900Y-100690175D01*
X159982900Y-105517033D01*
X159982900Y-105517033D01*
G37*
X159982900Y-105517033D02*
X159907499Y-105353477D01*
X159443738Y-104924784D01*
X158975887Y-104730994D01*
X158725026Y-104850556D01*
X158725026Y-106177872D01*
X159982900Y-106177872D01*
X159982900Y-106431872D01*
X158725026Y-106431872D01*
X158725026Y-107759188D01*
X158975887Y-107878750D01*
X159549421Y-107614345D01*
X159978114Y-107150584D01*
X159982900Y-107139030D01*
X159982900Y-108293800D01*
X160028877Y-108524941D01*
X160135422Y-108684396D01*
X160159808Y-108720892D01*
X160845793Y-109406878D01*
X160760876Y-109611381D01*
X160760380Y-110180072D01*
X160845891Y-110387024D01*
X157292107Y-113940809D01*
X157087567Y-113855876D01*
X156518876Y-113855380D01*
X156311960Y-113940876D01*
X155200592Y-112829508D01*
X155164428Y-112805344D01*
X155004641Y-112698577D01*
X154773500Y-112652600D01*
X154484708Y-112652600D01*
X154589960Y-112538738D01*
X154783750Y-112070887D01*
X154664188Y-111820026D01*
X153516480Y-111820026D01*
X153403621Y-111707167D01*
X153224013Y-111886775D01*
X153336872Y-111999634D01*
X153336872Y-112652600D01*
X153082872Y-112652600D01*
X153082872Y-111999634D01*
X153195731Y-111886775D01*
X153016123Y-111707167D01*
X152903264Y-111820026D01*
X151755556Y-111820026D01*
X151635994Y-112070887D01*
X151900399Y-112644421D01*
X151909247Y-112652600D01*
X145172085Y-112652600D01*
X143834650Y-111315165D01*
X151635994Y-111315165D01*
X151755556Y-111566026D01*
X153082872Y-111566026D01*
X153082872Y-110238710D01*
X153336872Y-110238710D01*
X153336872Y-111566026D01*
X154664188Y-111566026D01*
X154783750Y-111315165D01*
X154519345Y-110741631D01*
X154055584Y-110312938D01*
X153587733Y-110119148D01*
X153336872Y-110238710D01*
X153082872Y-110238710D01*
X152832011Y-110119148D01*
X152258477Y-110383553D01*
X151829784Y-110847314D01*
X151635994Y-111315165D01*
X143834650Y-111315165D01*
X143522392Y-111002908D01*
X143518040Y-111000000D01*
X143326441Y-110871977D01*
X143200344Y-110846895D01*
X143200344Y-110541000D01*
X143167083Y-110364235D01*
X143062615Y-110201887D01*
X143002026Y-110160488D01*
X143053113Y-110127615D01*
X143162027Y-109968215D01*
X143200344Y-109779000D01*
X143200344Y-109447219D01*
X143395092Y-109317092D01*
X144411085Y-108301100D01*
X144411112Y-108301082D01*
X145250185Y-107462010D01*
X152522823Y-107462010D01*
X152753964Y-107416033D01*
X152949915Y-107285102D01*
X153552284Y-106682733D01*
X157024148Y-106682733D01*
X157288553Y-107256267D01*
X157752314Y-107684960D01*
X158220165Y-107878750D01*
X158471026Y-107759188D01*
X158471026Y-106431872D01*
X157143710Y-106431872D01*
X157024148Y-106682733D01*
X153552284Y-106682733D01*
X154308006Y-105927011D01*
X157024148Y-105927011D01*
X157143710Y-106177872D01*
X158471026Y-106177872D01*
X158471026Y-104850556D01*
X158220165Y-104730994D01*
X157646631Y-104995399D01*
X157217938Y-105459160D01*
X157024148Y-105927011D01*
X154308006Y-105927011D01*
X154766998Y-105468020D01*
X155574614Y-105468020D01*
X155805755Y-105422043D01*
X156001706Y-105291112D01*
X156375003Y-104917816D01*
X156407141Y-104911423D01*
X156603092Y-104780492D01*
X157043892Y-104339693D01*
X157174823Y-104143741D01*
X157183544Y-104099896D01*
X157220800Y-103912600D01*
X157220800Y-101652000D01*
X157464438Y-101814794D01*
X157953125Y-101912000D01*
X158716875Y-101912000D01*
X159205562Y-101814794D01*
X159619850Y-101537975D01*
X159896669Y-101123687D01*
X159982900Y-100690175D01*
X159982900Y-105517033D01*
G36*
X150842000Y-100508000D02*
X150862000Y-100508000D01*
X150862000Y-100762000D01*
X150842000Y-100762000D01*
X150842000Y-102070000D01*
X151192000Y-102070000D01*
X151652900Y-101935157D01*
X151652900Y-103993564D01*
X151249110Y-103993212D01*
X150849595Y-104158288D01*
X150715033Y-104292615D01*
X150582013Y-104159362D01*
X150182786Y-103993589D01*
X149750510Y-103993212D01*
X149748800Y-103993919D01*
X149748800Y-101926877D01*
X150238000Y-102070000D01*
X150588000Y-102070000D01*
X150588000Y-100762000D01*
X150568000Y-100762000D01*
X150568000Y-100508000D01*
X150588000Y-100508000D01*
X150588000Y-100488000D01*
X150842000Y-100488000D01*
X150842000Y-100508000D01*
X150842000Y-100508000D01*
G37*
X150842000Y-100508000D02*
X150862000Y-100508000D01*
X150862000Y-100762000D01*
X150842000Y-100762000D01*
X150842000Y-102070000D01*
X151192000Y-102070000D01*
X151652900Y-101935157D01*
X151652900Y-103993564D01*
X151249110Y-103993212D01*
X150849595Y-104158288D01*
X150715033Y-104292615D01*
X150582013Y-104159362D01*
X150182786Y-103993589D01*
X149750510Y-103993212D01*
X149748800Y-103993919D01*
X149748800Y-101926877D01*
X150238000Y-102070000D01*
X150588000Y-102070000D01*
X150588000Y-100762000D01*
X150568000Y-100762000D01*
X150568000Y-100508000D01*
X150588000Y-100508000D01*
X150588000Y-100488000D01*
X150842000Y-100488000D01*
X150842000Y-100508000D01*
M02*
