PCBNEW-LibModule-V1  Thu 09 Apr 2015 02:04:50 PM CEST
# encoding utf-8
Units mm
$INDEX
ICSP_SIDE_10P
$EndINDEX
$MODULE ICSP_SIDE_10P
Po 0 0 0 15 55266AD9 00000000 ~~
Li ICSP_SIDE_10P
Sc 0
AR /55185D8E
Op 0 0 0
T0 0 2.54 1 1 0 0.15 N V 21 N "PROG1"
T1 0 5.08 1 1 0 0.15 N V 21 N "WATCHP10"
DS -5.08 10.16 -5.08 15.24 0.15 21
DS -3.81 10.16 -3.81 15.24 0.15 21
DS -2.54 10.16 -2.54 15.24 0.15 21
DS -1.27 10.16 -1.27 15.24 0.15 21
DS 0 10.16 0 15.24 0.15 21
DS 1.27 10.16 1.27 15.24 0.15 21
DS 2.54 10.16 2.54 15.24 0.15 21
DS 3.81 10.16 3.81 15.24 0.15 21
DS 5.08 10.16 5.08 15.24 0.15 21
DS 6.35 15.24 -6.35 15.24 0.15 21
DS -6.35 15.24 -6.35 10.16 0.15 21
DS -6.35 10.16 6.35 10.16 0.15 21
DS 6.35 10.16 6.35 15.24 0.15 21
DS 8.89 8.89 8.89 16.51 0.15 21
DS 8.89 16.51 7.62 16.51 0.15 21
DS 7.62 16.51 6.35 17.78 0.15 21
DS 6.35 17.78 5.08 17.78 0.15 21
DS -8.89 8.89 -8.89 16.51 0.15 21
DS -8.89 16.51 -6.35 16.51 0.15 21
DS -6.35 16.51 -5.08 17.78 0.15 21
DS -5.08 17.78 5.08 17.78 0.15 21
T2 0 7.62 1 1 0 0.15 N I 21 N "cable faces away from the reader of this text"
DS -6.35 0 -10.16 0 0.15 21
DS -10.16 0 -10.16 8.89 0.15 21
DS -10.16 8.89 -8.89 8.89 0.15 21
DS 6.35 0 10.16 0 0.15 21
DS 10.16 0 10.16 8.89 0.15 21
DS 10.16 8.89 -8.89 8.89 0.15 21
DS 6.35 0 -6.35 0 0.15 21
$PAD
Sh "5" R 0.508 2.54 0 0 0
Dr 0 0 0
At SMD N 00440001
Ne 3 "/RST"
Po 0 -1.27
$EndPAD
$PAD
Sh "7" R 0.508 2.54 0 0 0
Dr 0 0 0
At SMD N 00440001
Ne 4 "/SCK"
Po 2.54 -1.27
$EndPAD
$PAD
Sh "9" R 0.508 2.54 0 0 0
Dr 0 0 0
At SMD N 00440001
Ne 1 "/MISO"
Po 5.08 -1.27
$EndPAD
$PAD
Sh "3" R 0.508 2.54 0 0 0
Dr 0 0 0
At SMD N 00440001
Ne 0 ""
Po -2.54 -1.27
$EndPAD
$PAD
Sh "1" R 0.508 2.54 0 0 0
Dr 0 0 0
At SMD N 00440001
Ne 2 "/MOSI"
Po -5.08 -1.27
$EndPAD
$PAD
Sh "2" R 0.508 2.54 0 0 0
Dr 0 0 0
At SMD N 00888000
Ne 6 "N-000006"
Po -5.08 -1.27
$EndPAD
$PAD
Sh "4" R 0.508 2.54 0 0 0
Dr 0 0 0
At SMD N 00888000
Ne 5 "GND"
Po -2.54 -1.27
$EndPAD
$PAD
Sh "6" R 0.508 2.54 0 0 0
Dr 0 0 0
At SMD N 00888000
Ne 0 ""
Po 0 -1.27
$EndPAD
$PAD
Sh "8" R 0.508 2.54 0 0 0
Dr 0 0 0
At SMD N 00888000
Ne 0 ""
Po 2.54 -1.27
$EndPAD
$PAD
Sh "10" R 0.508 2.54 0 0 0
Dr 0 0 0
At SMD N 00888000
Ne 0 ""
Po 5.08 -1.27
$EndPAD
$EndMODULE ICSP_SIDE_10P
$EndLIBRARY
