EESchema Schematic File Version 2
LIBS:power
LIBS:device
LIBS:transistors
LIBS:conn
LIBS:linear
LIBS:regul
LIBS:74xx
LIBS:cmos4000
LIBS:adc-dac
LIBS:memory
LIBS:xilinx
LIBS:special
LIBS:microcontrollers
LIBS:dsp
LIBS:microchip
LIBS:analog_switches
LIBS:motorola
LIBS:texas
LIBS:intel
LIBS:audio
LIBS:interface
LIBS:digital-audio
LIBS:philips
LIBS:display
LIBS:cypress
LIBS:siliconi
LIBS:opto
LIBS:atmel
LIBS:contrib
LIBS:valves
LIBS:watchp10
LIBS:trial1-cache
EELAYER 27 0
EELAYER END
$Descr A4 11693 8268
encoding utf-8
Sheet 1 1
Title ""
Date "9 apr 2015"
Rev ""
Comp ""
Comment1 ""
Comment2 ""
Comment3 ""
Comment4 ""
$EndDescr
$Comp
L LED M16
U 1 1 5509BFB7
P 8150 2400
F 0 "M16" H 8350 2300 50  0000 C CNN
F 1 "LED" H 8150 2300 50  0000 C CNN
F 2 "~" H 8150 2400 60  0000 C CNN
F 3 "~" H 8150 2400 60  0000 C CNN
	1    8150 2400
	0    -1   -1   0   
$EndComp
$Comp
L LED M32
U 1 1 5509BFC6
P 7900 2400
F 0 "M32" H 8100 2300 50  0000 C CNN
F 1 "LED" H 7900 2300 50  0000 C CNN
F 2 "~" H 7900 2400 60  0000 C CNN
F 3 "~" H 7900 2400 60  0000 C CNN
	1    7900 2400
	0    -1   -1   0   
$EndComp
$Comp
L SW_PUSH SW1
U 1 1 5509C2E7
P 4200 4300
F 0 "SW1" H 4350 4410 50  0000 C CNN
F 1 "SW_PUSH" H 4200 4220 50  0000 C CNN
F 2 "~" H 4200 4300 60  0000 C CNN
F 3 "~" H 4200 4300 60  0000 C CNN
	1    4200 4300
	1    0    0    -1  
$EndComp
$Comp
L GND #PWR01
U 1 1 5517D2FB
P 4550 4350
F 0 "#PWR01" H 4550 4350 30  0001 C CNN
F 1 "GND" H 4550 4280 30  0001 C CNN
F 2 "" H 4550 4350 60  0000 C CNN
F 3 "" H 4550 4350 60  0000 C CNN
	1    4550 4350
	1    0    0    -1  
$EndComp
$Comp
L DS1302 U1
U 1 1 5517D412
P 4500 2000
F 0 "U1" H 4770 2550 60  0000 C CNN
F 1 "DS1302" H 4860 1450 60  0000 C CNN
F 2 "" H 4500 2000 60  0000 C CNN
F 3 "" H 4500 2000 60  0000 C CNN
	1    4500 2000
	1    0    0    -1  
$EndComp
$Comp
L CRYSTAL X1
U 1 1 5517D4BD
P 3050 2400
F 0 "X1" H 3050 2550 60  0000 C CNN
F 1 "CRYSTAL" H 3050 2250 60  0000 C CNN
F 2 "~" H 3050 2400 60  0000 C CNN
F 3 "~" H 3050 2400 60  0000 C CNN
	1    3050 2400
	1    0    0    -1  
$EndComp
$Comp
L GND #PWR02
U 1 1 5517D58F
P 4500 2750
F 0 "#PWR02" H 4500 2750 30  0001 C CNN
F 1 "GND" H 4500 2680 30  0001 C CNN
F 2 "" H 4500 2750 60  0000 C CNN
F 3 "" H 4500 2750 60  0000 C CNN
	1    4500 2750
	1    0    0    -1  
$EndComp
$Comp
L GND #PWR03
U 1 1 5517D737
P 5350 2450
F 0 "#PWR03" H 5350 2450 30  0001 C CNN
F 1 "GND" H 5350 2380 30  0001 C CNN
F 2 "" H 5350 2450 60  0000 C CNN
F 3 "" H 5350 2450 60  0000 C CNN
	1    5350 2450
	1    0    0    -1  
$EndComp
$Comp
L GND #PWR04
U 1 1 5517D746
P 5350 2450
F 0 "#PWR04" H 5350 2450 30  0001 C CNN
F 1 "GND" H 5350 2380 30  0001 C CNN
F 2 "" H 5350 2450 60  0000 C CNN
F 3 "" H 5350 2450 60  0000 C CNN
	1    5350 2450
	1    0    0    -1  
$EndComp
$Comp
L GND #PWR05
U 1 1 5517DA38
P 2550 4900
F 0 "#PWR05" H 2550 4900 30  0001 C CNN
F 1 "GND" H 2550 4830 30  0001 C CNN
F 2 "" H 2550 4900 60  0000 C CNN
F 3 "" H 2550 4900 60  0000 C CNN
	1    2550 4900
	1    0    0    -1  
$EndComp
Entry Wire Line
	1400 4600 1500 4700
Entry Wire Line
	1400 4800 1500 4900
Entry Wire Line
	1400 4900 1500 5000
Entry Wire Line
	1400 5000 1500 5100
$Comp
L GND #PWR06
U 1 1 551816E5
P 2450 1150
F 0 "#PWR06" H 2450 1150 30  0001 C CNN
F 1 "GND" H 2450 1080 30  0001 C CNN
F 2 "" H 2450 1150 60  0000 C CNN
F 3 "" H 2450 1150 60  0000 C CNN
	1    2450 1150
	1    0    0    -1  
$EndComp
Entry Wire Line
	1300 800  1400 900 
Entry Wire Line
	1300 1200 1400 1300
Entry Wire Line
	1300 1050 1400 1150
Entry Wire Line
	3100 1900 3200 2000
Entry Wire Line
	3000 1900 3100 2000
Entry Wire Line
	2900 1900 3000 2000
Wire Wire Line
	3800 3200 3800 4300
Wire Wire Line
	3800 4300 3900 4300
Wire Wire Line
	4550 4350 4550 4300
Wire Wire Line
	4550 4300 4500 4300
Wire Wire Line
	3650 2200 2700 2200
Wire Wire Line
	4500 950  4500 1400
Wire Wire Line
	4500 2750 4500 2600
Wire Wire Line
	5350 2300 5350 2450
Wire Bus Line
	3550 4000 1400 4000
Wire Bus Line
	1400 4000 1400 5000
Wire Wire Line
	3650 3700 4050 3700
Wire Wire Line
	3650 3500 4150 3500
Wire Wire Line
	3650 3600 4100 3600
Wire Wire Line
	1500 4700 2000 4700
Wire Wire Line
	1500 4900 2000 4900
Wire Wire Line
	1500 5000 2000 5000
Wire Wire Line
	1500 5100 2000 5100
Wire Wire Line
	2700 2200 2700 2400
Wire Wire Line
	2700 2400 2750 2400
Wire Wire Line
	3350 2400 3650 2400
Wire Wire Line
	2200 950  4500 950 
Wire Bus Line
	1300 800  1300 1900
Wire Bus Line
	1300 1900 3100 1900
Wire Wire Line
	1950 950  1400 950 
Wire Wire Line
	1400 950  1400 900 
Wire Wire Line
	1950 1250 1400 1250
Wire Wire Line
	1400 1250 1400 1150
Wire Wire Line
	1950 1350 1400 1350
Wire Wire Line
	1400 1350 1400 1300
Wire Wire Line
	3200 2000 3200 1700
Wire Wire Line
	3200 1700 3650 1700
Wire Wire Line
	3100 2000 3100 2050
Wire Wire Line
	3100 2050 3650 2050
Wire Wire Line
	3650 2050 3650 1900
Wire Wire Line
	3000 2000 3000 2100
Wire Wire Line
	3000 2100 5350 2100
Wire Wire Line
	5350 2100 5350 1700
Entry Wire Line
	3550 3600 3650 3500
Entry Wire Line
	3550 3700 3650 3600
Entry Wire Line
	3550 3800 3650 3700
Wire Bus Line
	3550 3600 3550 4000
Text Label 3650 3500 0    60   ~ 0
MOSI
Text Label 3650 3600 0    60   ~ 0
MISO
Entry Wire Line
	3550 4000 3650 4100
Wire Wire Line
	3650 4100 3800 4100
Connection ~ 3800 4100
Text Label 3650 3700 0    60   ~ 0
SCK
Text Label 3650 4100 0    60   ~ 0
RST
Text Label 1500 4900 0    60   ~ 0
RST
Text Label 1500 4700 0    60   ~ 0
MOSI
Text Label 1500 5000 0    60   ~ 0
SCK
Text Label 1500 5100 0    60   ~ 0
MISO
Text Label 3250 1700 0    60   ~ 0
CLK
Text Label 3250 2050 0    60   ~ 0
CE
Text Label 3700 2100 0    60   ~ 0
DATA
Text Label 1500 1250 0    60   ~ 0
DATA
Text Label 1500 950  0    60   ~ 0
CE
Text Label 1500 1350 0    60   ~ 0
CLK
$Comp
L BATTERY BT1
U 1 1 55182120
P 5600 1050
F 0 "BT1" H 5600 1250 50  0000 C CNN
F 1 "BATTERY" H 5600 860 50  0000 C CNN
F 2 "~" H 5600 1050 60  0000 C CNN
F 3 "~" H 5600 1050 60  0000 C CNN
	1    5600 1050
	1    0    0    -1  
$EndComp
Wire Wire Line
	5300 1050 4500 1050
Connection ~ 4500 1050
$Comp
L GND #PWR07
U 1 1 551822BB
P 6050 1200
F 0 "#PWR07" H 6050 1200 30  0001 C CNN
F 1 "GND" H 6050 1130 30  0001 C CNN
F 2 "" H 6050 1200 60  0000 C CNN
F 3 "" H 6050 1200 60  0000 C CNN
	1    6050 1200
	1    0    0    -1  
$EndComp
Wire Wire Line
	6050 1200 6050 1050
Wire Wire Line
	6050 1050 5900 1050
$Comp
L WATCHP10 PROG1
U 1 1 55185D8E
P 2200 4900
F 0 "PROG1" H 2030 5230 50  0000 C CNN
F 1 "WATCHP10" H 1860 4570 50  0000 L BNN
F 2 "AVR-ISP-10" V 1450 4950 50  0001 C CNN
F 3 "~" H 2200 4900 60  0000 C CNN
	1    2200 4900
	1    0    0    -1  
$EndComp
Wire Wire Line
	2550 4900 2550 4800
Wire Wire Line
	2550 4800 2250 4800
$Comp
L WATCHP10 BAND1
U 1 1 55185E04
P 2150 1150
F 0 "BAND1" H 1980 1480 50  0000 C CNN
F 1 "WATCHP10" H 1810 820 50  0001 L BNN
F 2 "WatchP10" V 1400 1200 50  0001 C CNN
F 3 "~" H 2150 1150 60  0000 C CNN
	1    2150 1150
	1    0    0    -1  
$EndComp
Wire Wire Line
	2450 1150 2450 1050
Wire Wire Line
	2450 1050 2200 1050
Text Label 3150 950  0    60   ~ 0
VBAT
Text Label 3450 2200 0    60   ~ 0
X1
Text Label 3450 2400 0    60   ~ 0
X2
$Comp
L ATTINY84A-P IC1
U 1 1 55251281
P 5950 3900
F 0 "IC1" H 5100 4650 40  0000 C CNN
F 1 "ATTINY84A-P" H 6650 3150 40  0000 C CNN
F 2 "DIP14" H 5950 3700 35  0000 C CIN
F 3 "~" H 5950 3900 60  0000 C CNN
	1    5950 3900
	-1   0    0    1   
$EndComp
$Comp
L GND #PWR08
U 1 1 552512AD
P 7100 3400
F 0 "#PWR08" H 7100 3400 30  0001 C CNN
F 1 "GND" H 7100 3330 30  0001 C CNN
F 2 "" H 7100 3400 60  0000 C CNN
F 3 "" H 7100 3400 60  0000 C CNN
	1    7100 3400
	1    0    0    -1  
$EndComp
Wire Wire Line
	2250 4700 7000 4700
Wire Wire Line
	7000 4700 7000 4500
Wire Wire Line
	7100 3400 7100 3300
Wire Wire Line
	7100 3300 7000 3300
Wire Wire Line
	4900 3900 4150 3900
Wire Wire Line
	4150 3900 4150 3500
Wire Wire Line
	4100 3600 4100 4000
Wire Wire Line
	4100 4000 4900 4000
Wire Wire Line
	4050 3700 4050 4100
Wire Wire Line
	4050 4100 4900 4100
$Comp
L LED M8
U 1 1 5525156C
P 8400 2400
F 0 "M8" H 8600 2300 50  0000 C CNN
F 1 "LED" H 8400 2300 50  0000 C CNN
F 2 "~" H 8400 2400 60  0000 C CNN
F 3 "~" H 8400 2400 60  0000 C CNN
	1    8400 2400
	0    -1   -1   0   
$EndComp
$Comp
L LED M4
U 1 1 55251572
P 8650 2400
F 0 "M4" H 8850 2300 50  0000 C CNN
F 1 "LED" H 8650 2300 50  0000 C CNN
F 2 "~" H 8650 2400 60  0000 C CNN
F 3 "~" H 8650 2400 60  0000 C CNN
	1    8650 2400
	0    -1   -1   0   
$EndComp
$Comp
L LED M2
U 1 1 55251578
P 8900 2400
F 0 "M2" H 9100 2300 50  0000 C CNN
F 1 "LED" H 8900 2300 50  0000 C CNN
F 2 "~" H 8900 2400 60  0000 C CNN
F 3 "~" H 8900 2400 60  0000 C CNN
	1    8900 2400
	0    -1   -1   0   
$EndComp
$Comp
L LED M1
U 1 1 5525157E
P 9150 2400
F 0 "M1" H 9350 2300 50  0000 C CNN
F 1 "LED" H 9150 2300 50  0000 C CNN
F 2 "~" H 9150 2400 60  0000 C CNN
F 3 "~" H 9150 2400 60  0000 C CNN
	1    9150 2400
	0    -1   -1   0   
$EndComp
$Comp
L LED H8
U 1 1 55251584
P 8400 3000
F 0 "H8" H 8250 2900 50  0000 C CNN
F 1 "LED" H 8400 2900 50  0000 C CNN
F 2 "~" H 8400 3000 60  0000 C CNN
F 3 "~" H 8400 3000 60  0000 C CNN
	1    8400 3000
	0    1    1    0   
$EndComp
$Comp
L LED H4
U 1 1 5525158A
P 8650 3000
F 0 "H4" H 8500 2900 50  0000 C CNN
F 1 "LED" H 8650 2900 50  0000 C CNN
F 2 "~" H 8650 3000 60  0000 C CNN
F 3 "~" H 8650 3000 60  0000 C CNN
	1    8650 3000
	0    1    1    0   
$EndComp
$Comp
L LED H2
U 1 1 55251590
P 8900 3000
F 0 "H2" H 8750 2900 50  0000 C CNN
F 1 "LED" H 8900 2900 50  0000 C CNN
F 2 "~" H 8900 3000 60  0000 C CNN
F 3 "~" H 8900 3000 60  0000 C CNN
	1    8900 3000
	0    1    1    0   
$EndComp
$Comp
L LED H1
U 1 1 55251596
P 9150 3000
F 0 "H1" H 9000 2900 50  0000 C CNN
F 1 "LED" H 9150 2900 50  0000 C CNN
F 2 "~" H 9150 3000 60  0000 C CNN
F 3 "~" H 9150 3000 60  0000 C CNN
	1    9150 3000
	0    1    1    0   
$EndComp
Wire Bus Line
	4700 2700 9350 2700
Wire Bus Line
	4700 2700 4700 4400
Entry Wire Line
	4700 4400 4800 4500
Entry Wire Line
	4700 4300 4800 4400
Entry Wire Line
	4700 4200 4800 4300
Entry Wire Line
	4700 4100 4800 4200
Entry Wire Line
	4700 3700 4800 3800
Entry Wire Line
	4700 3500 4800 3600
Wire Wire Line
	9150 2200 9150 2050
Wire Wire Line
	8900 2200 8900 2050
Connection ~ 8900 2050
Wire Wire Line
	8650 2200 8650 2050
Connection ~ 8650 2050
Wire Wire Line
	8400 2200 8400 2050
Connection ~ 8400 2050
Wire Wire Line
	8150 2200 8150 2050
Connection ~ 8150 2050
Wire Wire Line
	7900 2200 7900 2050
Connection ~ 7900 2050
Wire Wire Line
	4800 3600 4900 3600
Wire Wire Line
	4800 3800 4900 3800
Wire Wire Line
	4800 4200 4900 4200
Wire Wire Line
	4800 4300 4900 4300
Wire Wire Line
	4800 4400 4900 4400
Wire Wire Line
	4800 4500 4900 4500
Entry Wire Line
	4700 3300 4800 3400
Entry Wire Line
	4700 3400 4800 3500
Wire Wire Line
	4800 3400 4900 3400
Wire Wire Line
	4800 3500 4900 3500
Wire Wire Line
	4900 3300 4900 3200
Wire Wire Line
	4900 3200 3800 3200
Entry Wire Line
	9350 2700 9450 2600
Entry Wire Line
	9350 2700 9450 2800
Wire Wire Line
	7900 2050 9450 2050
Wire Wire Line
	8400 3300 8400 3200
Wire Wire Line
	8650 3200 8650 3300
Wire Wire Line
	8900 3200 8900 3300
Connection ~ 8400 3300
Wire Wire Line
	9150 3200 9150 3300
Connection ~ 8650 3300
$Comp
L R R1
U 1 1 55251683
P 9450 2350
F 0 "R1" V 9530 2350 40  0000 C CNN
F 1 "R" V 9457 2351 40  0000 C CNN
F 2 "~" V 9380 2350 30  0000 C CNN
F 3 "~" H 9450 2350 30  0000 C CNN
	1    9450 2350
	1    0    0    -1  
$EndComp
$Comp
L R R2
U 1 1 5525169A
P 9450 3050
F 0 "R2" V 9530 3050 40  0000 C CNN
F 1 "R" V 9457 3051 40  0000 C CNN
F 2 "~" V 9380 3050 30  0000 C CNN
F 3 "~" H 9450 3050 30  0000 C CNN
	1    9450 3050
	1    0    0    -1  
$EndComp
Wire Wire Line
	9450 2050 9450 2100
Connection ~ 9150 2050
Text Label 9450 2800 0    60   ~ 0
M_EN
Text Label 9450 2600 0    60   ~ 0
H_EN
Text Label 4800 3800 0    60   ~ 0
M_EN
Text Label 4800 3400 0    60   ~ 0
H_EN
Entry Wire Line
	9050 2700 9150 2600
Entry Wire Line
	8800 2700 8900 2600
Entry Wire Line
	8550 2700 8650 2600
Entry Wire Line
	8300 2700 8400 2600
Entry Wire Line
	8050 2700 8150 2600
Entry Wire Line
	7800 2700 7900 2600
Wire Wire Line
	9450 3300 8400 3300
Connection ~ 8900 3300
Connection ~ 9150 3300
Wire Wire Line
	9150 2800 9150 2600
Wire Wire Line
	8900 2800 8900 2600
Wire Wire Line
	8650 2800 8650 2600
Wire Wire Line
	8400 2800 8400 2600
Text Label 9150 2600 0    60   ~ 0
D1
Text Label 8900 2600 0    60   ~ 0
D2
Text Label 8650 2600 0    60   ~ 0
D4
Text Label 8400 2600 0    60   ~ 0
D8
Text Label 8150 2600 0    60   ~ 0
D16
Text Label 7900 2600 0    60   ~ 0
D32
Text Label 4800 4200 0    60   ~ 0
D1
Text Label 4800 4300 0    60   ~ 0
D2
Text Label 4800 3500 0    60   ~ 0
D4
Text Label 4800 3600 0    60   ~ 0
D8
Text Label 4800 4400 0    60   ~ 0
D16
Text Label 4800 4500 0    60   ~ 0
D32
$EndSCHEMATC
