EESchema Schematic File Version 2
LIBS:power
LIBS:device
LIBS:transistors
LIBS:conn
LIBS:linear
LIBS:regul
LIBS:74xx
LIBS:cmos4000
LIBS:adc-dac
LIBS:memory
LIBS:xilinx
LIBS:special
LIBS:microcontrollers
LIBS:dsp
LIBS:microchip
LIBS:analog_switches
LIBS:motorola
LIBS:texas
LIBS:intel
LIBS:audio
LIBS:interface
LIBS:digital-audio
LIBS:philips
LIBS:display
LIBS:cypress
LIBS:siliconi
LIBS:opto
LIBS:atmel
LIBS:contrib
LIBS:valves
LIBS:trial1-cache
EELAYER 27 0
EELAYER END
$Descr A4 11693 8268
encoding utf-8
Sheet 1 1
Title ""
Date "6 apr 2015"
Rev ""
Comp ""
Comment1 ""
Comment2 ""
Comment3 ""
Comment4 ""
$EndDescr
$Comp
L ATTINY13-P IC1
U 1 1 5509AEFF
P 4900 3750
F 0 "IC1" H 4100 4150 40  0000 C CNN
F 1 "ATTINY13-P" H 5550 3350 40  0000 C CNN
F 2 "DIP8" H 5550 3750 35  0000 C CIN
F 3 "~" H 4100 4100 60  0000 C CNN
	1    4900 3750
	1    0    0    -1  
$EndComp
$Comp
L LED D1
U 1 1 5509BFB7
P 3100 3550
F 0 "D1" H 3100 3650 50  0000 C CNN
F 1 "LED" H 3100 3450 50  0000 C CNN
F 2 "~" H 3100 3550 60  0000 C CNN
F 3 "~" H 3100 3550 60  0000 C CNN
	1    3100 3550
	-1   0    0    1   
$EndComp
$Comp
L LED D2
U 1 1 5509BFC6
P 3100 4000
F 0 "D2" H 3100 4100 50  0000 C CNN
F 1 "LED" H 3100 3900 50  0000 C CNN
F 2 "~" H 3100 4000 60  0000 C CNN
F 3 "~" H 3100 4000 60  0000 C CNN
	1    3100 4000
	-1   0    0    1   
$EndComp
$Comp
L R R1
U 1 1 5509C080
P 2600 3800
F 0 "R1" V 2680 3800 40  0000 C CNN
F 1 "R" V 2607 3801 40  0000 C CNN
F 2 "~" V 2530 3800 30  0000 C CNN
F 3 "~" H 2600 3800 30  0000 C CNN
	1    2600 3800
	1    0    0    -1  
$EndComp
Wire Wire Line
	3900 3600 3300 3600
Wire Wire Line
	3300 3600 3300 3550
Wire Wire Line
	3900 3700 3300 3700
Wire Wire Line
	3300 3700 3300 4000
$Comp
L SW_PUSH SW1
U 1 1 5509C2E7
P 4850 2750
F 0 "SW1" H 5000 2860 50  0000 C CNN
F 1 "SW_PUSH" H 4850 2670 50  0000 C CNN
F 2 "~" H 4850 2750 60  0000 C CNN
F 3 "~" H 4850 2750 60  0000 C CNN
	1    4850 2750
	1    0    0    -1  
$EndComp
Wire Wire Line
	6450 2750 6450 4050
Wire Wire Line
	5900 4000 6900 4000
Wire Wire Line
	5150 2750 6450 2750
Wire Wire Line
	3750 3150 4550 2750
Wire Wire Line
	3750 3150 3750 3500
Wire Wire Line
	3750 3500 3900 3500
$Comp
L CONN_6X2 P1
U 1 1 5509D266
P 3600 5050
F 0 "P1" H 3600 5400 60  0000 C CNN
F 1 "CONN_6X2" V 3600 5050 60  0000 C CNN
F 2 "~" H 3600 5050 60  0000 C CNN
F 3 "~" H 3600 5050 60  0000 C CNN
	1    3600 5050
	1    0    0    -1  
$EndComp
$Comp
L CONN_6X2 P2
U 1 1 5509D275
P 4550 5050
F 0 "P2" H 4550 5400 60  0000 C CNN
F 1 "CONN_6X2" V 4550 5050 60  0000 C CNN
F 2 "~" H 4550 5050 60  0000 C CNN
F 3 "~" H 4550 5050 60  0000 C CNN
	1    4550 5050
	1    0    0    -1  
$EndComp
Connection ~ 5950 4000
Wire Wire Line
	5950 3500 5900 3500
Wire Wire Line
	2900 4000 2800 4000
Wire Wire Line
	2800 4000 2800 3550
Wire Wire Line
	2600 3550 2900 3550
Connection ~ 2800 3550
$Comp
L GND #PWR1
U 1 1 5522C4E7
P 2600 4150
F 0 "#PWR1" H 2600 4150 30  0001 C CNN
F 1 "GND" H 2600 4080 30  0001 C CNN
F 2 "" H 2600 4150 60  0000 C CNN
F 3 "" H 2600 4150 60  0000 C CNN
	1    2600 4150
	1    0    0    -1  
$EndComp
Wire Wire Line
	2600 4050 2600 4150
$Comp
L GND #PWR2
U 1 1 5522C58A
P 6450 4050
F 0 "#PWR2" H 6450 4050 30  0001 C CNN
F 1 "GND" H 6450 3980 30  0001 C CNN
F 2 "" H 6450 4050 60  0000 C CNN
F 3 "" H 6450 4050 60  0000 C CNN
	1    6450 4050
	1    0    0    -1  
$EndComp
Connection ~ 6450 4000
$Comp
L BATTERY BT1
U 1 1 5522D108
P 6900 3700
F 0 "BT1" H 6900 3900 50  0000 C CNN
F 1 "BATTERY" H 6900 3510 50  0000 C CNN
F 2 "~" H 6900 3700 60  0000 C CNN
F 3 "~" H 6900 3700 60  0000 C CNN
	1    6900 3700
	0    1    1    0   
$EndComp
Wire Wire Line
	6900 3400 5950 3400
Wire Wire Line
	5950 3400 5950 3500
$EndSCHEMATC
