%!PS-Adobe-3.0
%%Creator: PCBNEW
%%CreationDate: Mon Nov 23 11:33:43 2015
%%Title: /home/sjoerd/synced/randomwatch/kicad/v12-noband-small/ps/trial1-Edge.Cuts.ps
%%Pages: 1
%%PageOrder: Ascend
%%BoundingBox: 0 0 596 842
%%DocumentMedia: A4 595 842 0 () ()
%%Orientation: Landscape
%%EndComments
%%BeginProlog
/line { newpath moveto lineto stroke } bind def
/cir0 { newpath 0 360 arc stroke } bind def
/cir1 { newpath 0 360 arc gsave fill grestore stroke } bind def
/cir2 { newpath 0 360 arc gsave fill grestore stroke } bind def
/arc0 { newpath arc stroke } bind def
/arc1 { newpath 4 index 4 index moveto arc closepath gsave fill
    grestore stroke } bind def
/arc2 { newpath 4 index 4 index moveto arc closepath gsave fill
    grestore stroke } bind def
/poly0 { stroke } bind def
/poly1 { closepath gsave fill grestore stroke } bind def
/poly2 { closepath gsave fill grestore stroke } bind def
/rect0 { rectstroke } bind def
/rect1 { rectfill } bind def
/rect2 { rectfill } bind def
/linemode0 { 0 setlinecap 0 setlinejoin 0 setlinewidth } bind def
/linemode1 { 1 setlinecap 1 setlinejoin } bind def
/dashedline { [200] 100 setdash } bind def
/solidline { [] 0 setdash } bind def
/phantomshow { moveto
    /KicadFont findfont 0.000001 scalefont setfont
    show } bind def
/textshow { gsave
    findfont exch scalefont setfont concat 1 scale 0 0 moveto show
    } bind def
/reencodefont {
  findfont dup length dict begin
  { 1 index /FID ne
    { def }
    { pop pop } ifelse
  } forall
  /Encoding ISOLatin1Encoding def
  currentdict
  end } bind def
/KicadFont /Helvetica reencodefont definefont pop
/KicadFont-Bold /Helvetica-Bold reencodefont definefont pop
/KicadFont-Oblique /Helvetica-Oblique reencodefont definefont pop
/KicadFont-BoldOblique /Helvetica-BoldOblique reencodefont definefont pop
%%EndProlog
%%Page: 1 1
%%BeginPageSetup
gsave
0.0072 0.0072 scale
linemode1
82680 0 translate 90 rotate
39.3701 setlinewidth
%%EndPageSetup
0 0 0 setrgbcolor
0 0 0 setrgbcolor
78.7402 setlinewidth
newpath
64960.6 36617 moveto
65354.3 37010.7 lineto
stroke
0 0 0 setrgbcolor
newpath
59842.5 36617 moveto
64960.6 36617 lineto
stroke
0 0 0 setrgbcolor
newpath
59448.8 37010.7 moveto
59842.5 36617 lineto
stroke
0 0 0 setrgbcolor
newpath
54724.4 37010.7 moveto
59448.8 37010.7 lineto
stroke
0 0 0 setrgbcolor
newpath
54330.7 36617 moveto
54724.4 37010.7 lineto
stroke
0 0 0 setrgbcolor
newpath
54330.7 50002.8 moveto
53937 50002.8 lineto
stroke
0 0 0 setrgbcolor
newpath
54724.4 49609.1 moveto
54330.7 50002.8 lineto
stroke
0 0 0 setrgbcolor
newpath
59842.5 49609.1 moveto
54724.4 49609.1 lineto
stroke
0 0 0 setrgbcolor
newpath
60236.2 50002.8 moveto
59842.5 49609.1 lineto
stroke
0 0 0 setrgbcolor
newpath
60629.9 50002.8 moveto
60236.2 50002.8 lineto
stroke
0 0 0 setrgbcolor
newpath
64960.6 50002.8 moveto
65354.3 49609.1 lineto
stroke
0 0 0 setrgbcolor
newpath
60629.9 50002.8 moveto
64960.6 50002.8 lineto
stroke
0 0 0 setrgbcolor
newpath
49212.6 50002.8 moveto
53937 50002.8 lineto
stroke
0 0 0 setrgbcolor
newpath
49212.6 36617 moveto
54330.7 36617 lineto
stroke
0 0 0 setrgbcolor
newpath
47244.1 38585.5 moveto
49212.6 36617 lineto
stroke
0 0 0 setrgbcolor
newpath
66929.1 38585.5 moveto
65354.3 37010.7 lineto
stroke
0 0 0 setrgbcolor
newpath
66929.1 39372.9 moveto
66929.1 38585.5 lineto
stroke
0 0 0 setrgbcolor
newpath
47244.1 39372.9 moveto
47244.1 38585.5 lineto
stroke
0 0 0 setrgbcolor
newpath
66929.1 48034.3 moveto
65354.3 49609.1 lineto
stroke
0 0 0 setrgbcolor
newpath
66929.1 47246.9 moveto
66929.1 48034.3 lineto
stroke
0 0 0 setrgbcolor
newpath
47244.1 48034.3 moveto
49212.6 50002.8 lineto
stroke
0 0 0 setrgbcolor
newpath
47244.1 47246.9 moveto
47244.1 48034.3 lineto
stroke
0 0 0 setrgbcolor
newpath
66929.1 47246.9 moveto
66929.1 39372.9 lineto
stroke
0 0 0 setrgbcolor
newpath
47244.1 39372.9 moveto
47244.1 47246.9 lineto
stroke
showpage
grestore
%%EOF
