%!PS-Adobe-3.0
%%Creator: PCBNEW
%%CreationDate: Mon Nov 23 11:58:55 2015
%%Title: /home/sjoerd/synced/randomwatch/kicad/v12-noband-small/ps/trial1-drl_map.ps
%%Pages: 1
%%PageOrder: Ascend
%%BoundingBox: 0 0 596 842
%%DocumentMedia: A4 595 842 0 () ()
%%Orientation: Landscape
%%EndComments
%%BeginProlog
/line { newpath moveto lineto stroke } bind def
/cir0 { newpath 0 360 arc stroke } bind def
/cir1 { newpath 0 360 arc gsave fill grestore stroke } bind def
/cir2 { newpath 0 360 arc gsave fill grestore stroke } bind def
/arc0 { newpath arc stroke } bind def
/arc1 { newpath 4 index 4 index moveto arc closepath gsave fill
    grestore stroke } bind def
/arc2 { newpath 4 index 4 index moveto arc closepath gsave fill
    grestore stroke } bind def
/poly0 { stroke } bind def
/poly1 { closepath gsave fill grestore stroke } bind def
/poly2 { closepath gsave fill grestore stroke } bind def
/rect0 { rectstroke } bind def
/rect1 { rectfill } bind def
/rect2 { rectfill } bind def
/linemode0 { 0 setlinecap 0 setlinejoin 0 setlinewidth } bind def
/linemode1 { 1 setlinecap 1 setlinejoin } bind def
/dashedline { [200] 100 setdash } bind def
/solidline { [] 0 setdash } bind def
/phantomshow { moveto
    /KicadFont findfont 0.000001 scalefont setfont
    show } bind def
/textshow { gsave
    findfont exch scalefont setfont concat 1 scale 0 0 moveto show
    } bind def
/reencodefont {
  findfont dup length dict begin
  { 1 index /FID ne
    { def }
    { pop pop } ifelse
  } forall
  /Encoding ISOLatin1Encoding def
  currentdict
  end } bind def
/KicadFont /Helvetica reencodefont definefont pop
/KicadFont-Bold /Helvetica-Bold reencodefont definefont pop
/KicadFont-Oblique /Helvetica-Oblique reencodefont definefont pop
/KicadFont-BoldOblique /Helvetica-BoldOblique reencodefont definefont pop
%%EndProlog
%%Page: 1 1
%%BeginPageSetup
gsave
0.0072 0.0072 scale
linemode1
82680 0 translate 90 rotate
150 setlinewidth
%%EndPageSetup
0 0 0 setrgbcolor
236.22 setlinewidth
newpath
82087 37797.3 moveto
83268.1 38978.4 lineto
stroke
0 0 0 setrgbcolor
newpath
66732.7 37797.3 moveto
82087 37797.3 lineto
stroke
0 0 0 setrgbcolor
newpath
65551.6 38978.4 moveto
66732.7 37797.3 lineto
stroke
0 0 0 setrgbcolor
newpath
51378.4 38978.4 moveto
65551.6 38978.4 lineto
stroke
0 0 0 setrgbcolor
newpath
50197.3 37797.3 moveto
51378.4 38978.4 lineto
stroke
0 0 0 setrgbcolor
newpath
50197.3 77954.7 moveto
49016.2 77954.7 lineto
stroke
0 0 0 setrgbcolor
newpath
51378.4 76773.6 moveto
50197.3 77954.7 lineto
stroke
0 0 0 setrgbcolor
newpath
66732.7 76773.6 moveto
51378.4 76773.6 lineto
stroke
0 0 0 setrgbcolor
newpath
67913.8 77954.7 moveto
66732.7 76773.6 lineto
stroke
0 0 0 setrgbcolor
newpath
69094.9 77954.7 moveto
67913.8 77954.7 lineto
stroke
0 0 0 setrgbcolor
newpath
82087 77954.7 moveto
83268.1 76773.6 lineto
stroke
0 0 0 setrgbcolor
newpath
69094.9 77954.7 moveto
82087 77954.7 lineto
stroke
0 0 0 setrgbcolor
newpath
34843 77954.7 moveto
49016.2 77954.7 lineto
stroke
0 0 0 setrgbcolor
newpath
34843 37797.3 moveto
50197.3 37797.3 lineto
stroke
0 0 0 setrgbcolor
newpath
28937.4 43702.8 moveto
34843 37797.3 lineto
stroke
0 0 0 setrgbcolor
newpath
87992.6 43702.8 moveto
83268.1 38978.4 lineto
stroke
0 0 0 setrgbcolor
newpath
87992.6 46065 moveto
87992.6 43702.8 lineto
stroke
0 0 0 setrgbcolor
newpath
28937.4 46065 moveto
28937.4 43702.8 lineto
stroke
0 0 0 setrgbcolor
newpath
87992.6 72049.2 moveto
83268.1 76773.6 lineto
stroke
0 0 0 setrgbcolor
newpath
87992.6 69687 moveto
87992.6 72049.2 lineto
stroke
0 0 0 setrgbcolor
newpath
28937.4 72049.2 moveto
34843 77954.7 lineto
stroke
0 0 0 setrgbcolor
newpath
28937.4 69687 moveto
28937.4 72049.2 lineto
stroke
0 0 0 setrgbcolor
newpath
87992.6 69687 moveto
87992.6 46065 lineto
stroke
0 0 0 setrgbcolor
newpath
28937.4 46065 moveto
28937.4 69687 lineto
stroke
78.7394 setlinewidth
newpath
46718.9 74222.5 moveto
47191.4 73750 lineto
stroke
newpath
47191.4 74222.5 moveto
46718.9 73750 lineto
stroke
newpath
48968.9 71222.5 moveto
49441.4 70750 lineto
stroke
newpath
49441.4 71222.5 moveto
48968.9 70750 lineto
stroke
newpath
50468.9 68972.5 moveto
50941.4 68500 lineto
stroke
newpath
50941.4 68972.5 moveto
50468.9 68500 lineto
stroke
newpath
52718.9 62972.5 moveto
53191.4 62500 lineto
stroke
newpath
53191.4 62972.5 moveto
52718.9 62500 lineto
stroke
newpath
55718.9 58472.5 moveto
56191.4 58000 lineto
stroke
newpath
56191.4 58472.5 moveto
55718.9 58000 lineto
stroke
31070.2 51486.2 354 cir0
32840.2 51486.2 354 cir0
newpath
37205.2 49708.7 moveto
37205.2 48763.8 lineto
stroke
newpath
36732.7 49236.2 moveto
37677.6 49236.2 lineto
stroke
newpath
37205.2 40708.7 moveto
37205.2 39763.8 lineto
stroke
newpath
36732.7 40236.2 moveto
37677.6 40236.2 lineto
stroke
newpath
40205.2 49708.7 moveto
40205.2 48763.8 lineto
stroke
newpath
39732.7 49236.2 moveto
40677.6 49236.2 lineto
stroke
newpath
40205.2 40708.7 moveto
40205.2 39763.8 lineto
stroke
newpath
39732.7 40236.2 moveto
40677.6 40236.2 lineto
stroke
newpath
43205.2 49708.7 moveto
43205.2 48763.8 lineto
stroke
newpath
42732.7 49236.2 moveto
43677.6 49236.2 lineto
stroke
newpath
43205.2 40708.7 moveto
43205.2 39763.8 lineto
stroke
newpath
42732.7 40236.2 moveto
43677.6 40236.2 lineto
stroke
newpath
46205.2 49708.7 moveto
46205.2 48763.8 lineto
stroke
newpath
45732.7 49236.2 moveto
46677.6 49236.2 lineto
stroke
newpath
46205.2 40708.7 moveto
46205.2 39763.8 lineto
stroke
newpath
45732.7 40236.2 moveto
46677.6 40236.2 lineto
stroke
newpath
73205.2 73708.7 moveto
73205.2 72763.8 lineto
stroke
newpath
72732.7 73236.2 moveto
73677.6 73236.2 lineto
stroke
newpath
73205.2 64708.7 moveto
73205.2 63763.8 lineto
stroke
newpath
72732.7 64236.2 moveto
73677.6 64236.2 lineto
stroke
newpath
76205.2 73708.7 moveto
76205.2 72763.8 lineto
stroke
newpath
75732.7 73236.2 moveto
76677.6 73236.2 lineto
stroke
newpath
76205.2 64708.7 moveto
76205.2 63763.8 lineto
stroke
newpath
75732.7 64236.2 moveto
76677.6 64236.2 lineto
stroke
newpath
79205.2 73708.7 moveto
79205.2 72763.8 lineto
stroke
newpath
78732.7 73236.2 moveto
79677.6 73236.2 lineto
stroke
newpath
79205.2 64708.7 moveto
79205.2 63763.8 lineto
stroke
newpath
78732.7 64236.2 moveto
79677.6 64236.2 lineto
stroke
newpath
82205.2 73708.7 moveto
82205.2 72763.8 lineto
stroke
newpath
81732.7 73236.2 moveto
82677.6 73236.2 lineto
stroke
newpath
82205.2 64708.7 moveto
82205.2 63763.8 lineto
stroke
newpath
81732.7 64236.2 moveto
82677.6 64236.2 lineto
stroke
newpath
51873.1 51068.3 moveto
51873.1 51904.1 lineto
51037.3 51904.1 lineto
51037.3 51068.3 lineto
51873.1 51068.3 lineto
poly0
newpath
54873.1 51068.3 moveto
54873.1 51904.1 lineto
54037.3 51904.1 lineto
54037.3 51068.3 lineto
54873.1 51068.3 lineto
poly0
newpath
56373.1 46568.3 moveto
56373.1 47404.1 lineto
55537.3 47404.1 lineto
55537.3 46568.3 lineto
56373.1 46568.3 lineto
poly0
newpath
56373.1 43568.3 moveto
56373.1 44404.1 lineto
55537.3 44404.1 lineto
55537.3 43568.3 lineto
56373.1 43568.3 lineto
poly0
newpath
57123.1 73568.3 moveto
57123.1 74404.1 lineto
56287.3 74404.1 lineto
56287.3 73568.3 lineto
57123.1 73568.3 lineto
poly0
newpath
57123.1 70568.3 moveto
57123.1 71404.1 lineto
56287.3 71404.1 lineto
56287.3 70568.3 lineto
57123.1 70568.3 lineto
poly0
newpath
57873.1 51068.3 moveto
57873.1 51904.1 lineto
57037.3 51904.1 lineto
57037.3 51068.3 lineto
57873.1 51068.3 lineto
poly0
newpath
60873.1 51068.3 moveto
60873.1 51904.1 lineto
60037.3 51904.1 lineto
60037.3 51068.3 lineto
60873.1 51068.3 lineto
poly0
newpath
63873.1 57068.3 moveto
63873.1 57904.1 lineto
63037.3 57904.1 lineto
63037.3 57068.3 lineto
63873.1 57068.3 lineto
poly0
newpath
63873.1 51068.3 moveto
63873.1 51904.1 lineto
63037.3 51904.1 lineto
63037.3 51068.3 lineto
63873.1 51068.3 lineto
poly0
newpath
66873.1 57068.3 moveto
66873.1 57904.1 lineto
66037.3 57904.1 lineto
66037.3 57068.3 lineto
66873.1 57068.3 lineto
poly0
newpath
66873.1 51068.3 moveto
66873.1 51904.1 lineto
66037.3 51904.1 lineto
66037.3 51068.3 lineto
66873.1 51068.3 lineto
poly0
newpath
68373.1 46568.3 moveto
68373.1 47404.1 lineto
67537.3 47404.1 lineto
67537.3 46568.3 lineto
68373.1 46568.3 lineto
poly0
newpath
68373.1 43568.3 moveto
68373.1 44404.1 lineto
67537.3 44404.1 lineto
67537.3 43568.3 lineto
68373.1 43568.3 lineto
poly0
newpath
69123.1 73568.3 moveto
69123.1 74404.1 lineto
68287.3 74404.1 lineto
68287.3 73568.3 lineto
69123.1 73568.3 lineto
poly0
newpath
69123.1 70568.3 moveto
69123.1 71404.1 lineto
68287.3 71404.1 lineto
68287.3 70568.3 lineto
69123.1 70568.3 lineto
poly0
newpath
69873.1 57068.3 moveto
69873.1 57904.1 lineto
69037.3 57904.1 lineto
69037.3 57068.3 lineto
69873.1 57068.3 lineto
poly0
newpath
69873.1 51068.3 moveto
69873.1 51904.1 lineto
69037.3 51904.1 lineto
69037.3 51068.3 lineto
69873.1 51068.3 lineto
poly0
newpath
72873.1 57068.3 moveto
72873.1 57904.1 lineto
72037.3 57904.1 lineto
72037.3 57068.3 lineto
72873.1 57068.3 lineto
poly0
newpath
72873.1 51068.3 moveto
72873.1 51904.1 lineto
72037.3 51904.1 lineto
72037.3 51068.3 lineto
72873.1 51068.3 lineto
poly0
newpath
75873.1 57068.3 moveto
75873.1 57904.1 lineto
75037.3 57904.1 lineto
75037.3 57068.3 lineto
75873.1 57068.3 lineto
poly0
newpath
75873.1 51068.3 moveto
75873.1 51904.1 lineto
75037.3 51904.1 lineto
75037.3 51068.3 lineto
75873.1 51068.3 lineto
poly0
newpath
78873.1 57068.3 moveto
78873.1 57904.1 lineto
78037.3 57904.1 lineto
78037.3 57068.3 lineto
78873.1 57068.3 lineto
poly0
newpath
78873.1 51068.3 moveto
78873.1 51904.1 lineto
78037.3 51904.1 lineto
78037.3 51068.3 lineto
78873.1 51068.3 lineto
poly0
newpath
81873.1 57068.3 moveto
81873.1 57904.1 lineto
81037.3 57904.1 lineto
81037.3 57068.3 lineto
81873.1 57068.3 lineto
poly0
newpath
81873.1 51068.3 moveto
81873.1 51904.1 lineto
81037.3 51904.1 lineto
81037.3 51068.3 lineto
81873.1 51068.3 lineto
poly0
newpath
84873.1 57068.3 moveto
84873.1 57904.1 lineto
84037.3 57904.1 lineto
84037.3 57068.3 lineto
84873.1 57068.3 lineto
poly0
newpath
84873.1 51068.3 moveto
84873.1 51904.1 lineto
84037.3 51904.1 lineto
84037.3 51068.3 lineto
84873.1 51068.3 lineto
poly0
newpath
33006.3 63636.2 moveto
33606.3 64236.2 lineto
33006.3 64836.2 lineto
32406.3 64236.2 lineto
33006.3 63636.2 lineto
poly0
newpath
56628.4 63636.2 moveto
57228.4 64236.2 lineto
56628.4 64836.2 lineto
56028.4 64236.2 lineto
56628.4 63636.2 lineto
poly0
newpath
72455.2 46386.2 moveto
73055.2 46986.2 lineto
72455.2 47586.2 lineto
71855.2 46986.2 lineto
72455.2 46386.2 lineto
poly0
newpath
72455.2 40386.2 moveto
73055.2 40986.2 lineto
72455.2 41586.2 lineto
71855.2 40986.2 lineto
72455.2 40386.2 lineto
poly0
newpath
81455.2 46386.2 moveto
82055.2 46986.2 lineto
81455.2 47586.2 lineto
80855.2 46986.2 lineto
81455.2 46386.2 lineto
poly0
newpath
81455.2 40386.2 moveto
82055.2 40986.2 lineto
81455.2 41586.2 lineto
80855.2 40986.2 lineto
81455.2 40386.2 lineto
poly0
118.11 setlinewidth
newpath
29887.9 35845.6 moveto
29887.9 37026.7 lineto
30169.2 37026.7 lineto
30337.9 36970.5 lineto
30450.4 36858 lineto
30506.6 36745.5 lineto
30562.9 36520.5 lineto
30562.9 36351.8 lineto
30506.6 36126.8 lineto
30450.4 36014.4 lineto
30337.9 35901.9 lineto
30169.2 35845.6 lineto
29887.9 35845.6 lineto
stroke
newpath
31069 35845.6 moveto
31069 36633 lineto
stroke
newpath
31069 36408.1 moveto
31125.3 36520.5 lineto
31181.5 36576.8 lineto
31294 36633 lineto
31406.5 36633 lineto
stroke
newpath
31800.2 35845.6 moveto
31800.2 36633 lineto
stroke
newpath
31800.2 37026.7 moveto
31744 36970.5 lineto
31800.2 36914.2 lineto
31856.5 36970.5 lineto
31800.2 37026.7 lineto
31800.2 36914.2 lineto
stroke
newpath
32531.4 35845.6 moveto
32418.9 35901.9 lineto
32362.6 36014.4 lineto
32362.6 37026.7 lineto
stroke
newpath
33150 35845.6 moveto
33037.6 35901.9 lineto
32981.3 36014.4 lineto
32981.3 37026.7 lineto
stroke
newpath
34499.9 35845.6 moveto
34499.9 37026.7 lineto
34893.6 36183.1 lineto
35287.3 37026.7 lineto
35287.3 35845.6 lineto
stroke
newpath
36355.9 35845.6 moveto
36355.9 36464.3 lineto
36299.6 36576.8 lineto
36187.2 36633 lineto
35962.2 36633 lineto
35849.7 36576.8 lineto
stroke
newpath
36355.9 35901.9 moveto
36243.4 35845.6 lineto
35962.2 35845.6 lineto
35849.7 35901.9 lineto
35793.5 36014.4 lineto
35793.5 36126.8 lineto
35849.7 36239.3 lineto
35962.2 36295.6 lineto
36243.4 36295.6 lineto
36355.9 36351.8 lineto
stroke
newpath
36918.3 36633 moveto
36918.3 35451.9 lineto
stroke
newpath
36918.3 36576.8 moveto
37030.8 36633 lineto
37255.8 36633 lineto
37368.3 36576.8 lineto
37424.5 36520.5 lineto
37480.7 36408.1 lineto
37480.7 36070.6 lineto
37424.5 35958.1 lineto
37368.3 35901.9 lineto
37255.8 35845.6 lineto
37030.8 35845.6 lineto
36918.3 35901.9 lineto
stroke
newpath
37986.9 35958.1 moveto
38043.2 35901.9 lineto
37986.9 35845.6 lineto
37930.7 35901.9 lineto
37986.9 35958.1 lineto
37986.9 35845.6 lineto
stroke
newpath
37986.9 36576.8 moveto
38043.2 36520.5 lineto
37986.9 36464.3 lineto
37930.7 36520.5 lineto
37986.9 36576.8 lineto
37986.9 36464.3 lineto
stroke
newpath
28346.9 34135.8 moveto
28819.3 33663.4 lineto
stroke
newpath
28819.3 34135.8 moveto
28346.9 33663.4 lineto
stroke
newpath
30112.9 34546.4 moveto
30225.4 34546.4 lineto
30337.9 34490.2 lineto
30394.1 34433.9 lineto
30450.4 34321.4 lineto
30506.6 34096.5 lineto
30506.6 33815.3 lineto
30450.4 33590.3 lineto
30394.1 33477.8 lineto
30337.9 33421.6 lineto
30225.4 33365.3 lineto
30112.9 33365.3 lineto
30000.4 33421.6 lineto
29944.2 33477.8 lineto
29887.9 33590.3 lineto
29831.7 33815.3 lineto
29831.7 34096.5 lineto
29887.9 34321.4 lineto
29944.2 34433.9 lineto
30000.4 34490.2 lineto
30112.9 34546.4 lineto
stroke
newpath
31012.8 33477.8 moveto
31069 33421.6 lineto
31012.8 33365.3 lineto
30956.6 33421.6 lineto
31012.8 33477.8 lineto
31012.8 33365.3 lineto
stroke
newpath
32081.4 34152.7 moveto
32081.4 33365.3 lineto
stroke
newpath
31800.2 34602.7 moveto
31519 33759 lineto
32250.2 33759 lineto
stroke
newpath
32925.1 34546.4 moveto
33037.6 34546.4 lineto
33150 34490.2 lineto
33206.3 34433.9 lineto
33262.5 34321.4 lineto
33318.8 34096.5 lineto
33318.8 33815.3 lineto
33262.5 33590.3 lineto
33206.3 33477.8 lineto
33150 33421.6 lineto
33037.6 33365.3 lineto
32925.1 33365.3 lineto
32812.6 33421.6 lineto
32756.3 33477.8 lineto
32700.1 33590.3 lineto
32643.9 33815.3 lineto
32643.9 34096.5 lineto
32700.1 34321.4 lineto
32756.3 34433.9 lineto
32812.6 34490.2 lineto
32925.1 34546.4 lineto
stroke
newpath
33825 33365.3 moveto
33825 34152.7 lineto
stroke
newpath
33825 34040.2 moveto
33881.2 34096.5 lineto
33993.7 34152.7 lineto
34162.4 34152.7 lineto
34274.9 34096.5 lineto
34331.1 33984 lineto
34331.1 33365.3 lineto
stroke
newpath
34331.1 33984 moveto
34387.4 34096.5 lineto
34499.9 34152.7 lineto
34668.6 34152.7 lineto
34781.1 34096.5 lineto
34837.3 33984 lineto
34837.3 33365.3 lineto
stroke
newpath
35399.8 33365.3 moveto
35399.8 34152.7 lineto
stroke
newpath
35399.8 34040.2 moveto
35456 34096.5 lineto
35568.5 34152.7 lineto
35737.2 34152.7 lineto
35849.7 34096.5 lineto
35905.9 33984 lineto
35905.9 33365.3 lineto
stroke
newpath
35905.9 33984 moveto
35962.2 34096.5 lineto
36074.7 34152.7 lineto
36243.4 34152.7 lineto
36355.9 34096.5 lineto
36412.1 33984 lineto
36412.1 33365.3 lineto
stroke
newpath
38718.1 34602.7 moveto
37705.7 33084.1 lineto
stroke
newpath
40236.7 34546.4 moveto
40349.1 34546.4 lineto
40461.6 34490.2 lineto
40517.9 34433.9 lineto
40574.1 34321.4 lineto
40630.4 34096.5 lineto
40630.4 33815.3 lineto
40574.1 33590.3 lineto
40517.9 33477.8 lineto
40461.6 33421.6 lineto
40349.1 33365.3 lineto
40236.7 33365.3 lineto
40124.2 33421.6 lineto
40067.9 33477.8 lineto
40011.7 33590.3 lineto
39955.4 33815.3 lineto
39955.4 34096.5 lineto
40011.7 34321.4 lineto
40067.9 34433.9 lineto
40124.2 34490.2 lineto
40236.7 34546.4 lineto
stroke
newpath
41136.5 33477.8 moveto
41192.8 33421.6 lineto
41136.5 33365.3 lineto
41080.3 33421.6 lineto
41136.5 33477.8 lineto
41136.5 33365.3 lineto
stroke
newpath
41923.9 34546.4 moveto
42036.4 34546.4 lineto
42148.9 34490.2 lineto
42205.2 34433.9 lineto
42261.4 34321.4 lineto
42317.6 34096.5 lineto
42317.6 33815.3 lineto
42261.4 33590.3 lineto
42205.2 33477.8 lineto
42148.9 33421.6 lineto
42036.4 33365.3 lineto
41923.9 33365.3 lineto
41811.5 33421.6 lineto
41755.2 33477.8 lineto
41699 33590.3 lineto
41642.7 33815.3 lineto
41642.7 34096.5 lineto
41699 34321.4 lineto
41755.2 34433.9 lineto
41811.5 34490.2 lineto
41923.9 34546.4 lineto
stroke
newpath
43442.5 33365.3 moveto
42767.6 33365.3 lineto
stroke
newpath
43105 33365.3 moveto
43105 34546.4 lineto
42992.6 34377.7 lineto
42880.1 34265.2 lineto
42767.6 34209 lineto
stroke
newpath
44454.9 34546.4 moveto
44229.9 34546.4 lineto
44117.4 34490.2 lineto
44061.2 34433.9 lineto
43948.7 34265.2 lineto
43892.4 34040.2 lineto
43892.4 33590.3 lineto
43948.7 33477.8 lineto
44004.9 33421.6 lineto
44117.4 33365.3 lineto
44342.4 33365.3 lineto
44454.9 33421.6 lineto
44511.1 33477.8 lineto
44567.4 33590.3 lineto
44567.4 33871.5 lineto
44511.1 33984 lineto
44454.9 34040.2 lineto
44342.4 34096.5 lineto
44117.4 34096.5 lineto
44004.9 34040.2 lineto
43948.7 33984 lineto
43892.4 33871.5 lineto
stroke
newpath
45017.3 34546.4 moveto
45017.3 34321.4 lineto
stroke
newpath
45467.2 34546.4 moveto
45467.2 34321.4 lineto
stroke
newpath
47210.8 32915.4 moveto
47154.5 32971.6 lineto
47042.1 33140.3 lineto
46985.8 33252.8 lineto
46929.6 33421.6 lineto
46873.3 33702.8 lineto
46873.3 33927.7 lineto
46929.6 34209 lineto
46985.8 34377.7 lineto
47042.1 34490.2 lineto
47154.5 34658.9 lineto
47210.8 34715.1 lineto
stroke
newpath
48223.2 34546.4 moveto
47660.7 34546.4 lineto
47604.5 33984 lineto
47660.7 34040.2 lineto
47773.2 34096.5 lineto
48054.4 34096.5 lineto
48166.9 34040.2 lineto
48223.2 33984 lineto
48279.4 33871.5 lineto
48279.4 33590.3 lineto
48223.2 33477.8 lineto
48166.9 33421.6 lineto
48054.4 33365.3 lineto
47773.2 33365.3 lineto
47660.7 33421.6 lineto
47604.5 33477.8 lineto
stroke
newpath
49685.5 33365.3 moveto
49685.5 34546.4 lineto
stroke
newpath
50191.7 33365.3 moveto
50191.7 33984 lineto
50135.4 34096.5 lineto
50022.9 34152.7 lineto
49854.2 34152.7 lineto
49741.7 34096.5 lineto
49685.5 34040.2 lineto
stroke
newpath
50922.8 33365.3 moveto
50810.3 33421.6 lineto
50754.1 33477.8 lineto
50697.8 33590.3 lineto
50697.8 33927.7 lineto
50754.1 34040.2 lineto
50810.3 34096.5 lineto
50922.8 34152.7 lineto
51091.5 34152.7 lineto
51204 34096.5 lineto
51260.3 34040.2 lineto
51316.5 33927.7 lineto
51316.5 33590.3 lineto
51260.3 33477.8 lineto
51204 33421.6 lineto
51091.5 33365.3 lineto
50922.8 33365.3 lineto
stroke
newpath
51991.4 33365.3 moveto
51878.9 33421.6 lineto
51822.7 33534 lineto
51822.7 34546.4 lineto
stroke
newpath
52891.3 33421.6 moveto
52778.8 33365.3 lineto
52553.9 33365.3 lineto
52441.4 33421.6 lineto
52385.1 33534 lineto
52385.1 33984 lineto
52441.4 34096.5 lineto
52553.9 34152.7 lineto
52778.8 34152.7 lineto
52891.3 34096.5 lineto
52947.6 33984 lineto
52947.6 33871.5 lineto
52385.1 33759 lineto
stroke
newpath
53397.5 33421.6 moveto
53510 33365.3 lineto
53735 33365.3 lineto
53847.5 33421.6 lineto
53903.7 33534 lineto
53903.7 33590.3 lineto
53847.5 33702.8 lineto
53735 33759 lineto
53566.2 33759 lineto
53453.8 33815.3 lineto
53397.5 33927.7 lineto
53397.5 33984 lineto
53453.8 34096.5 lineto
53566.2 34152.7 lineto
53735 34152.7 lineto
53847.5 34096.5 lineto
stroke
newpath
54297.4 32915.4 moveto
54353.6 32971.6 lineto
54466.1 33140.3 lineto
54522.4 33252.8 lineto
54578.6 33421.6 lineto
54634.9 33702.8 lineto
54634.9 33927.7 lineto
54578.6 34209 lineto
54522.4 34377.7 lineto
54466.1 34490.2 lineto
54353.6 34658.9 lineto
54297.4 34715.1 lineto
stroke
28465.3 32340.6 354 cir0
newpath
30112.9 32987.4 moveto
30225.4 32987.4 lineto
30337.9 32931.1 lineto
30394.1 32874.9 lineto
30450.4 32762.4 lineto
30506.6 32537.4 lineto
30506.6 32256.2 lineto
30450.4 32031.2 lineto
30394.1 31918.7 lineto
30337.9 31862.5 lineto
30225.4 31806.3 lineto
30112.9 31806.3 lineto
30000.4 31862.5 lineto
29944.2 31918.7 lineto
29887.9 32031.2 lineto
29831.7 32256.2 lineto
29831.7 32537.4 lineto
29887.9 32762.4 lineto
29944.2 32874.9 lineto
30000.4 32931.1 lineto
30112.9 32987.4 lineto
stroke
newpath
31012.8 31918.7 moveto
31069 31862.5 lineto
31012.8 31806.3 lineto
30956.6 31862.5 lineto
31012.8 31918.7 lineto
31012.8 31806.3 lineto
stroke
newpath
32081.4 32987.4 moveto
31856.4 32987.4 lineto
31744 32931.1 lineto
31687.7 32874.9 lineto
31575.2 32706.1 lineto
31519 32481.2 lineto
31519 32031.2 lineto
31575.2 31918.7 lineto
31631.5 31862.5 lineto
31744 31806.3 lineto
31968.9 31806.3 lineto
32081.4 31862.5 lineto
32137.7 31918.7 lineto
32193.9 32031.2 lineto
32193.9 32312.4 lineto
32137.7 32424.9 lineto
32081.4 32481.2 lineto
31968.9 32537.4 lineto
31744 32537.4 lineto
31631.5 32481.2 lineto
31575.2 32424.9 lineto
31519 32312.4 lineto
stroke
newpath
32925.1 32987.4 moveto
33037.6 32987.4 lineto
33150 32931.1 lineto
33206.3 32874.9 lineto
33262.5 32762.4 lineto
33318.8 32537.4 lineto
33318.8 32256.2 lineto
33262.5 32031.2 lineto
33206.3 31918.7 lineto
33150 31862.5 lineto
33037.6 31806.3 lineto
32925.1 31806.3 lineto
32812.6 31862.5 lineto
32756.3 31918.7 lineto
32700.1 32031.2 lineto
32643.9 32256.2 lineto
32643.9 32537.4 lineto
32700.1 32762.4 lineto
32756.3 32874.9 lineto
32812.6 32931.1 lineto
32925.1 32987.4 lineto
stroke
newpath
33825 31806.3 moveto
33825 32593.7 lineto
stroke
newpath
33825 32481.2 moveto
33881.2 32537.4 lineto
33993.7 32593.7 lineto
34162.4 32593.7 lineto
34274.9 32537.4 lineto
34331.1 32424.9 lineto
34331.1 31806.3 lineto
stroke
newpath
34331.1 32424.9 moveto
34387.4 32537.4 lineto
34499.9 32593.7 lineto
34668.6 32593.7 lineto
34781.1 32537.4 lineto
34837.3 32424.9 lineto
34837.3 31806.3 lineto
stroke
newpath
35399.8 31806.3 moveto
35399.8 32593.7 lineto
stroke
newpath
35399.8 32481.2 moveto
35456 32537.4 lineto
35568.5 32593.7 lineto
35737.2 32593.7 lineto
35849.7 32537.4 lineto
35905.9 32424.9 lineto
35905.9 31806.3 lineto
stroke
newpath
35905.9 32424.9 moveto
35962.2 32537.4 lineto
36074.7 32593.7 lineto
36243.4 32593.7 lineto
36355.9 32537.4 lineto
36412.1 32424.9 lineto
36412.1 31806.3 lineto
stroke
newpath
38718.1 33043.6 moveto
37705.7 31525 lineto
stroke
newpath
40236.7 32987.4 moveto
40349.1 32987.4 lineto
40461.6 32931.1 lineto
40517.9 32874.9 lineto
40574.1 32762.4 lineto
40630.4 32537.4 lineto
40630.4 32256.2 lineto
40574.1 32031.2 lineto
40517.9 31918.7 lineto
40461.6 31862.5 lineto
40349.1 31806.3 lineto
40236.7 31806.3 lineto
40124.2 31862.5 lineto
40067.9 31918.7 lineto
40011.7 32031.2 lineto
39955.4 32256.2 lineto
39955.4 32537.4 lineto
40011.7 32762.4 lineto
40067.9 32874.9 lineto
40124.2 32931.1 lineto
40236.7 32987.4 lineto
stroke
newpath
41136.5 31918.7 moveto
41192.8 31862.5 lineto
41136.5 31806.3 lineto
41080.3 31862.5 lineto
41136.5 31918.7 lineto
41136.5 31806.3 lineto
stroke
newpath
41923.9 32987.4 moveto
42036.4 32987.4 lineto
42148.9 32931.1 lineto
42205.2 32874.9 lineto
42261.4 32762.4 lineto
42317.6 32537.4 lineto
42317.6 32256.2 lineto
42261.4 32031.2 lineto
42205.2 31918.7 lineto
42148.9 31862.5 lineto
42036.4 31806.3 lineto
41923.9 31806.3 lineto
41811.5 31862.5 lineto
41755.2 31918.7 lineto
41699 32031.2 lineto
41642.7 32256.2 lineto
41642.7 32537.4 lineto
41699 32762.4 lineto
41755.2 32874.9 lineto
41811.5 32931.1 lineto
41923.9 32987.4 lineto
stroke
newpath
42767.6 32874.9 moveto
42823.8 32931.1 lineto
42936.3 32987.4 lineto
43217.5 32987.4 lineto
43330 32931.1 lineto
43386.3 32874.9 lineto
43442.5 32762.4 lineto
43442.5 32649.9 lineto
43386.3 32481.2 lineto
42711.3 31806.3 lineto
43442.5 31806.3 lineto
stroke
newpath
44454.9 32593.7 moveto
44454.9 31806.3 lineto
stroke
newpath
44173.7 33043.6 moveto
43892.4 32200 lineto
44623.6 32200 lineto
stroke
newpath
45017.3 32987.4 moveto
45017.3 32762.4 lineto
stroke
newpath
45467.2 32987.4 moveto
45467.2 32762.4 lineto
stroke
newpath
47210.8 31356.3 moveto
47154.5 31412.6 lineto
47042.1 31581.3 lineto
46985.8 31693.8 lineto
46929.6 31862.5 lineto
46873.3 32143.7 lineto
46873.3 32368.7 lineto
46929.6 32649.9 lineto
46985.8 32818.6 lineto
47042.1 32931.1 lineto
47154.5 33099.8 lineto
47210.8 33156.1 lineto
stroke
newpath
47604.5 32874.9 moveto
47660.7 32931.1 lineto
47773.2 32987.4 lineto
48054.4 32987.4 lineto
48166.9 32931.1 lineto
48223.2 32874.9 lineto
48279.4 32762.4 lineto
48279.4 32649.9 lineto
48223.2 32481.2 lineto
47548.2 31806.3 lineto
48279.4 31806.3 lineto
stroke
newpath
49685.5 31806.3 moveto
49685.5 32987.4 lineto
stroke
newpath
50191.7 31806.3 moveto
50191.7 32424.9 lineto
50135.4 32537.4 lineto
50022.9 32593.7 lineto
49854.2 32593.7 lineto
49741.7 32537.4 lineto
49685.5 32481.2 lineto
stroke
newpath
50922.8 31806.3 moveto
50810.3 31862.5 lineto
50754.1 31918.7 lineto
50697.8 32031.2 lineto
50697.8 32368.7 lineto
50754.1 32481.2 lineto
50810.3 32537.4 lineto
50922.8 32593.7 lineto
51091.5 32593.7 lineto
51204 32537.4 lineto
51260.3 32481.2 lineto
51316.5 32368.7 lineto
51316.5 32031.2 lineto
51260.3 31918.7 lineto
51204 31862.5 lineto
51091.5 31806.3 lineto
50922.8 31806.3 lineto
stroke
newpath
51991.4 31806.3 moveto
51878.9 31862.5 lineto
51822.7 31975 lineto
51822.7 32987.4 lineto
stroke
newpath
52891.3 31862.5 moveto
52778.8 31806.3 lineto
52553.9 31806.3 lineto
52441.4 31862.5 lineto
52385.1 31975 lineto
52385.1 32424.9 lineto
52441.4 32537.4 lineto
52553.9 32593.7 lineto
52778.8 32593.7 lineto
52891.3 32537.4 lineto
52947.6 32424.9 lineto
52947.6 32312.4 lineto
52385.1 32200 lineto
stroke
newpath
53397.5 31862.5 moveto
53510 31806.3 lineto
53735 31806.3 lineto
53847.5 31862.5 lineto
53903.7 31975 lineto
53903.7 32031.2 lineto
53847.5 32143.7 lineto
53735 32200 lineto
53566.2 32200 lineto
53453.8 32256.2 lineto
53397.5 32368.7 lineto
53397.5 32424.9 lineto
53453.8 32537.4 lineto
53566.2 32593.7 lineto
53735 32593.7 lineto
53847.5 32537.4 lineto
stroke
newpath
54297.4 31356.3 moveto
54353.6 31412.6 lineto
54466.1 31581.3 lineto
54522.4 31693.8 lineto
54578.6 31862.5 lineto
54634.9 32143.7 lineto
54634.9 32368.7 lineto
54578.6 32649.9 lineto
54522.4 32818.6 lineto
54466.1 32931.1 lineto
54353.6 33099.8 lineto
54297.4 33156.1 lineto
stroke
newpath
28346.9 31254 moveto
28346.9 30309.1 lineto
stroke
newpath
27874.4 30781.5 moveto
28819.3 30781.5 lineto
stroke
newpath
30112.9 31428.3 moveto
30225.4 31428.3 lineto
30337.9 31372.1 lineto
30394.1 31315.8 lineto
30450.4 31203.3 lineto
30506.6 30978.4 lineto
30506.6 30697.1 lineto
30450.4 30472.2 lineto
30394.1 30359.7 lineto
30337.9 30303.4 lineto
30225.4 30247.2 lineto
30112.9 30247.2 lineto
30000.4 30303.4 lineto
29944.2 30359.7 lineto
29887.9 30472.2 lineto
29831.7 30697.1 lineto
29831.7 30978.4 lineto
29887.9 31203.3 lineto
29944.2 31315.8 lineto
30000.4 31372.1 lineto
30112.9 31428.3 lineto
stroke
newpath
31012.8 30359.7 moveto
31069 30303.4 lineto
31012.8 30247.2 lineto
30956.6 30303.4 lineto
31012.8 30359.7 lineto
31012.8 30247.2 lineto
stroke
newpath
31744 30922.1 moveto
31631.5 30978.4 lineto
31575.2 31034.6 lineto
31519 31147.1 lineto
31519 31203.3 lineto
31575.2 31315.8 lineto
31631.5 31372.1 lineto
31744 31428.3 lineto
31968.9 31428.3 lineto
32081.4 31372.1 lineto
32137.7 31315.8 lineto
32193.9 31203.3 lineto
32193.9 31147.1 lineto
32137.7 31034.6 lineto
32081.4 30978.4 lineto
31968.9 30922.1 lineto
31744 30922.1 lineto
31631.5 30865.9 lineto
31575.2 30809.6 lineto
31519 30697.1 lineto
31519 30472.2 lineto
31575.2 30359.7 lineto
31631.5 30303.4 lineto
31744 30247.2 lineto
31968.9 30247.2 lineto
32081.4 30303.4 lineto
32137.7 30359.7 lineto
32193.9 30472.2 lineto
32193.9 30697.1 lineto
32137.7 30809.6 lineto
32081.4 30865.9 lineto
31968.9 30922.1 lineto
stroke
newpath
32925.1 31428.3 moveto
33037.6 31428.3 lineto
33150 31372.1 lineto
33206.3 31315.8 lineto
33262.5 31203.3 lineto
33318.8 30978.4 lineto
33318.8 30697.1 lineto
33262.5 30472.2 lineto
33206.3 30359.7 lineto
33150 30303.4 lineto
33037.6 30247.2 lineto
32925.1 30247.2 lineto
32812.6 30303.4 lineto
32756.3 30359.7 lineto
32700.1 30472.2 lineto
32643.9 30697.1 lineto
32643.9 30978.4 lineto
32700.1 31203.3 lineto
32756.3 31315.8 lineto
32812.6 31372.1 lineto
32925.1 31428.3 lineto
stroke
newpath
33825 30247.2 moveto
33825 31034.6 lineto
stroke
newpath
33825 30922.1 moveto
33881.2 30978.4 lineto
33993.7 31034.6 lineto
34162.4 31034.6 lineto
34274.9 30978.4 lineto
34331.1 30865.9 lineto
34331.1 30247.2 lineto
stroke
newpath
34331.1 30865.9 moveto
34387.4 30978.4 lineto
34499.9 31034.6 lineto
34668.6 31034.6 lineto
34781.1 30978.4 lineto
34837.3 30865.9 lineto
34837.3 30247.2 lineto
stroke
newpath
35399.8 30247.2 moveto
35399.8 31034.6 lineto
stroke
newpath
35399.8 30922.1 moveto
35456 30978.4 lineto
35568.5 31034.6 lineto
35737.2 31034.6 lineto
35849.7 30978.4 lineto
35905.9 30865.9 lineto
35905.9 30247.2 lineto
stroke
newpath
35905.9 30865.9 moveto
35962.2 30978.4 lineto
36074.7 31034.6 lineto
36243.4 31034.6 lineto
36355.9 30978.4 lineto
36412.1 30865.9 lineto
36412.1 30247.2 lineto
stroke
newpath
38718.1 31484.5 moveto
37705.7 29966 lineto
stroke
newpath
40236.7 31428.3 moveto
40349.1 31428.3 lineto
40461.6 31372.1 lineto
40517.9 31315.8 lineto
40574.1 31203.3 lineto
40630.4 30978.4 lineto
40630.4 30697.1 lineto
40574.1 30472.2 lineto
40517.9 30359.7 lineto
40461.6 30303.4 lineto
40349.1 30247.2 lineto
40236.7 30247.2 lineto
40124.2 30303.4 lineto
40067.9 30359.7 lineto
40011.7 30472.2 lineto
39955.4 30697.1 lineto
39955.4 30978.4 lineto
40011.7 31203.3 lineto
40067.9 31315.8 lineto
40124.2 31372.1 lineto
40236.7 31428.3 lineto
stroke
newpath
41136.5 30359.7 moveto
41192.8 30303.4 lineto
41136.5 30247.2 lineto
41080.3 30303.4 lineto
41136.5 30359.7 lineto
41136.5 30247.2 lineto
stroke
newpath
41923.9 31428.3 moveto
42036.4 31428.3 lineto
42148.9 31372.1 lineto
42205.2 31315.8 lineto
42261.4 31203.3 lineto
42317.6 30978.4 lineto
42317.6 30697.1 lineto
42261.4 30472.2 lineto
42205.2 30359.7 lineto
42148.9 30303.4 lineto
42036.4 30247.2 lineto
41923.9 30247.2 lineto
41811.5 30303.4 lineto
41755.2 30359.7 lineto
41699 30472.2 lineto
41642.7 30697.1 lineto
41642.7 30978.4 lineto
41699 31203.3 lineto
41755.2 31315.8 lineto
41811.5 31372.1 lineto
41923.9 31428.3 lineto
stroke
newpath
42711.3 31428.3 moveto
43442.5 31428.3 lineto
43048.8 30978.4 lineto
43217.5 30978.4 lineto
43330 30922.1 lineto
43386.3 30865.9 lineto
43442.5 30753.4 lineto
43442.5 30472.2 lineto
43386.3 30359.7 lineto
43330 30303.4 lineto
43217.5 30247.2 lineto
42880.1 30247.2 lineto
42767.6 30303.4 lineto
42711.3 30359.7 lineto
stroke
newpath
44567.4 30247.2 moveto
43892.4 30247.2 lineto
stroke
newpath
44229.9 30247.2 moveto
44229.9 31428.3 lineto
44117.4 31259.6 lineto
44004.9 31147.1 lineto
43892.4 31090.8 lineto
stroke
newpath
45017.3 31428.3 moveto
45017.3 31203.3 lineto
stroke
newpath
45467.2 31428.3 moveto
45467.2 31203.3 lineto
stroke
newpath
47210.8 29797.3 moveto
47154.5 29853.5 lineto
47042.1 30022.2 lineto
46985.8 30134.7 lineto
46929.6 30303.4 lineto
46873.3 30584.7 lineto
46873.3 30809.6 lineto
46929.6 31090.8 lineto
46985.8 31259.6 lineto
47042.1 31372.1 lineto
47154.5 31540.8 lineto
47210.8 31597 lineto
stroke
newpath
48279.4 30247.2 moveto
47604.5 30247.2 lineto
stroke
newpath
47941.9 30247.2 moveto
47941.9 31428.3 lineto
47829.5 31259.6 lineto
47717 31147.1 lineto
47604.5 31090.8 lineto
stroke
newpath
49291.8 31428.3 moveto
49066.8 31428.3 lineto
48954.3 31372.1 lineto
48898.1 31315.8 lineto
48785.6 31147.1 lineto
48729.3 30922.1 lineto
48729.3 30472.2 lineto
48785.6 30359.7 lineto
48841.8 30303.4 lineto
48954.3 30247.2 lineto
49179.3 30247.2 lineto
49291.8 30303.4 lineto
49348 30359.7 lineto
49404.3 30472.2 lineto
49404.3 30753.4 lineto
49348 30865.9 lineto
49291.8 30922.1 lineto
49179.3 30978.4 lineto
48954.3 30978.4 lineto
48841.8 30922.1 lineto
48785.6 30865.9 lineto
48729.3 30753.4 lineto
stroke
newpath
50810.3 30247.2 moveto
50810.3 31428.3 lineto
stroke
newpath
51316.5 30247.2 moveto
51316.5 30865.9 lineto
51260.3 30978.4 lineto
51147.8 31034.6 lineto
50979.1 31034.6 lineto
50866.6 30978.4 lineto
50810.3 30922.1 lineto
stroke
newpath
52047.7 30247.2 moveto
51935.2 30303.4 lineto
51878.9 30359.7 lineto
51822.7 30472.2 lineto
51822.7 30809.6 lineto
51878.9 30922.1 lineto
51935.2 30978.4 lineto
52047.7 31034.6 lineto
52216.4 31034.6 lineto
52328.9 30978.4 lineto
52385.1 30922.1 lineto
52441.4 30809.6 lineto
52441.4 30472.2 lineto
52385.1 30359.7 lineto
52328.9 30303.4 lineto
52216.4 30247.2 lineto
52047.7 30247.2 lineto
stroke
newpath
53116.3 30247.2 moveto
53003.8 30303.4 lineto
52947.6 30415.9 lineto
52947.6 31428.3 lineto
stroke
newpath
54016.2 30303.4 moveto
53903.7 30247.2 lineto
53678.7 30247.2 lineto
53566.2 30303.4 lineto
53510 30415.9 lineto
53510 30865.9 lineto
53566.2 30978.4 lineto
53678.7 31034.6 lineto
53903.7 31034.6 lineto
54016.2 30978.4 lineto
54072.4 30865.9 lineto
54072.4 30753.4 lineto
53510 30640.9 lineto
stroke
newpath
54522.4 30303.4 moveto
54634.9 30247.2 lineto
54859.8 30247.2 lineto
54972.3 30303.4 lineto
55028.6 30415.9 lineto
55028.6 30472.2 lineto
54972.3 30584.7 lineto
54859.8 30640.9 lineto
54691.1 30640.9 lineto
54578.6 30697.1 lineto
54522.4 30809.6 lineto
54522.4 30865.9 lineto
54578.6 30978.4 lineto
54691.1 31034.6 lineto
54859.8 31034.6 lineto
54972.3 30978.4 lineto
stroke
newpath
55422.3 29797.3 moveto
55478.5 29853.5 lineto
55591 30022.2 lineto
55647.2 30134.7 lineto
55703.5 30303.4 lineto
55759.7 30584.7 lineto
55759.7 30809.6 lineto
55703.5 31090.8 lineto
55647.2 31259.6 lineto
55591 31372.1 lineto
55478.5 31540.8 lineto
55422.3 31597 lineto
stroke
newpath
28646.2 28804.6 moveto
28646.2 29640.4 lineto
27810.4 29640.4 lineto
27810.4 28804.6 lineto
28646.2 28804.6 lineto
poly0
newpath
30506.6 28688.1 moveto
29831.7 28688.1 lineto
stroke
newpath
30169.2 28688.1 moveto
30169.2 29869.2 lineto
30056.7 29700.5 lineto
29944.2 29588 lineto
29831.7 29531.8 lineto
stroke
newpath
31012.8 28800.6 moveto
31069 28744.4 lineto
31012.8 28688.1 lineto
30956.6 28744.4 lineto
31012.8 28800.6 lineto
31012.8 28688.1 lineto
stroke
newpath
31800.2 29869.2 moveto
31912.7 29869.2 lineto
32025.2 29813 lineto
32081.4 29756.8 lineto
32137.7 29644.3 lineto
32193.9 29419.3 lineto
32193.9 29138.1 lineto
32137.7 28913.1 lineto
32081.4 28800.6 lineto
32025.2 28744.4 lineto
31912.7 28688.1 lineto
31800.2 28688.1 lineto
31687.7 28744.4 lineto
31631.5 28800.6 lineto
31575.2 28913.1 lineto
31519 29138.1 lineto
31519 29419.3 lineto
31575.2 29644.3 lineto
31631.5 29756.8 lineto
31687.7 29813 lineto
31800.2 29869.2 lineto
stroke
newpath
32925.1 29869.2 moveto
33037.6 29869.2 lineto
33150 29813 lineto
33206.3 29756.8 lineto
33262.5 29644.3 lineto
33318.8 29419.3 lineto
33318.8 29138.1 lineto
33262.5 28913.1 lineto
33206.3 28800.6 lineto
33150 28744.4 lineto
33037.6 28688.1 lineto
32925.1 28688.1 lineto
32812.6 28744.4 lineto
32756.3 28800.6 lineto
32700.1 28913.1 lineto
32643.9 29138.1 lineto
32643.9 29419.3 lineto
32700.1 29644.3 lineto
32756.3 29756.8 lineto
32812.6 29813 lineto
32925.1 29869.2 lineto
stroke
newpath
33825 28688.1 moveto
33825 29475.5 lineto
stroke
newpath
33825 29363.1 moveto
33881.2 29419.3 lineto
33993.7 29475.5 lineto
34162.4 29475.5 lineto
34274.9 29419.3 lineto
34331.1 29306.8 lineto
34331.1 28688.1 lineto
stroke
newpath
34331.1 29306.8 moveto
34387.4 29419.3 lineto
34499.9 29475.5 lineto
34668.6 29475.5 lineto
34781.1 29419.3 lineto
34837.3 29306.8 lineto
34837.3 28688.1 lineto
stroke
newpath
35399.8 28688.1 moveto
35399.8 29475.5 lineto
stroke
newpath
35399.8 29363.1 moveto
35456 29419.3 lineto
35568.5 29475.5 lineto
35737.2 29475.5 lineto
35849.7 29419.3 lineto
35905.9 29306.8 lineto
35905.9 28688.1 lineto
stroke
newpath
35905.9 29306.8 moveto
35962.2 29419.3 lineto
36074.7 29475.5 lineto
36243.4 29475.5 lineto
36355.9 29419.3 lineto
36412.1 29306.8 lineto
36412.1 28688.1 lineto
stroke
newpath
38718.1 29925.5 moveto
37705.7 28406.9 lineto
stroke
newpath
40236.7 29869.2 moveto
40349.1 29869.2 lineto
40461.6 29813 lineto
40517.9 29756.8 lineto
40574.1 29644.3 lineto
40630.4 29419.3 lineto
40630.4 29138.1 lineto
40574.1 28913.1 lineto
40517.9 28800.6 lineto
40461.6 28744.4 lineto
40349.1 28688.1 lineto
40236.7 28688.1 lineto
40124.2 28744.4 lineto
40067.9 28800.6 lineto
40011.7 28913.1 lineto
39955.4 29138.1 lineto
39955.4 29419.3 lineto
40011.7 29644.3 lineto
40067.9 29756.8 lineto
40124.2 29813 lineto
40236.7 29869.2 lineto
stroke
newpath
41136.5 28800.6 moveto
41192.8 28744.4 lineto
41136.5 28688.1 lineto
41080.3 28744.4 lineto
41136.5 28800.6 lineto
41136.5 28688.1 lineto
stroke
newpath
41923.9 29869.2 moveto
42036.4 29869.2 lineto
42148.9 29813 lineto
42205.2 29756.8 lineto
42261.4 29644.3 lineto
42317.6 29419.3 lineto
42317.6 29138.1 lineto
42261.4 28913.1 lineto
42205.2 28800.6 lineto
42148.9 28744.4 lineto
42036.4 28688.1 lineto
41923.9 28688.1 lineto
41811.5 28744.4 lineto
41755.2 28800.6 lineto
41699 28913.1 lineto
41642.7 29138.1 lineto
41642.7 29419.3 lineto
41699 29644.3 lineto
41755.2 29756.8 lineto
41811.5 29813 lineto
41923.9 29869.2 lineto
stroke
newpath
42711.3 29869.2 moveto
43442.5 29869.2 lineto
43048.8 29419.3 lineto
43217.5 29419.3 lineto
43330 29363.1 lineto
43386.3 29306.8 lineto
43442.5 29194.3 lineto
43442.5 28913.1 lineto
43386.3 28800.6 lineto
43330 28744.4 lineto
43217.5 28688.1 lineto
42880.1 28688.1 lineto
42767.6 28744.4 lineto
42711.3 28800.6 lineto
stroke
newpath
44004.9 28688.1 moveto
44229.9 28688.1 lineto
44342.4 28744.4 lineto
44398.6 28800.6 lineto
44511.1 28969.4 lineto
44567.4 29194.3 lineto
44567.4 29644.3 lineto
44511.1 29756.8 lineto
44454.9 29813 lineto
44342.4 29869.2 lineto
44117.4 29869.2 lineto
44004.9 29813 lineto
43948.7 29756.8 lineto
43892.4 29644.3 lineto
43892.4 29363.1 lineto
43948.7 29250.6 lineto
44004.9 29194.3 lineto
44117.4 29138.1 lineto
44342.4 29138.1 lineto
44454.9 29194.3 lineto
44511.1 29250.6 lineto
44567.4 29363.1 lineto
stroke
newpath
45017.3 29869.2 moveto
45017.3 29644.3 lineto
stroke
newpath
45467.2 29869.2 moveto
45467.2 29644.3 lineto
stroke
newpath
47210.8 28238.2 moveto
47154.5 28294.4 lineto
47042.1 28463.2 lineto
46985.8 28575.7 lineto
46929.6 28744.4 lineto
46873.3 29025.6 lineto
46873.3 29250.6 lineto
46929.6 29531.8 lineto
46985.8 29700.5 lineto
47042.1 29813 lineto
47154.5 29981.7 lineto
47210.8 30038 lineto
stroke
newpath
47604.5 29756.8 moveto
47660.7 29813 lineto
47773.2 29869.2 lineto
48054.4 29869.2 lineto
48166.9 29813 lineto
48223.2 29756.8 lineto
48279.4 29644.3 lineto
48279.4 29531.8 lineto
48223.2 29363.1 lineto
47548.2 28688.1 lineto
48279.4 28688.1 lineto
stroke
newpath
48954.3 29363.1 moveto
48841.8 29419.3 lineto
48785.6 29475.5 lineto
48729.3 29588 lineto
48729.3 29644.3 lineto
48785.6 29756.8 lineto
48841.8 29813 lineto
48954.3 29869.2 lineto
49179.3 29869.2 lineto
49291.8 29813 lineto
49348 29756.8 lineto
49404.3 29644.3 lineto
49404.3 29588 lineto
49348 29475.5 lineto
49291.8 29419.3 lineto
49179.3 29363.1 lineto
48954.3 29363.1 lineto
48841.8 29306.8 lineto
48785.6 29250.6 lineto
48729.3 29138.1 lineto
48729.3 28913.1 lineto
48785.6 28800.6 lineto
48841.8 28744.4 lineto
48954.3 28688.1 lineto
49179.3 28688.1 lineto
49291.8 28744.4 lineto
49348 28800.6 lineto
49404.3 28913.1 lineto
49404.3 29138.1 lineto
49348 29250.6 lineto
49291.8 29306.8 lineto
49179.3 29363.1 lineto
stroke
newpath
50810.3 28688.1 moveto
50810.3 29869.2 lineto
stroke
newpath
51316.5 28688.1 moveto
51316.5 29306.8 lineto
51260.3 29419.3 lineto
51147.8 29475.5 lineto
50979.1 29475.5 lineto
50866.6 29419.3 lineto
50810.3 29363.1 lineto
stroke
newpath
52047.7 28688.1 moveto
51935.2 28744.4 lineto
51878.9 28800.6 lineto
51822.7 28913.1 lineto
51822.7 29250.6 lineto
51878.9 29363.1 lineto
51935.2 29419.3 lineto
52047.7 29475.5 lineto
52216.4 29475.5 lineto
52328.9 29419.3 lineto
52385.1 29363.1 lineto
52441.4 29250.6 lineto
52441.4 28913.1 lineto
52385.1 28800.6 lineto
52328.9 28744.4 lineto
52216.4 28688.1 lineto
52047.7 28688.1 lineto
stroke
newpath
53116.3 28688.1 moveto
53003.8 28744.4 lineto
52947.6 28856.9 lineto
52947.6 29869.2 lineto
stroke
newpath
54016.2 28744.4 moveto
53903.7 28688.1 lineto
53678.7 28688.1 lineto
53566.2 28744.4 lineto
53510 28856.9 lineto
53510 29306.8 lineto
53566.2 29419.3 lineto
53678.7 29475.5 lineto
53903.7 29475.5 lineto
54016.2 29419.3 lineto
54072.4 29306.8 lineto
54072.4 29194.3 lineto
53510 29081.8 lineto
stroke
newpath
54522.4 28744.4 moveto
54634.9 28688.1 lineto
54859.8 28688.1 lineto
54972.3 28744.4 lineto
55028.6 28856.9 lineto
55028.6 28913.1 lineto
54972.3 29025.6 lineto
54859.8 29081.8 lineto
54691.1 29081.8 lineto
54578.6 29138.1 lineto
54522.4 29250.6 lineto
54522.4 29306.8 lineto
54578.6 29419.3 lineto
54691.1 29475.5 lineto
54859.8 29475.5 lineto
54972.3 29419.3 lineto
stroke
newpath
55422.3 28238.2 moveto
55478.5 28294.4 lineto
55591 28463.2 lineto
55647.2 28575.7 lineto
55703.5 28744.4 lineto
55759.7 29025.6 lineto
55759.7 29250.6 lineto
55703.5 29531.8 lineto
55647.2 29700.5 lineto
55591 29813 lineto
55478.5 29981.7 lineto
55422.3 30038 lineto
stroke
newpath
28219.3 26928.6 moveto
28819.3 27528.6 lineto
28219.3 28128.6 lineto
27619.3 27528.6 lineto
28219.3 26928.6 lineto
poly0
newpath
30506.6 26994.3 moveto
29831.7 26994.3 lineto
stroke
newpath
30169.2 26994.3 moveto
30169.2 28175.4 lineto
30056.7 28006.7 lineto
29944.2 27894.2 lineto
29831.7 27838 lineto
stroke
newpath
31012.8 27106.8 moveto
31069 27050.6 lineto
31012.8 26994.3 lineto
30956.6 27050.6 lineto
31012.8 27106.8 lineto
31012.8 26994.3 lineto
stroke
newpath
31800.2 28175.4 moveto
31912.7 28175.4 lineto
32025.2 28119.2 lineto
32081.4 28063 lineto
32137.7 27950.5 lineto
32193.9 27725.5 lineto
32193.9 27444.3 lineto
32137.7 27219.3 lineto
32081.4 27106.8 lineto
32025.2 27050.6 lineto
31912.7 26994.3 lineto
31800.2 26994.3 lineto
31687.7 27050.6 lineto
31631.5 27106.8 lineto
31575.2 27219.3 lineto
31519 27444.3 lineto
31519 27725.5 lineto
31575.2 27950.5 lineto
31631.5 28063 lineto
31687.7 28119.2 lineto
31800.2 28175.4 lineto
stroke
newpath
32643.9 28063 moveto
32700.1 28119.2 lineto
32812.6 28175.4 lineto
33093.8 28175.4 lineto
33206.3 28119.2 lineto
33262.5 28063 lineto
33318.8 27950.5 lineto
33318.8 27838 lineto
33262.5 27669.3 lineto
32587.6 26994.3 lineto
33318.8 26994.3 lineto
stroke
newpath
33825 26994.3 moveto
33825 27781.7 lineto
stroke
newpath
33825 27669.3 moveto
33881.2 27725.5 lineto
33993.7 27781.7 lineto
34162.4 27781.7 lineto
34274.9 27725.5 lineto
34331.1 27613 lineto
34331.1 26994.3 lineto
stroke
newpath
34331.1 27613 moveto
34387.4 27725.5 lineto
34499.9 27781.7 lineto
34668.6 27781.7 lineto
34781.1 27725.5 lineto
34837.3 27613 lineto
34837.3 26994.3 lineto
stroke
newpath
35399.8 26994.3 moveto
35399.8 27781.7 lineto
stroke
newpath
35399.8 27669.3 moveto
35456 27725.5 lineto
35568.5 27781.7 lineto
35737.2 27781.7 lineto
35849.7 27725.5 lineto
35905.9 27613 lineto
35905.9 26994.3 lineto
stroke
newpath
35905.9 27613 moveto
35962.2 27725.5 lineto
36074.7 27781.7 lineto
36243.4 27781.7 lineto
36355.9 27725.5 lineto
36412.1 27613 lineto
36412.1 26994.3 lineto
stroke
newpath
38718.1 28231.7 moveto
37705.7 26713.1 lineto
stroke
newpath
40236.7 28175.4 moveto
40349.1 28175.4 lineto
40461.6 28119.2 lineto
40517.9 28063 lineto
40574.1 27950.5 lineto
40630.4 27725.5 lineto
40630.4 27444.3 lineto
40574.1 27219.3 lineto
40517.9 27106.8 lineto
40461.6 27050.6 lineto
40349.1 26994.3 lineto
40236.7 26994.3 lineto
40124.2 27050.6 lineto
40067.9 27106.8 lineto
40011.7 27219.3 lineto
39955.4 27444.3 lineto
39955.4 27725.5 lineto
40011.7 27950.5 lineto
40067.9 28063 lineto
40124.2 28119.2 lineto
40236.7 28175.4 lineto
stroke
newpath
41136.5 27106.8 moveto
41192.8 27050.6 lineto
41136.5 26994.3 lineto
41080.3 27050.6 lineto
41136.5 27106.8 lineto
41136.5 26994.3 lineto
stroke
newpath
41923.9 28175.4 moveto
42036.4 28175.4 lineto
42148.9 28119.2 lineto
42205.2 28063 lineto
42261.4 27950.5 lineto
42317.6 27725.5 lineto
42317.6 27444.3 lineto
42261.4 27219.3 lineto
42205.2 27106.8 lineto
42148.9 27050.6 lineto
42036.4 26994.3 lineto
41923.9 26994.3 lineto
41811.5 27050.6 lineto
41755.2 27106.8 lineto
41699 27219.3 lineto
41642.7 27444.3 lineto
41642.7 27725.5 lineto
41699 27950.5 lineto
41755.2 28063 lineto
41811.5 28119.2 lineto
41923.9 28175.4 lineto
stroke
newpath
43330 27781.7 moveto
43330 26994.3 lineto
stroke
newpath
43048.8 28231.7 moveto
42767.6 27388 lineto
43498.7 27388 lineto
stroke
newpath
44173.7 28175.4 moveto
44286.1 28175.4 lineto
44398.6 28119.2 lineto
44454.9 28063 lineto
44511.1 27950.5 lineto
44567.4 27725.5 lineto
44567.4 27444.3 lineto
44511.1 27219.3 lineto
44454.9 27106.8 lineto
44398.6 27050.6 lineto
44286.1 26994.3 lineto
44173.7 26994.3 lineto
44061.2 27050.6 lineto
44004.9 27106.8 lineto
43948.7 27219.3 lineto
43892.4 27444.3 lineto
43892.4 27725.5 lineto
43948.7 27950.5 lineto
44004.9 28063 lineto
44061.2 28119.2 lineto
44173.7 28175.4 lineto
stroke
newpath
45017.3 28175.4 moveto
45017.3 27950.5 lineto
stroke
newpath
45467.2 28175.4 moveto
45467.2 27950.5 lineto
stroke
newpath
47210.8 26544.4 moveto
47154.5 26600.6 lineto
47042.1 26769.4 lineto
46985.8 26881.9 lineto
46929.6 27050.6 lineto
46873.3 27331.8 lineto
46873.3 27556.8 lineto
46929.6 27838 lineto
46985.8 28006.7 lineto
47042.1 28119.2 lineto
47154.5 28287.9 lineto
47210.8 28344.2 lineto
stroke
newpath
48166.9 28175.4 moveto
47941.9 28175.4 lineto
47829.5 28119.2 lineto
47773.2 28063 lineto
47660.7 27894.2 lineto
47604.5 27669.3 lineto
47604.5 27219.3 lineto
47660.7 27106.8 lineto
47717 27050.6 lineto
47829.5 26994.3 lineto
48054.4 26994.3 lineto
48166.9 27050.6 lineto
48223.2 27106.8 lineto
48279.4 27219.3 lineto
48279.4 27500.5 lineto
48223.2 27613 lineto
48166.9 27669.3 lineto
48054.4 27725.5 lineto
47829.5 27725.5 lineto
47717 27669.3 lineto
47660.7 27613 lineto
47604.5 27500.5 lineto
stroke
newpath
49685.5 26994.3 moveto
49685.5 28175.4 lineto
stroke
newpath
50191.7 26994.3 moveto
50191.7 27613 lineto
50135.4 27725.5 lineto
50022.9 27781.7 lineto
49854.2 27781.7 lineto
49741.7 27725.5 lineto
49685.5 27669.3 lineto
stroke
newpath
50922.8 26994.3 moveto
50810.3 27050.6 lineto
50754.1 27106.8 lineto
50697.8 27219.3 lineto
50697.8 27556.8 lineto
50754.1 27669.3 lineto
50810.3 27725.5 lineto
50922.8 27781.7 lineto
51091.5 27781.7 lineto
51204 27725.5 lineto
51260.3 27669.3 lineto
51316.5 27556.8 lineto
51316.5 27219.3 lineto
51260.3 27106.8 lineto
51204 27050.6 lineto
51091.5 26994.3 lineto
50922.8 26994.3 lineto
stroke
newpath
51991.4 26994.3 moveto
51878.9 27050.6 lineto
51822.7 27163.1 lineto
51822.7 28175.4 lineto
stroke
newpath
52891.3 27050.6 moveto
52778.8 26994.3 lineto
52553.9 26994.3 lineto
52441.4 27050.6 lineto
52385.1 27163.1 lineto
52385.1 27613 lineto
52441.4 27725.5 lineto
52553.9 27781.7 lineto
52778.8 27781.7 lineto
52891.3 27725.5 lineto
52947.6 27613 lineto
52947.6 27500.5 lineto
52385.1 27388 lineto
stroke
newpath
53397.5 27050.6 moveto
53510 26994.3 lineto
53735 26994.3 lineto
53847.5 27050.6 lineto
53903.7 27163.1 lineto
53903.7 27219.3 lineto
53847.5 27331.8 lineto
53735 27388 lineto
53566.2 27388 lineto
53453.8 27444.3 lineto
53397.5 27556.8 lineto
53397.5 27613 lineto
53453.8 27725.5 lineto
53566.2 27781.7 lineto
53735 27781.7 lineto
53847.5 27725.5 lineto
stroke
newpath
54297.4 26544.4 moveto
54353.6 26600.6 lineto
54466.1 26769.4 lineto
54522.4 26881.9 lineto
54578.6 27050.6 lineto
54634.9 27331.8 lineto
54634.9 27556.8 lineto
54578.6 27838 lineto
54522.4 28006.7 lineto
54466.1 28119.2 lineto
54353.6 28287.9 lineto
54297.4 28344.2 lineto
stroke
showpage
grestore
%%EOF
