<?xml version="1.0" standalone="no"?>
 <!DOCTYPE svg PUBLIC "-//W3C//DTD SVG 1.1//EN" 
 "http://www.w3.org/Graphics/SVG/1.1/DTD/svg11.dtd"> 
<svg xmlns="http://www.w3.org/2000/svg" version="1.1" 
    width="29.7002cm" height="21.0007cm" viewBox="0 0 116930 82680 ">
<title>SVG Picture created as trial1-Edge.Cuts.svg date 2016/01/21 22:01:58 </title>
  <desc>Picture generated by PCBNEW </desc>
<g style="fill:#000000; fill-opacity:1;stroke:#000000; stroke-opacity:1;
stroke-linecap:round; stroke-linejoin:round; "
 transform="translate(0 0) scale(1 1)">
</g>
<g style="fill:#000000; fill-opacity:0.0; 
stroke:#000000; stroke-width:-0.000393701; stroke-opacity:1; 
stroke-linecap:round; stroke-linejoin:round;">
</g>
<g style="fill:#000000; fill-opacity:0.0; 
stroke:#000000; stroke-width:78.7402; stroke-opacity:1; 
stroke-linecap:round; stroke-linejoin:round;">
<path d="M55511 46456
L57086 46456
" />
<path d="M55118 46062
L55511 46456
" />
<path d="M55511 45669
L55118 46062
" />
<path d="M58661 45669
L55511 45669
" />
<path d="M59055 46062
L58661 45669
" />
<path d="M58661 46456
L59055 46062
" />
<path d="M57086 46456
L58661 46456
" />
<path d="M59055 46850
L59448 46456
" />
<path d="M55118 46850
L59055 46850
" />
<path d="M54724 46456
L55118 46850
" />
<path d="M55118 32677
L55511 33070
" />
<path d="M55511 32283
L55118 32677
" />
<path d="M59055 32677
L58661 33070
" />
<path d="M58661 32283
L59055 32677
" />
<path d="M55511 32283
L58661 32283
" />
<path d="M59055 31889
L59448 32283
" />
<path d="M55118 31889
L59055 31889
" />
<path d="M54724 32283
L55118 31889
" />
<path d="M55511 33070
L58661 33070
" />
<path d="M59448 46456
L59842 46062
" />
<path d="M54330 46062
L54724 46456
" />
<path d="M59448 32283
L59842 32677
" />
<path d="M54330 32677
L54724 32283
" />
<path d="M59842 32677
L60236 32677
" />
<path d="M64960 46062
L65354 45669
" />
<path d="M59842 46062
L64960 46062
" />
<path d="M54330 32677
L53937 32677
" />
<path d="M60629 32677
L60236 32677
" />
<path d="M64960 32677
L65354 33070
" />
<path d="M60629 32677
L64960 32677
" />
<path d="M49212 32677
L53937 32677
" />
<path d="M49212 46062
L54330 46062
" />
<path d="M47244 44094
L49212 46062
" />
<path d="M66929 44094
L65354 45669
" />
<path d="M66929 43307
L66929 44094
" />
<path d="M47244 43307
L47244 44094
" />
<path d="M66929 34645
L65354 33070
" />
<path d="M66929 35433
L66929 34645
" />
<path d="M47244 34645
L49212 32677
" />
<path d="M47244 35433
L47244 34645
" />
<path d="M66929 35433
L66929 43307
" />
<path d="M47244 43307
L47244 35433
" />
</g> 
</svg>
