<?xml version="1.0" standalone="no"?>
 <!DOCTYPE svg PUBLIC "-//W3C//DTD SVG 1.1//EN" 
 "http://www.w3.org/Graphics/SVG/1.1/DTD/svg11.dtd"> 
<svg xmlns="http://www.w3.org/2000/svg" version="1.1" 
    width="29.7002cm" height="21.0007cm" viewBox="0 0 116930 82680 ">
<title>SVG Picture created as trial1-drl_map.svg date 2015/11/23 11:59:00 </title>
  <desc>Picture generated by PCBNEW </desc>
<g style="fill:#000000; fill-opacity:1;stroke:#000000; stroke-opacity:1;
stroke-linecap:round; stroke-linejoin:round; "
 transform="translate(0 0) scale(1 1)">
</g>
<g style="fill:#000000; fill-opacity:0.0; 
stroke:#000000; stroke-width:-0.000393701; stroke-opacity:1; 
stroke-linecap:round; stroke-linejoin:round;">
</g>
<g style="fill:#000000; fill-opacity:0.0; 
stroke:#000000; stroke-width:78.7402; stroke-opacity:1; 
stroke-linecap:round; stroke-linejoin:round;">
<path d="M64960 46062
L65354 45669
" />
<path d="M59842 46062
L64960 46062
" />
<path d="M59448 45669
L59842 46062
" />
<path d="M54724 45669
L59448 45669
" />
<path d="M54330 46062
L54724 45669
" />
<path d="M54330 32677
L53937 32677
" />
<path d="M54724 33070
L54330 32677
" />
<path d="M59842 33070
L54724 33070
" />
<path d="M60236 32677
L59842 33070
" />
<path d="M60629 32677
L60236 32677
" />
<path d="M64960 32677
L65354 33070
" />
<path d="M60629 32677
L64960 32677
" />
<path d="M49212 32677
L53937 32677
" />
<path d="M49212 46062
L54330 46062
" />
<path d="M47244 44094
L49212 46062
" />
<path d="M66929 44094
L65354 45669
" />
<path d="M66929 43307
L66929 44094
" />
<path d="M47244 43307
L47244 44094
" />
<path d="M66929 34645
L65354 33070
" />
<path d="M66929 35433
L66929 34645
" />
<path d="M47244 34645
L49212 32677
" />
<path d="M47244 35433
L47244 34645
" />
<path d="M66929 35433
L66929 43307
" />
<path d="M47244 43307
L47244 35433
" />
</g>
<g style="fill:#000000; fill-opacity:0.0; 
stroke:#000000; stroke-width:78.7402; stroke-opacity:1; 
stroke-linecap:round; stroke-linejoin:round;">
<path d="M53171 33921
L53328 34078
" />
<path d="M53328 33921
L53171 34078
" />
<path d="M53921 34921
L54078 35078
" />
<path d="M54078 34921
L53921 35078
" />
<path d="M54421 35671
L54578 35828
" />
<path d="M54578 35671
L54421 35828
" />
<path d="M55171 37671
L55328 37828
" />
<path d="M55328 37671
L55171 37828
" />
<path d="M56171 39171
L56328 39328
" />
<path d="M56328 39171
L56171 39328
" />
<circle cx="47955" cy="41500" r="118" /> 
<circle cx="48545" cy="41500" r="118" /> 
<path d="M50000 42092
L50000 42407
" />
<path d="M49842 42250
L50157 42250
" />
<path d="M50000 45092
L50000 45407
" />
<path d="M49842 45250
L50157 45250
" />
<path d="M51000 42092
L51000 42407
" />
<path d="M50842 42250
L51157 42250
" />
<path d="M51000 45092
L51000 45407
" />
<path d="M50842 45250
L51157 45250
" />
<path d="M52000 42092
L52000 42407
" />
<path d="M51842 42250
L52157 42250
" />
<path d="M52000 45092
L52000 45407
" />
<path d="M51842 45250
L52157 45250
" />
<path d="M53000 42092
L53000 42407
" />
<path d="M52842 42250
L53157 42250
" />
<path d="M53000 45092
L53000 45407
" />
<path d="M52842 45250
L53157 45250
" />
<path d="M62000 34092
L62000 34407
" />
<path d="M61842 34250
L62157 34250
" />
<path d="M62000 37092
L62000 37407
" />
<path d="M61842 37250
L62157 37250
" />
<path d="M63000 34092
L63000 34407
" />
<path d="M62842 34250
L63157 34250
" />
<path d="M63000 37092
L63000 37407
" />
<path d="M62842 37250
L63157 37250
" />
<path d="M64000 34092
L64000 34407
" />
<path d="M63842 34250
L64157 34250
" />
<path d="M64000 37092
L64000 37407
" />
<path d="M63842 37250
L64157 37250
" />
<path d="M65000 34092
L65000 34407
" />
<path d="M64842 34250
L65157 34250
" />
<path d="M65000 37092
L65000 37407
" />
<path d="M64842 37250
L65157 37250
" />
<polyline fill="none;"
points="54889,41639
54889,41360
54610,41360
54610,41639
54889,41639
" /> 
<polyline fill="none;"
points="55889,41639
55889,41360
55610,41360
55610,41639
55889,41639
" /> 
<polyline fill="none;"
points="56389,43139
56389,42860
56110,42860
56110,43139
56389,43139
" /> 
<polyline fill="none;"
points="56389,44139
56389,43860
56110,43860
56110,44139
56389,44139
" /> 
<polyline fill="none;"
points="56639,34139
56639,33860
56360,33860
56360,34139
56639,34139
" /> 
<polyline fill="none;"
points="56639,35139
56639,34860
56360,34860
56360,35139
56639,35139
" /> 
<polyline fill="none;"
points="56889,41639
56889,41360
56610,41360
56610,41639
56889,41639
" /> 
<polyline fill="none;"
points="57889,41639
57889,41360
57610,41360
57610,41639
57889,41639
" /> 
<polyline fill="none;"
points="58889,39639
58889,39360
58610,39360
58610,39639
58889,39639
" /> 
<polyline fill="none;"
points="58889,41639
58889,41360
58610,41360
58610,41639
58889,41639
" /> 
<polyline fill="none;"
points="59889,39639
59889,39360
59610,39360
59610,39639
59889,39639
" /> 
<polyline fill="none;"
points="59889,41639
59889,41360
59610,41360
59610,41639
59889,41639
" /> 
<polyline fill="none;"
points="60389,43139
60389,42860
60110,42860
60110,43139
60389,43139
" /> 
<polyline fill="none;"
points="60389,44139
60389,43860
60110,43860
60110,44139
60389,44139
" /> 
<polyline fill="none;"
points="60639,34139
60639,33860
60360,33860
60360,34139
60639,34139
" /> 
<polyline fill="none;"
points="60639,35139
60639,34860
60360,34860
60360,35139
60639,35139
" /> 
<polyline fill="none;"
points="60889,39639
60889,39360
60610,39360
60610,39639
60889,39639
" /> 
<polyline fill="none;"
points="60889,41639
60889,41360
60610,41360
60610,41639
60889,41639
" /> 
<polyline fill="none;"
points="61889,39639
61889,39360
61610,39360
61610,39639
61889,39639
" /> 
<polyline fill="none;"
points="61889,41639
61889,41360
61610,41360
61610,41639
61889,41639
" /> 
<polyline fill="none;"
points="62889,39639
62889,39360
62610,39360
62610,39639
62889,39639
" /> 
<polyline fill="none;"
points="62889,41639
62889,41360
62610,41360
62610,41639
62889,41639
" /> 
<polyline fill="none;"
points="63889,39639
63889,39360
63610,39360
63610,39639
63889,39639
" /> 
<polyline fill="none;"
points="63889,41639
63889,41360
63610,41360
63610,41639
63889,41639
" /> 
<polyline fill="none;"
points="64889,39639
64889,39360
64610,39360
64610,39639
64889,39639
" /> 
<polyline fill="none;"
points="64889,41639
64889,41360
64610,41360
64610,41639
64889,41639
" /> 
<polyline fill="none;"
points="65889,39639
65889,39360
65610,39360
65610,39639
65889,39639
" /> 
<polyline fill="none;"
points="65889,41639
65889,41360
65610,41360
65610,41639
65889,41639
" /> 
<polyline fill="none;"
points="48600,37450
48800,37250
48600,37050
48400,37250
48600,37450
" /> 
<polyline fill="none;"
points="56474,37450
56674,37250
56474,37050
56274,37250
56474,37450
" /> 
<polyline fill="none;"
points="61750,43200
61950,43000
61750,42800
61550,43000
61750,43200
" /> 
<polyline fill="none;"
points="61750,45200
61950,45000
61750,44800
61550,45000
61750,45200
" /> 
<polyline fill="none;"
points="64750,43200
64950,43000
64750,42800
64550,43000
64750,43200
" /> 
<polyline fill="none;"
points="64750,45200
64950,45000
64750,44800
64550,45000
64750,45200
" /> 
</g>
<g style="fill:#000000; fill-opacity:0.0; 
stroke:#000000; stroke-width:118.11; stroke-opacity:1; 
stroke-linecap:round; stroke-linejoin:round;">
<path d="M48273 47935
L48273 46754
L48554 46754
L48723 46811
L48835 46923
L48892 47035
L48948 47260
L48948 47429
L48892 47654
L48835 47767
L48723 47879
L48554 47935
L48273 47935
" />
<path d="M49454 47935
L49454 47148
" />
<path d="M49454 47373
L49510 47260
L49566 47204
L49679 47148
L49791 47148
" />
<path d="M50185 47935
L50185 47148
" />
<path d="M50185 46754
L50129 46811
L50185 46867
L50241 46811
L50185 46754
L50185 46867
" />
<path d="M50916 47935
L50804 47879
L50748 47767
L50748 46754
" />
<path d="M51535 47935
L51422 47879
L51366 47767
L51366 46754
" />
<path d="M52885 47935
L52885 46754
L53278 47598
L53672 46754
L53672 47935
" />
<path d="M54741 47935
L54741 47317
L54685 47204
L54572 47148
L54347 47148
L54235 47204
" />
<path d="M54741 47879
L54628 47935
L54347 47935
L54235 47879
L54178 47767
L54178 47654
L54235 47542
L54347 47485
L54628 47485
L54741 47429
" />
<path d="M55303 47148
L55303 48329
" />
<path d="M55303 47204
L55416 47148
L55641 47148
L55753 47204
L55809 47260
L55866 47373
L55866 47710
L55809 47823
L55753 47879
L55641 47935
L55416 47935
L55303 47879
" />
<path d="M56372 47823
L56428 47879
L56372 47935
L56316 47879
L56372 47823
L56372 47935
" />
<path d="M56372 47204
L56428 47260
L56372 47317
L56316 47260
L56372 47204
L56372 47317
" />
<path d="M47047 49803
L47204 49960
" />
<path d="M47204 49803
L47047 49960
" />
<path d="M48498 49235
L48610 49235
L48723 49291
L48779 49347
L48835 49460
L48892 49685
L48892 49966
L48835 50191
L48779 50303
L48723 50359
L48610 50416
L48498 50416
L48385 50359
L48329 50303
L48273 50191
L48217 49966
L48217 49685
L48273 49460
L48329 49347
L48385 49291
L48498 49235
" />
<path d="M49398 50303
L49454 50359
L49398 50416
L49341 50359
L49398 50303
L49398 50416
" />
<path d="M50466 49628
L50466 50416
" />
<path d="M50185 49178
L49904 50022
L50635 50022
" />
<path d="M51310 49235
L51422 49235
L51535 49291
L51591 49347
L51647 49460
L51704 49685
L51704 49966
L51647 50191
L51591 50303
L51535 50359
L51422 50416
L51310 50416
L51197 50359
L51141 50303
L51085 50191
L51029 49966
L51029 49685
L51085 49460
L51141 49347
L51197 49291
L51310 49235
" />
<path d="M52210 50416
L52210 49628
" />
<path d="M52210 49741
L52266 49685
L52379 49628
L52547 49628
L52660 49685
L52716 49797
L52716 50416
" />
<path d="M52716 49797
L52772 49685
L52885 49628
L53053 49628
L53166 49685
L53222 49797
L53222 50416
" />
<path d="M53785 50416
L53785 49628
" />
<path d="M53785 49741
L53841 49685
L53953 49628
L54122 49628
L54235 49685
L54291 49797
L54291 50416
" />
<path d="M54291 49797
L54347 49685
L54460 49628
L54628 49628
L54741 49685
L54797 49797
L54797 50416
" />
<path d="M57103 49178
L56091 50697
" />
<path d="M58622 49235
L58734 49235
L58847 49291
L58903 49347
L58959 49460
L59015 49685
L59015 49966
L58959 50191
L58903 50303
L58847 50359
L58734 50416
L58622 50416
L58509 50359
L58453 50303
L58397 50191
L58340 49966
L58340 49685
L58397 49460
L58453 49347
L58509 49291
L58622 49235
" />
<path d="M59521 50303
L59578 50359
L59521 50416
L59465 50359
L59521 50303
L59521 50416
" />
<path d="M60309 49235
L60421 49235
L60534 49291
L60590 49347
L60646 49460
L60703 49685
L60703 49966
L60646 50191
L60590 50303
L60534 50359
L60421 50416
L60309 50416
L60196 50359
L60140 50303
L60084 50191
L60028 49966
L60028 49685
L60084 49460
L60140 49347
L60196 49291
L60309 49235
" />
<path d="M61827 50416
L61152 50416
" />
<path d="M61490 50416
L61490 49235
L61377 49403
L61265 49516
L61152 49572
" />
<path d="M62840 49235
L62615 49235
L62502 49291
L62446 49347
L62334 49516
L62277 49741
L62277 50191
L62334 50303
L62390 50359
L62502 50416
L62727 50416
L62840 50359
L62896 50303
L62952 50191
L62952 49910
L62896 49797
L62840 49741
L62727 49685
L62502 49685
L62390 49741
L62334 49797
L62277 49910
" />
<path d="M63402 49235
L63402 49460
" />
<path d="M63852 49235
L63852 49460
" />
<path d="M65596 50866
L65539 50809
L65427 50641
L65371 50528
L65314 50359
L65258 50078
L65258 49853
L65314 49572
L65371 49403
L65427 49291
L65539 49122
L65596 49066
" />
<path d="M66608 49235
L66046 49235
L65989 49797
L66046 49741
L66158 49685
L66439 49685
L66552 49741
L66608 49797
L66664 49910
L66664 50191
L66608 50303
L66552 50359
L66439 50416
L66158 50416
L66046 50359
L65989 50303
" />
<path d="M68070 50416
L68070 49235
" />
<path d="M68577 50416
L68577 49797
L68520 49685
L68408 49628
L68239 49628
L68127 49685
L68070 49741
" />
<path d="M69308 50416
L69195 50359
L69139 50303
L69083 50191
L69083 49853
L69139 49741
L69195 49685
L69308 49628
L69476 49628
L69589 49685
L69645 49741
L69701 49853
L69701 50191
L69645 50303
L69589 50359
L69476 50416
L69308 50416
" />
<path d="M70376 50416
L70264 50359
L70208 50247
L70208 49235
" />
<path d="M71276 50359
L71164 50416
L70939 50416
L70826 50359
L70770 50247
L70770 49797
L70826 49685
L70939 49628
L71164 49628
L71276 49685
L71332 49797
L71332 49910
L70770 50022
" />
<path d="M71782 50359
L71895 50416
L72120 50416
L72232 50359
L72289 50247
L72289 50191
L72232 50078
L72120 50022
L71951 50022
L71839 49966
L71782 49853
L71782 49797
L71839 49685
L71951 49628
L72120 49628
L72232 49685
" />
<path d="M72682 50866
L72739 50809
L72851 50641
L72907 50528
L72964 50359
L73020 50078
L73020 49853
L72964 49572
L72907 49403
L72851 49291
L72739 49122
L72682 49066
" />
<circle cx="47086.7" cy="51440.9" r="118" /> 
<path d="M48498 50794
L48610 50794
L48723 50850
L48779 50906
L48835 51019
L48892 51244
L48892 51525
L48835 51750
L48779 51862
L48723 51919
L48610 51975
L48498 51975
L48385 51919
L48329 51862
L48273 51750
L48217 51525
L48217 51244
L48273 51019
L48329 50906
L48385 50850
L48498 50794
" />
<path d="M49398 51862
L49454 51919
L49398 51975
L49341 51919
L49398 51862
L49398 51975
" />
<path d="M50466 50794
L50241 50794
L50129 50850
L50073 50906
L49960 51075
L49904 51300
L49904 51750
L49960 51862
L50016 51919
L50129 51975
L50354 51975
L50466 51919
L50523 51862
L50579 51750
L50579 51469
L50523 51356
L50466 51300
L50354 51244
L50129 51244
L50016 51300
L49960 51356
L49904 51469
" />
<path d="M51310 50794
L51422 50794
L51535 50850
L51591 50906
L51647 51019
L51704 51244
L51704 51525
L51647 51750
L51591 51862
L51535 51919
L51422 51975
L51310 51975
L51197 51919
L51141 51862
L51085 51750
L51029 51525
L51029 51244
L51085 51019
L51141 50906
L51197 50850
L51310 50794
" />
<path d="M52210 51975
L52210 51187
" />
<path d="M52210 51300
L52266 51244
L52379 51187
L52547 51187
L52660 51244
L52716 51356
L52716 51975
" />
<path d="M52716 51356
L52772 51244
L52885 51187
L53053 51187
L53166 51244
L53222 51356
L53222 51975
" />
<path d="M53785 51975
L53785 51187
" />
<path d="M53785 51300
L53841 51244
L53953 51187
L54122 51187
L54235 51244
L54291 51356
L54291 51975
" />
<path d="M54291 51356
L54347 51244
L54460 51187
L54628 51187
L54741 51244
L54797 51356
L54797 51975
" />
<path d="M57103 50737
L56091 52256
" />
<path d="M58622 50794
L58734 50794
L58847 50850
L58903 50906
L58959 51019
L59015 51244
L59015 51525
L58959 51750
L58903 51862
L58847 51919
L58734 51975
L58622 51975
L58509 51919
L58453 51862
L58397 51750
L58340 51525
L58340 51244
L58397 51019
L58453 50906
L58509 50850
L58622 50794
" />
<path d="M59521 51862
L59578 51919
L59521 51975
L59465 51919
L59521 51862
L59521 51975
" />
<path d="M60309 50794
L60421 50794
L60534 50850
L60590 50906
L60646 51019
L60703 51244
L60703 51525
L60646 51750
L60590 51862
L60534 51919
L60421 51975
L60309 51975
L60196 51919
L60140 51862
L60084 51750
L60028 51525
L60028 51244
L60084 51019
L60140 50906
L60196 50850
L60309 50794
" />
<path d="M61152 50906
L61209 50850
L61321 50794
L61602 50794
L61715 50850
L61771 50906
L61827 51019
L61827 51131
L61771 51300
L61096 51975
L61827 51975
" />
<path d="M62840 51187
L62840 51975
" />
<path d="M62559 50737
L62277 51581
L63008 51581
" />
<path d="M63402 50794
L63402 51019
" />
<path d="M63852 50794
L63852 51019
" />
<path d="M65596 52425
L65539 52368
L65427 52200
L65371 52087
L65314 51919
L65258 51637
L65258 51412
L65314 51131
L65371 50962
L65427 50850
L65539 50681
L65596 50625
" />
<path d="M65989 50906
L66046 50850
L66158 50794
L66439 50794
L66552 50850
L66608 50906
L66664 51019
L66664 51131
L66608 51300
L65933 51975
L66664 51975
" />
<path d="M68070 51975
L68070 50794
" />
<path d="M68577 51975
L68577 51356
L68520 51244
L68408 51187
L68239 51187
L68127 51244
L68070 51300
" />
<path d="M69308 51975
L69195 51919
L69139 51862
L69083 51750
L69083 51412
L69139 51300
L69195 51244
L69308 51187
L69476 51187
L69589 51244
L69645 51300
L69701 51412
L69701 51750
L69645 51862
L69589 51919
L69476 51975
L69308 51975
" />
<path d="M70376 51975
L70264 51919
L70208 51806
L70208 50794
" />
<path d="M71276 51919
L71164 51975
L70939 51975
L70826 51919
L70770 51806
L70770 51356
L70826 51244
L70939 51187
L71164 51187
L71276 51244
L71332 51356
L71332 51469
L70770 51581
" />
<path d="M71782 51919
L71895 51975
L72120 51975
L72232 51919
L72289 51806
L72289 51750
L72232 51637
L72120 51581
L71951 51581
L71839 51525
L71782 51412
L71782 51356
L71839 51244
L71951 51187
L72120 51187
L72232 51244
" />
<path d="M72682 52425
L72739 52368
L72851 52200
L72907 52087
L72964 51919
L73020 51637
L73020 51412
L72964 51131
L72907 50962
L72851 50850
L72739 50681
L72682 50625
" />
<path d="M47047 52842
L47047 53157
" />
<path d="M46889 53000
L47204 53000
" />
<path d="M48498 52353
L48610 52353
L48723 52409
L48779 52465
L48835 52578
L48892 52803
L48892 53084
L48835 53309
L48779 53421
L48723 53478
L48610 53534
L48498 53534
L48385 53478
L48329 53421
L48273 53309
L48217 53084
L48217 52803
L48273 52578
L48329 52465
L48385 52409
L48498 52353
" />
<path d="M49398 53421
L49454 53478
L49398 53534
L49341 53478
L49398 53421
L49398 53534
" />
<path d="M50129 52859
L50016 52803
L49960 52746
L49904 52634
L49904 52578
L49960 52465
L50016 52409
L50129 52353
L50354 52353
L50466 52409
L50523 52465
L50579 52578
L50579 52634
L50523 52746
L50466 52803
L50354 52859
L50129 52859
L50016 52915
L49960 52971
L49904 53084
L49904 53309
L49960 53421
L50016 53478
L50129 53534
L50354 53534
L50466 53478
L50523 53421
L50579 53309
L50579 53084
L50523 52971
L50466 52915
L50354 52859
" />
<path d="M51310 52353
L51422 52353
L51535 52409
L51591 52465
L51647 52578
L51704 52803
L51704 53084
L51647 53309
L51591 53421
L51535 53478
L51422 53534
L51310 53534
L51197 53478
L51141 53421
L51085 53309
L51029 53084
L51029 52803
L51085 52578
L51141 52465
L51197 52409
L51310 52353
" />
<path d="M52210 53534
L52210 52746
" />
<path d="M52210 52859
L52266 52803
L52379 52746
L52547 52746
L52660 52803
L52716 52915
L52716 53534
" />
<path d="M52716 52915
L52772 52803
L52885 52746
L53053 52746
L53166 52803
L53222 52915
L53222 53534
" />
<path d="M53785 53534
L53785 52746
" />
<path d="M53785 52859
L53841 52803
L53953 52746
L54122 52746
L54235 52803
L54291 52915
L54291 53534
" />
<path d="M54291 52915
L54347 52803
L54460 52746
L54628 52746
L54741 52803
L54797 52915
L54797 53534
" />
<path d="M57103 52296
L56091 53815
" />
<path d="M58622 52353
L58734 52353
L58847 52409
L58903 52465
L58959 52578
L59015 52803
L59015 53084
L58959 53309
L58903 53421
L58847 53478
L58734 53534
L58622 53534
L58509 53478
L58453 53421
L58397 53309
L58340 53084
L58340 52803
L58397 52578
L58453 52465
L58509 52409
L58622 52353
" />
<path d="M59521 53421
L59578 53478
L59521 53534
L59465 53478
L59521 53421
L59521 53534
" />
<path d="M60309 52353
L60421 52353
L60534 52409
L60590 52465
L60646 52578
L60703 52803
L60703 53084
L60646 53309
L60590 53421
L60534 53478
L60421 53534
L60309 53534
L60196 53478
L60140 53421
L60084 53309
L60028 53084
L60028 52803
L60084 52578
L60140 52465
L60196 52409
L60309 52353
" />
<path d="M61096 52353
L61827 52353
L61434 52803
L61602 52803
L61715 52859
L61771 52915
L61827 53028
L61827 53309
L61771 53421
L61715 53478
L61602 53534
L61265 53534
L61152 53478
L61096 53421
" />
<path d="M62952 53534
L62277 53534
" />
<path d="M62615 53534
L62615 52353
L62502 52521
L62390 52634
L62277 52690
" />
<path d="M63402 52353
L63402 52578
" />
<path d="M63852 52353
L63852 52578
" />
<path d="M65596 53984
L65539 53928
L65427 53759
L65371 53646
L65314 53478
L65258 53196
L65258 52971
L65314 52690
L65371 52521
L65427 52409
L65539 52240
L65596 52184
" />
<path d="M66664 53534
L65989 53534
" />
<path d="M66327 53534
L66327 52353
L66214 52521
L66102 52634
L65989 52690
" />
<path d="M67677 52353
L67452 52353
L67339 52409
L67283 52465
L67170 52634
L67114 52859
L67114 53309
L67170 53421
L67227 53478
L67339 53534
L67564 53534
L67677 53478
L67733 53421
L67789 53309
L67789 53028
L67733 52915
L67677 52859
L67564 52803
L67339 52803
L67227 52859
L67170 52915
L67114 53028
" />
<path d="M69195 53534
L69195 52353
" />
<path d="M69701 53534
L69701 52915
L69645 52803
L69533 52746
L69364 52746
L69251 52803
L69195 52859
" />
<path d="M70433 53534
L70320 53478
L70264 53421
L70208 53309
L70208 52971
L70264 52859
L70320 52803
L70433 52746
L70601 52746
L70714 52803
L70770 52859
L70826 52971
L70826 53309
L70770 53421
L70714 53478
L70601 53534
L70433 53534
" />
<path d="M71501 53534
L71389 53478
L71332 53365
L71332 52353
" />
<path d="M72401 53478
L72289 53534
L72064 53534
L71951 53478
L71895 53365
L71895 52915
L71951 52803
L72064 52746
L72289 52746
L72401 52803
L72457 52915
L72457 53028
L71895 53140
" />
<path d="M72907 53478
L73020 53534
L73245 53534
L73357 53478
L73413 53365
L73413 53309
L73357 53196
L73245 53140
L73076 53140
L72964 53084
L72907 52971
L72907 52915
L72964 52803
L73076 52746
L73245 52746
L73357 52803
" />
<path d="M73807 53984
L73863 53928
L73976 53759
L74032 53646
L74088 53478
L74145 53196
L74145 52971
L74088 52690
L74032 52521
L73976 52409
L73863 52240
L73807 52184
" />
<polyline fill="none;"
points="47147,54698
47147,54419
46868,54419
46868,54698
47147,54698
" /> 
<path d="M48892 55093
L48217 55093
" />
<path d="M48554 55093
L48554 53912
L48442 54080
L48329 54193
L48217 54249
" />
<path d="M49398 54980
L49454 55037
L49398 55093
L49341 55037
L49398 54980
L49398 55093
" />
<path d="M50185 53912
L50298 53912
L50410 53968
L50466 54024
L50523 54137
L50579 54362
L50579 54643
L50523 54868
L50466 54980
L50410 55037
L50298 55093
L50185 55093
L50073 55037
L50016 54980
L49960 54868
L49904 54643
L49904 54362
L49960 54137
L50016 54024
L50073 53968
L50185 53912
" />
<path d="M51310 53912
L51422 53912
L51535 53968
L51591 54024
L51647 54137
L51704 54362
L51704 54643
L51647 54868
L51591 54980
L51535 55037
L51422 55093
L51310 55093
L51197 55037
L51141 54980
L51085 54868
L51029 54643
L51029 54362
L51085 54137
L51141 54024
L51197 53968
L51310 53912
" />
<path d="M52210 55093
L52210 54305
" />
<path d="M52210 54418
L52266 54362
L52379 54305
L52547 54305
L52660 54362
L52716 54474
L52716 55093
" />
<path d="M52716 54474
L52772 54362
L52885 54305
L53053 54305
L53166 54362
L53222 54474
L53222 55093
" />
<path d="M53785 55093
L53785 54305
" />
<path d="M53785 54418
L53841 54362
L53953 54305
L54122 54305
L54235 54362
L54291 54474
L54291 55093
" />
<path d="M54291 54474
L54347 54362
L54460 54305
L54628 54305
L54741 54362
L54797 54474
L54797 55093
" />
<path d="M57103 53856
L56091 55374
" />
<path d="M58622 53912
L58734 53912
L58847 53968
L58903 54024
L58959 54137
L59015 54362
L59015 54643
L58959 54868
L58903 54980
L58847 55037
L58734 55093
L58622 55093
L58509 55037
L58453 54980
L58397 54868
L58340 54643
L58340 54362
L58397 54137
L58453 54024
L58509 53968
L58622 53912
" />
<path d="M59521 54980
L59578 55037
L59521 55093
L59465 55037
L59521 54980
L59521 55093
" />
<path d="M60309 53912
L60421 53912
L60534 53968
L60590 54024
L60646 54137
L60703 54362
L60703 54643
L60646 54868
L60590 54980
L60534 55037
L60421 55093
L60309 55093
L60196 55037
L60140 54980
L60084 54868
L60028 54643
L60028 54362
L60084 54137
L60140 54024
L60196 53968
L60309 53912
" />
<path d="M61096 53912
L61827 53912
L61434 54362
L61602 54362
L61715 54418
L61771 54474
L61827 54587
L61827 54868
L61771 54980
L61715 55037
L61602 55093
L61265 55093
L61152 55037
L61096 54980
" />
<path d="M62390 55093
L62615 55093
L62727 55037
L62784 54980
L62896 54812
L62952 54587
L62952 54137
L62896 54024
L62840 53968
L62727 53912
L62502 53912
L62390 53968
L62334 54024
L62277 54137
L62277 54418
L62334 54530
L62390 54587
L62502 54643
L62727 54643
L62840 54587
L62896 54530
L62952 54418
" />
<path d="M63402 53912
L63402 54137
" />
<path d="M63852 53912
L63852 54137
" />
<path d="M65596 55543
L65539 55487
L65427 55318
L65371 55205
L65314 55037
L65258 54755
L65258 54530
L65314 54249
L65371 54080
L65427 53968
L65539 53799
L65596 53743
" />
<path d="M65989 54024
L66046 53968
L66158 53912
L66439 53912
L66552 53968
L66608 54024
L66664 54137
L66664 54249
L66608 54418
L65933 55093
L66664 55093
" />
<path d="M67339 54418
L67227 54362
L67170 54305
L67114 54193
L67114 54137
L67170 54024
L67227 53968
L67339 53912
L67564 53912
L67677 53968
L67733 54024
L67789 54137
L67789 54193
L67733 54305
L67677 54362
L67564 54418
L67339 54418
L67227 54474
L67170 54530
L67114 54643
L67114 54868
L67170 54980
L67227 55037
L67339 55093
L67564 55093
L67677 55037
L67733 54980
L67789 54868
L67789 54643
L67733 54530
L67677 54474
L67564 54418
" />
<path d="M69195 55093
L69195 53912
" />
<path d="M69701 55093
L69701 54474
L69645 54362
L69533 54305
L69364 54305
L69251 54362
L69195 54418
" />
<path d="M70433 55093
L70320 55037
L70264 54980
L70208 54868
L70208 54530
L70264 54418
L70320 54362
L70433 54305
L70601 54305
L70714 54362
L70770 54418
L70826 54530
L70826 54868
L70770 54980
L70714 55037
L70601 55093
L70433 55093
" />
<path d="M71501 55093
L71389 55037
L71332 54924
L71332 53912
" />
<path d="M72401 55037
L72289 55093
L72064 55093
L71951 55037
L71895 54924
L71895 54474
L71951 54362
L72064 54305
L72289 54305
L72401 54362
L72457 54474
L72457 54587
L71895 54699
" />
<path d="M72907 55037
L73020 55093
L73245 55093
L73357 55037
L73413 54924
L73413 54868
L73357 54755
L73245 54699
L73076 54699
L72964 54643
L72907 54530
L72907 54474
L72964 54362
L73076 54305
L73245 54305
L73357 54362
" />
<path d="M73807 55543
L73863 55487
L73976 55318
L74032 55205
L74088 55037
L74145 54755
L74145 54530
L74088 54249
L74032 54080
L73976 53968
L73863 53799
L73807 53743
" />
<polyline fill="none;"
points="47004,56318
47204,56118
47004,55918
46804,56118
47004,56318
" /> 
<path d="M48892 56652
L48217 56652
" />
<path d="M48554 56652
L48554 55471
L48442 55640
L48329 55752
L48217 55808
" />
<path d="M49398 56539
L49454 56596
L49398 56652
L49341 56596
L49398 56539
L49398 56652
" />
<path d="M50185 55471
L50298 55471
L50410 55527
L50466 55583
L50523 55696
L50579 55921
L50579 56202
L50523 56427
L50466 56539
L50410 56596
L50298 56652
L50185 56652
L50073 56596
L50016 56539
L49960 56427
L49904 56202
L49904 55921
L49960 55696
L50016 55583
L50073 55527
L50185 55471
" />
<path d="M51029 55583
L51085 55527
L51197 55471
L51479 55471
L51591 55527
L51647 55583
L51704 55696
L51704 55808
L51647 55977
L50973 56652
L51704 56652
" />
<path d="M52210 56652
L52210 55865
" />
<path d="M52210 55977
L52266 55921
L52379 55865
L52547 55865
L52660 55921
L52716 56033
L52716 56652
" />
<path d="M52716 56033
L52772 55921
L52885 55865
L53053 55865
L53166 55921
L53222 56033
L53222 56652
" />
<path d="M53785 56652
L53785 55865
" />
<path d="M53785 55977
L53841 55921
L53953 55865
L54122 55865
L54235 55921
L54291 56033
L54291 56652
" />
<path d="M54291 56033
L54347 55921
L54460 55865
L54628 55865
L54741 55921
L54797 56033
L54797 56652
" />
<path d="M57103 55415
L56091 56933
" />
<path d="M58622 55471
L58734 55471
L58847 55527
L58903 55583
L58959 55696
L59015 55921
L59015 56202
L58959 56427
L58903 56539
L58847 56596
L58734 56652
L58622 56652
L58509 56596
L58453 56539
L58397 56427
L58340 56202
L58340 55921
L58397 55696
L58453 55583
L58509 55527
L58622 55471
" />
<path d="M59521 56539
L59578 56596
L59521 56652
L59465 56596
L59521 56539
L59521 56652
" />
<path d="M60309 55471
L60421 55471
L60534 55527
L60590 55583
L60646 55696
L60703 55921
L60703 56202
L60646 56427
L60590 56539
L60534 56596
L60421 56652
L60309 56652
L60196 56596
L60140 56539
L60084 56427
L60028 56202
L60028 55921
L60084 55696
L60140 55583
L60196 55527
L60309 55471
" />
<path d="M61715 55865
L61715 56652
" />
<path d="M61434 55415
L61152 56258
L61884 56258
" />
<path d="M62559 55471
L62671 55471
L62784 55527
L62840 55583
L62896 55696
L62952 55921
L62952 56202
L62896 56427
L62840 56539
L62784 56596
L62671 56652
L62559 56652
L62446 56596
L62390 56539
L62334 56427
L62277 56202
L62277 55921
L62334 55696
L62390 55583
L62446 55527
L62559 55471
" />
<path d="M63402 55471
L63402 55696
" />
<path d="M63852 55471
L63852 55696
" />
<path d="M65596 57102
L65539 57046
L65427 56877
L65371 56764
L65314 56596
L65258 56314
L65258 56089
L65314 55808
L65371 55640
L65427 55527
L65539 55358
L65596 55302
" />
<path d="M66552 55471
L66327 55471
L66214 55527
L66158 55583
L66046 55752
L65989 55977
L65989 56427
L66046 56539
L66102 56596
L66214 56652
L66439 56652
L66552 56596
L66608 56539
L66664 56427
L66664 56146
L66608 56033
L66552 55977
L66439 55921
L66214 55921
L66102 55977
L66046 56033
L65989 56146
" />
<path d="M68070 56652
L68070 55471
" />
<path d="M68577 56652
L68577 56033
L68520 55921
L68408 55865
L68239 55865
L68127 55921
L68070 55977
" />
<path d="M69308 56652
L69195 56596
L69139 56539
L69083 56427
L69083 56089
L69139 55977
L69195 55921
L69308 55865
L69476 55865
L69589 55921
L69645 55977
L69701 56089
L69701 56427
L69645 56539
L69589 56596
L69476 56652
L69308 56652
" />
<path d="M70376 56652
L70264 56596
L70208 56483
L70208 55471
" />
<path d="M71276 56596
L71164 56652
L70939 56652
L70826 56596
L70770 56483
L70770 56033
L70826 55921
L70939 55865
L71164 55865
L71276 55921
L71332 56033
L71332 56146
L70770 56258
" />
<path d="M71782 56596
L71895 56652
L72120 56652
L72232 56596
L72289 56483
L72289 56427
L72232 56314
L72120 56258
L71951 56258
L71839 56202
L71782 56089
L71782 56033
L71839 55921
L71951 55865
L72120 55865
L72232 55921
" />
<path d="M72682 57102
L72739 57046
L72851 56877
L72907 56764
L72964 56596
L73020 56314
L73020 56089
L72964 55808
L72907 55640
L72851 55527
L72739 55358
L72682 55302
" />
</g> 
</svg>
