%!PS-Adobe-3.0
%%Creator: cairo 1.14.4 (http://cairographics.org)
%%CreationDate: Thu Nov 19 22:27:23 2015
%%Pages: 1
%%DocumentData: Clean7Bit
%%LanguageLevel: 2
%%DocumentMedia: 50x32mm 143 91 0 () ()
%%BoundingBox: 6 4 137 88
%%EndComments
%%BeginProlog
/languagelevel where
{ pop languagelevel } { 1 } ifelse
2 lt { /Helvetica findfont 12 scalefont setfont 50 500 moveto
  (This print job requires a PostScript Language Level 2 printer.) show
  showpage quit } if
/q { gsave } bind def
/Q { grestore } bind def
/cm { 6 array astore concat } bind def
/w { setlinewidth } bind def
/J { setlinecap } bind def
/j { setlinejoin } bind def
/M { setmiterlimit } bind def
/d { setdash } bind def
/m { moveto } bind def
/l { lineto } bind def
/c { curveto } bind def
/h { closepath } bind def
/re { exch dup neg 3 1 roll 5 3 roll moveto 0 rlineto
      0 exch rlineto 0 rlineto closepath } bind def
/S { stroke } bind def
/f { fill } bind def
/f* { eofill } bind def
/n { newpath } bind def
/W { clip } bind def
/W* { eoclip } bind def
/BT { } bind def
/ET { } bind def
/pdfmark where { pop globaldict /?pdfmark /exec load put }
    { globaldict begin /?pdfmark /pop load def /pdfmark
    /cleartomark load def end } ifelse
/BDC { mark 3 1 roll /BDC pdfmark } bind def
/EMC { mark /EMC pdfmark } bind def
/cairo_store_point { /cairo_point_y exch def /cairo_point_x exch def } def
/Tj { show currentpoint cairo_store_point } bind def
/TJ {
  {
    dup
    type /stringtype eq
    { show } { -0.001 mul 0 cairo_font_matrix dtransform rmoveto } ifelse
  } forall
  currentpoint cairo_store_point
} bind def
/cairo_selectfont { cairo_font_matrix aload pop pop pop 0 0 6 array astore
    cairo_font exch selectfont cairo_point_x cairo_point_y moveto } bind def
/Tf { pop /cairo_font exch def /cairo_font_matrix where
      { pop cairo_selectfont } if } bind def
/Td { matrix translate cairo_font_matrix matrix concatmatrix dup
      /cairo_font_matrix exch def dup 4 get exch 5 get cairo_store_point
      /cairo_font where { pop cairo_selectfont } if } bind def
/Tm { 2 copy 8 2 roll 6 array astore /cairo_font_matrix exch def
      cairo_store_point /cairo_font where { pop cairo_selectfont } if } bind def
/g { setgray } bind def
/rg { setrgbcolor } bind def
/d1 { setcachedevice } bind def
/cairo_set_page_size {
  % Change paper size, but only if different from previous paper size otherwise
  % duplex fails. PLRM specifies a tolerance of 5 pts when matching paper size
  % so we use the same when checking if the size changes.
  /setpagedevice where {
    pop currentpagedevice
    /PageSize known {
      2 copy
      currentpagedevice /PageSize get aload pop
      exch 4 1 roll
      sub abs 5 gt
      3 1 roll
      sub abs 5 gt
      or
    } {
      true
    } ifelse
    {
      2 array astore
      2 dict begin
        /PageSize exch def
        /ImagingBBox null def
      currentdict end
      setpagedevice
    } {
      pop pop
    } ifelse
  } {
    pop
  } ifelse
} def
%%EndProlog
%%BeginSetup
%%EndSetup
%%Page: 1 1
%%BeginPageSetup
%%PageMedia: 50x32mm
%%PageBoundingBox: 6 4 137 88
143 91 cairo_set_page_size
%%EndPageSetup
q 6 4 131 84 rectclip q
0.45098 0.45098 0.870588 rg
46.059 86.312 m 46.059 87.066 44.926 87.066 44.926 86.312 c 44.926 85.555
 46.059 85.555 46.059 86.312 c f*
51.457 79.113 m 51.457 79.867 50.324 79.867 50.324 79.113 c 50.324 78.355
 51.457 78.355 51.457 79.113 c f*
55.059 73.711 m 55.059 74.469 53.926 74.469 53.926 73.711 c 53.926 72.957
 55.059 72.957 55.059 73.711 c f*
60.457 59.312 m 60.457 60.066 59.324 60.066 59.324 59.312 c 59.324 58.555
 60.457 58.555 60.457 59.312 c f*
67.66 48.512 m 67.66 49.266 66.523 49.266 66.523 48.512 c 66.523 47.754
 67.66 47.754 67.66 48.512 c f*
8.219 32.312 m 8.219 33.445 6.52 33.445 6.52 32.312 c 6.52 31.18 8.219 
31.18 8.219 32.312 c f*
12.465 32.312 m 12.465 33.445 10.766 33.445 10.766 32.312 c 10.766 31.18
 12.465 31.18 12.465 32.312 c f*
23.227 26.91 m 23.227 28.422 20.957 28.422 20.957 26.91 c 20.957 25.398
 23.227 25.398 23.227 26.91 c f*
23.227 5.312 m 23.227 6.824 20.957 6.824 20.957 5.312 c 20.957 3.801 23.227
 3.801 23.227 5.312 c f*
30.426 26.91 m 30.426 28.422 28.156 28.422 28.156 26.91 c 28.156 25.398
 30.426 25.398 30.426 26.91 c f*
30.426 5.312 m 30.426 6.824 28.156 6.824 28.156 5.312 c 28.156 3.801 30.426
 3.801 30.426 5.312 c f*
37.625 26.91 m 37.625 28.422 35.359 28.422 35.359 26.91 c 35.359 25.398
 37.625 25.398 37.625 26.91 c f*
37.625 5.312 m 37.625 6.824 35.359 6.824 35.359 5.312 c 35.359 3.801 37.625
 3.801 37.625 5.312 c f*
44.824 26.91 m 44.824 28.422 42.559 28.422 42.559 26.91 c 42.559 25.398
 44.824 25.398 44.824 26.91 c f*
44.824 5.312 m 44.824 6.824 42.559 6.824 42.559 5.312 c 42.559 3.801 44.824
 3.801 44.824 5.312 c f*
109.625 84.512 m 109.625 86.023 107.359 86.023 107.359 84.512 c 107.359
 83 109.625 83 109.625 84.512 c f*
109.625 62.91 m 109.625 64.422 107.359 64.422 107.359 62.91 c 107.359 61.398
 109.625 61.398 109.625 62.91 c f*
116.824 84.512 m 116.824 86.023 114.559 86.023 114.559 84.512 c 114.559
 83 116.824 83 116.824 84.512 c f*
116.824 62.91 m 116.824 64.422 114.559 64.422 114.559 62.91 c 114.559 61.398
 116.824 61.398 116.824 62.91 c f*
124.027 84.512 m 124.027 86.023 121.758 86.023 121.758 84.512 c 121.758
 83 124.027 83 124.027 84.512 c f*
124.027 62.91 m 124.027 64.422 121.758 64.422 121.758 62.91 c 121.758 61.398
 124.027 61.398 124.027 62.91 c f*
131.227 84.512 m 131.227 86.023 128.957 86.023 128.957 84.512 c 128.957
 83 131.227 83 131.227 84.512 c f*
131.227 62.91 m 131.227 64.422 128.957 64.422 128.957 62.91 c 128.957 61.398
 131.227 61.398 131.227 62.91 c f*
57.711 32.312 m 57.711 34.203 54.871 34.203 54.871 32.312 c 54.871 30.418
 57.711 30.418 57.711 32.312 c f*
64.91 32.312 m 64.91 34.203 62.074 34.203 62.074 32.312 c 62.074 30.418
 64.91 30.418 64.91 32.312 c f*
68.512 21.512 m 68.512 23.402 65.672 23.402 65.672 21.512 c 65.672 19.621
 68.512 19.621 68.512 21.512 c f*
68.512 14.312 m 68.512 16.203 65.672 16.203 65.672 14.312 c 65.672 12.418
 68.512 12.418 68.512 14.312 c f*
70.309 86.312 m 70.309 88.203 67.473 88.203 67.473 86.312 c 67.473 84.418
 70.309 84.418 70.309 86.312 c f*
70.309 79.113 m 70.309 81.004 67.473 81.004 67.473 79.113 c 67.473 77.219
 70.309 77.219 70.309 79.113 c f*
72.109 32.312 m 72.109 34.203 69.273 34.203 69.273 32.312 c 69.273 30.418
 72.109 30.418 72.109 32.312 c f*
79.309 32.312 m 79.309 34.203 76.473 34.203 76.473 32.312 c 76.473 30.418
 79.309 30.418 79.309 32.312 c f*
86.512 46.711 m 86.512 48.602 83.672 48.602 83.672 46.711 c 83.672 44.82
 86.512 44.82 86.512 46.711 c f*
86.512 32.312 m 86.512 34.203 83.672 34.203 83.672 32.312 c 83.672 30.418
 86.512 30.418 86.512 32.312 c f*
93.711 46.711 m 93.711 48.602 90.871 48.602 90.871 46.711 c 90.871 44.82
 93.711 44.82 93.711 46.711 c f*
93.711 32.312 m 93.711 34.203 90.871 34.203 90.871 32.312 c 90.871 30.418
 93.711 30.418 93.711 32.312 c f*
97.309 21.512 m 97.309 23.402 94.473 23.402 94.473 21.512 c 94.473 19.621
 97.309 19.621 97.309 21.512 c f*
97.309 14.312 m 97.309 16.203 94.473 16.203 94.473 14.312 c 94.473 12.418
 97.309 12.418 97.309 14.312 c f*
99.109 86.312 m 99.109 88.203 96.273 88.203 96.273 86.312 c 96.273 84.418
 99.109 84.418 99.109 86.312 c f*
99.109 79.113 m 99.109 81.004 96.273 81.004 96.273 79.113 c 96.273 77.219
 99.109 77.219 99.109 79.113 c f*
100.91 46.711 m 100.91 48.602 98.074 48.602 98.074 46.711 c 98.074 44.82
 100.91 44.82 100.91 46.711 c f*
100.91 32.312 m 100.91 34.203 98.074 34.203 98.074 32.312 c 98.074 30.418
 100.91 30.418 100.91 32.312 c f*
108.109 46.711 m 108.109 48.602 105.273 48.602 105.273 46.711 c 105.273
 44.82 108.109 44.82 108.109 46.711 c f*
108.109 32.312 m 108.109 34.203 105.273 34.203 105.273 32.312 c 105.273
 30.418 108.109 30.418 108.109 32.312 c f*
115.309 46.711 m 115.309 48.602 112.473 48.602 112.473 46.711 c 112.473
 44.82 115.309 44.82 115.309 46.711 c f*
115.309 32.312 m 115.309 34.203 112.473 34.203 112.473 32.312 c 112.473
 30.418 115.309 30.418 115.309 32.312 c f*
122.512 46.711 m 122.512 48.602 119.672 48.602 119.672 46.711 c 119.672
 44.82 122.512 44.82 122.512 46.711 c f*
122.512 32.312 m 122.512 34.203 119.672 34.203 119.672 32.312 c 119.672
 30.418 122.512 30.418 122.512 32.312 c f*
129.711 46.711 m 129.711 48.602 126.871 48.602 126.871 46.711 c 126.871
 44.82 129.711 44.82 129.711 46.711 c f*
129.711 32.312 m 129.711 34.203 126.871 34.203 126.871 32.312 c 126.871
 30.418 129.711 30.418 129.711 32.312 c f*
136.91 46.711 m 136.91 48.602 134.074 48.602 134.074 46.711 c 134.074 44.82
 136.91 44.82 136.91 46.711 c f*
136.91 32.312 m 136.91 34.203 134.074 34.203 134.074 32.312 c 134.074 30.418
 136.91 30.418 136.91 32.312 c f*
13.453 62.91 m 13.453 64.832 10.574 64.832 10.574 62.91 c 10.574 60.992
 13.453 60.992 13.453 62.91 c f*
70.148 62.91 m 70.148 64.832 67.266 64.832 67.266 62.91 c 67.266 60.992
 70.148 60.992 70.148 62.91 c f*
108.133 21.512 m 108.133 23.43 105.25 23.43 105.25 21.512 c 105.25 19.59
 108.133 19.59 108.133 21.512 c f*
108.133 7.113 m 108.133 9.031 105.25 9.031 105.25 7.113 c 105.25 5.191 
108.133 5.191 108.133 7.113 c f*
129.73 21.512 m 129.73 23.43 126.852 23.43 126.852 21.512 c 126.852 19.59
 129.73 19.59 129.73 21.512 c f*
129.73 7.113 m 129.73 9.031 126.852 9.031 126.852 7.113 c 126.852 5.191
 129.73 5.191 129.73 7.113 c f*
Q Q
showpage
%%Trailer
%%EOF
