PCBNEW-LibModule-V1  Thu 03 Sep 2015 10:57:10 PM CEST
# encoding utf-8
Units mm
$INDEX
ICSP_90DEG
ICSP_SIDE
$EndINDEX
$MODULE ICSP_90DEG
Po 0 0 0 15 55E8B425 00000000 ~~
Li ICSP_90DEG
Sc 0
AR 
Op 0 0 0
T0 -5.08 5.1308 1 1 0 0.15 N V 21 N "ICSP_90DEG"
T1 4.1148 5.1308 1 1 0 0.15 N V 21 N "VAL**"
DS 5.08 -9.5076 5.08 -8.8726 0.15 21
DS -5.08 -9.5076 -5.08 -8.8726 0.15 21
DS -2.54 -9.5076 -2.54 -8.8726 0.15 21
DS 0 -9.5076 0 -8.8726 0.15 21
DS 2.54 -9.5076 2.54 -8.8726 0.15 21
DS 10.4 -8.8 10.4 0 0.15 21
DS -10.4 -8.8 -10.4 0 0.15 21
DS -1.524 -0.008 -1.524 -4.58 0.15 21
DS -1.524 -4.58 1.524 -4.58 0.15 21
DS 1.524 -4.58 1.524 -0.008 0.15 21
DS -10.3 0 10.3 0 0.15 21
DS 10.3 -8.81 -10.3 -8.81 0.15 21
$PAD
Sh "1" C 1.524 1.524 0 0 0
Dr 1.016 0 0
At STD N 00E0FFFF
Ne 0 ""
Po 5.08 -13.47
$EndPAD
$PAD
Sh "2" C 1.524 1.524 0 0 0
Dr 1.016 0 0
At STD N 00E0FFFF
Ne 0 ""
Po 5.08 -10.93
$EndPAD
$PAD
Sh "3" C 1.524 1.524 0 0 0
Dr 1.016 0 0
At STD N 00E0FFFF
Ne 0 ""
Po 2.54 -13.47
$EndPAD
$PAD
Sh "4" C 1.524 1.524 0 0 0
Dr 1.016 0 0
At STD N 00E0FFFF
Ne 0 ""
Po 2.54 -10.93
$EndPAD
$PAD
Sh "5" C 1.524 1.524 0 0 0
Dr 1.016 0 0
At STD N 00E0FFFF
Ne 0 ""
Po 0 -13.47
$EndPAD
$PAD
Sh "6" C 1.524 1.524 0 0 0
Dr 1.016 0 0
At STD N 00E0FFFF
Ne 0 ""
Po 0 -10.93
$EndPAD
$PAD
Sh "7" C 1.524 1.524 0 0 0
Dr 1.016 0 0
At STD N 00E0FFFF
Ne 0 ""
Po -2.54 -13.47
$EndPAD
$PAD
Sh "8" C 1.524 1.524 0 0 0
Dr 1.016 0 0
At STD N 00E0FFFF
Ne 0 ""
Po -2.54 -10.93
$EndPAD
$PAD
Sh "9" C 1.524 1.524 0 0 0
Dr 1.016 0 0
At STD N 00E0FFFF
Ne 0 ""
Po -5.08 -13.47
$EndPAD
$PAD
Sh "10" C 1.524 1.524 0 0 0
Dr 1.016 0 0
At STD N 00E0FFFF
Ne 0 ""
Po -5.08 -10.93
$EndPAD
$EndMODULE ICSP_90DEG
$MODULE ICSP_SIDE
Po 0 0 0 15 55E88F9E 00000000 ~~
Li ICSP_SIDE
Sc 0
AR 
Op 0 0 0
T0 0 6 1 1 0 0.15 N V 21 N "ICSP_SIDE"
T1 0 3 1 1 0 0.15 N V 21 N "VAL**"
DS -5 10 -5 15 0.15 21
DS -3 10 -3 15 0.15 21
DS -1 10 -1 15 0.15 21
DS 5 10 5 15 0.15 21
DS 3 10 3 15 0.15 21
DS 1 10 1 15 0.15 21
DS -9 9 -9 17 0.15 21
DS -9 17 -8 17 0.15 21
DS -8 17 -7 18 0.15 21
DS -7 18 -6 18 0.15 21
DS 9 9 9 17 0.15 21
DS 9 17 8 17 0.15 21
DS 8 17 7 18 0.15 21
DS 7 18 -6 18 0.15 21
DS 0 0 10 0 0.15 21
DS 10 0 10 9 0.15 21
DS 10 9 -10 9 0.15 21
DS -10 9 -10 0 0.15 21
DS -10 0 0 0 0.15 21
$PAD
Sh "1" R 1.5 4 0 0 0
Dr 0 0 0
At SMD N 00888000
Ne 0 ""
Po 5.08 -2
$EndPAD
$PAD
Sh "3" R 1.5 4 0 0 0
Dr 0 0 0
At SMD N 00888000
Ne 0 ""
Po 2.54 -2
$EndPAD
$PAD
Sh "5" R 1.5 4 0 0 0
Dr 0 0 0
At SMD N 00888000
Ne 0 ""
Po 0 -2
$EndPAD
$PAD
Sh "7" R 1.5 4 0 0 0
Dr 0 0 0
At SMD N 00888000
Ne 0 ""
Po -2.54 -2
$EndPAD
$PAD
Sh "9" R 1.5 4 0 0 0
Dr 0 0 0
At SMD N 00888000
Ne 0 ""
Po -5.08 -2
$EndPAD
$PAD
Sh "2" R 1.5 4 0 0 0
Dr 0 0 0
At SMD N 00440001
Ne 0 ""
Po 5 -2
$EndPAD
$PAD
Sh "4" R 1.5 4 0 0 0
Dr 0 0 0
At SMD N 00440001
Ne 0 ""
Po 2.54 -2
$EndPAD
$PAD
Sh "6" R 1.5 4 0 0 0
Dr 0 0 0
At SMD N 00440001
Ne 0 ""
Po 0 -2
$EndPAD
$PAD
Sh "8" R 1.5 4 0 0 0
Dr 0 0 0
At SMD N 00440001
Ne 0 ""
Po -2.54 -2
$EndPAD
$PAD
Sh "10" R 1.5 4 0 0 0
Dr 0 0 0
At SMD N 00440001
Ne 0 ""
Po -5.08 -2
$EndPAD
$EndMODULE ICSP_SIDE
$EndLIBRARY
