; these are originally here, but we use them too:
G21
G90
; treat current physical Z as Z=0 from here on
G92 Z0
; make some space 
G01 Z3.0000
; auto home X/Y (not Z!)
G28 X Y
G92 X-10 Y10 Z3
; rest or job:
G94
F3.00
G00 Z3.0000
M03
G04 P1
G00 X63.7031Y53.9883
G01 Z0.0000
G01 X63.7028Y150.9979
G01 X63.7043Y151.0268
G01 X63.7069Y151.0460
G01 X63.7130Y151.0743
G01 X63.7185Y151.0926
G01 X63.7253Y151.1108
G01 X63.7377Y151.1370
G01 X63.7526Y151.1618
G01 X63.7698Y151.1851
G01 X63.7892Y151.2065
G01 X63.8107Y151.2260
G01 X63.8339Y151.2432
G01 X63.8505Y151.2534
G01 X63.8673Y151.2624
G01 X63.8939Y151.2739
G01 X63.9122Y151.2802
G01 X63.9309Y151.2852
G01 X63.9497Y151.2889
G01 X63.9689Y151.2915
G01 X63.9978Y151.2929
G01 X140.9979Y151.2929
G01 X141.0269Y151.2915
G01 X141.0461Y151.2889
G01 X141.0743Y151.2828
G01 X141.0927Y151.2772
G01 X141.1108Y151.2705
G01 X141.1370Y151.2581
G01 X141.1618Y151.2432
G01 X141.1851Y151.2260
G01 X141.2065Y151.2065
G01 X141.2260Y151.1851
G01 X141.2432Y151.1618
G01 X141.2534Y151.1453
G01 X141.2624Y151.1284
G01 X141.2739Y151.1019
G01 X141.2802Y151.0836
G01 X141.2852Y151.0648
G01 X141.2889Y151.0460
G01 X141.2915Y151.0268
G01 X141.2929Y150.9979
G01 X141.2929Y53.9979
G01 X141.2915Y53.9689
G01 X141.2873Y53.9403
G01 X141.2802Y53.9122
G01 X141.2739Y53.8939
G01 X141.2666Y53.8762
G01 X141.2534Y53.8505
G01 X141.2432Y53.8340
G01 X141.2260Y53.8107
G01 X141.2065Y53.7893
G01 X141.1923Y53.7761
G01 X141.1775Y53.7639
G01 X141.1537Y53.7475
G01 X141.1370Y53.7377
G01 X141.1196Y53.7292
G01 X141.1019Y53.7219
G01 X141.0836Y53.7156
G01 X141.0555Y53.7085
G01 X141.0269Y53.7043
G01 X140.9979Y53.7029
G01 X63.9978Y53.7029
G01 X63.9689Y53.7043
G01 X63.9403Y53.7085
G01 X63.9122Y53.7156
G01 X63.8849Y53.7253
G01 X63.8588Y53.7377
G01 X63.8339Y53.7526
G01 X63.8107Y53.7698
G01 X63.7892Y53.7893
G01 X63.7698Y53.8107
G01 X63.7526Y53.8340
G01 X63.7377Y53.8588
G01 X63.7253Y53.8850
G01 X63.7155Y53.9122
G01 X63.7085Y53.9403
G01 X63.7043Y53.9689
G01 X63.7031Y53.9883
G00 Z3.0000
G00 X63.7330Y53.9898
G01 Z0.0000
G01 X63.7328Y150.9979
G01 X63.7341Y151.0239
G01 X63.7365Y151.0416
G01 X63.7421Y151.0670
G01 X63.7468Y151.0825
G01 X63.7530Y151.0993
G01 X63.7641Y151.1228
G01 X63.7775Y151.1451
G01 X63.7930Y151.1660
G01 X63.8105Y151.1853
G01 X63.8297Y151.2028
G01 X63.8506Y151.2183
G01 X63.8659Y151.2276
G01 X63.8802Y151.2353
G01 X63.9040Y151.2457
G01 X63.9209Y151.2515
G01 X63.9382Y151.2561
G01 X63.9541Y151.2592
G01 X63.9719Y151.2616
G01 X63.9978Y151.2629
G01 X140.9979Y151.2629
G01 X141.0239Y151.2616
G01 X141.0417Y151.2592
G01 X141.0575Y151.2561
G01 X141.0826Y151.2490
G01 X141.0994Y151.2427
G01 X141.1229Y151.2316
G01 X141.1452Y151.2183
G01 X141.1661Y151.2028
G01 X141.1853Y151.1853
G01 X141.2028Y151.1660
G01 X141.2183Y151.1451
G01 X141.2277Y151.1299
G01 X141.2353Y151.1156
G01 X141.2457Y151.0918
G01 X141.2515Y151.0748
G01 X141.2561Y151.0575
G01 X141.2592Y151.0416
G01 X141.2617Y151.0239
G01 X141.2629Y150.9979
G01 X141.2629Y53.9979
G01 X141.2617Y53.9719
G01 X141.2578Y53.9462
G01 X141.2515Y53.9209
G01 X141.2457Y53.9040
G01 X141.2395Y53.8890
G01 X141.2277Y53.8659
G01 X141.2183Y53.8506
G01 X141.2028Y53.8297
G01 X141.1853Y53.8105
G01 X141.1722Y53.7983
G01 X141.1597Y53.7880
G01 X141.1383Y53.7732
G01 X141.1229Y53.7642
G01 X141.1068Y53.7563
G01 X141.0918Y53.7501
G01 X141.0749Y53.7443
G01 X141.0496Y53.7380
G01 X141.0239Y53.7341
G01 X140.9979Y53.7329
G01 X63.9978Y53.7329
G01 X63.9719Y53.7341
G01 X63.9461Y53.7380
G01 X63.9209Y53.7443
G01 X63.8964Y53.7530
G01 X63.8729Y53.7642
G01 X63.8506Y53.7775
G01 X63.8297Y53.7930
G01 X63.8105Y53.8105
G01 X63.7930Y53.8297
G01 X63.7775Y53.8506
G01 X63.7641Y53.8729
G01 X63.7530Y53.8964
G01 X63.7443Y53.9209
G01 X63.7379Y53.9462
G01 X63.7341Y53.9719
G01 X63.7330Y53.9898
G00 Z3.0000
G00 X63.7630Y53.9912
G01 Z0.0000
G01 X63.7628Y150.9979
G01 X63.7640Y151.0210
G01 X63.7662Y151.0372
G01 X63.7712Y151.0598
G01 X63.7750Y151.0724
G01 X63.7807Y151.0879
G01 X63.7906Y151.1087
G01 X63.8024Y151.1285
G01 X63.8162Y151.1470
G01 X63.8317Y151.1641
G01 X63.8488Y151.1796
G01 X63.8673Y151.1933
G01 X63.8930Y151.2082
G01 X63.9141Y151.2174
G01 X63.9296Y151.2228
G01 X63.9455Y151.2270
G01 X63.9748Y151.2318
G01 X63.9978Y151.2329
G01 X140.9979Y151.2329
G01 X141.0210Y151.2318
G01 X141.0373Y151.2295
G01 X141.0503Y151.2270
G01 X141.0724Y151.2207
G01 X141.0879Y151.2150
G01 X141.1087Y151.2052
G01 X141.1285Y151.1933
G01 X141.1470Y151.1796
G01 X141.1641Y151.1641
G01 X141.1796Y151.1470
G01 X141.1933Y151.1285
G01 X141.2082Y151.1028
G01 X141.2174Y151.0817
G01 X141.2228Y151.0661
G01 X141.2270Y151.0502
G01 X141.2318Y151.0210
G01 X141.2329Y150.9979
G01 X141.2329Y53.9979
G01 X141.2318Y53.9748
G01 X141.2284Y53.9520
G01 X141.2228Y53.9296
G01 X141.2174Y53.9141
G01 X141.2124Y53.9019
G01 X141.2019Y53.8813
G01 X141.1933Y53.8673
G01 X141.1796Y53.8488
G01 X141.1641Y53.8317
G01 X141.1418Y53.8121
G01 X141.1229Y53.7989
G01 X141.1087Y53.7906
G01 X141.0939Y53.7834
G01 X141.0662Y53.7730
G01 X141.0438Y53.7674
G01 X141.0210Y53.7640
G01 X140.9979Y53.7629
G01 X63.9978Y53.7629
G01 X63.9748Y53.7640
G01 X63.9520Y53.7674
G01 X63.9296Y53.7730
G01 X63.9079Y53.7807
G01 X63.8871Y53.7906
G01 X63.8673Y53.8025
G01 X63.8488Y53.8162
G01 X63.8317Y53.8317
G01 X63.8162Y53.8488
G01 X63.8024Y53.8673
G01 X63.7906Y53.8871
G01 X63.7807Y53.9079
G01 X63.7730Y53.9296
G01 X63.7674Y53.9520
G01 X63.7640Y53.9748
G01 X63.7630Y53.9912
G00 Z3.0000
G00 X63.7930Y53.9927
G01 Z0.0000
G01 X63.7928Y150.9979
G01 X63.7938Y151.0180
G01 X63.7959Y151.0328
G01 X63.8003Y151.0525
G01 X63.8033Y151.0623
G01 X63.8084Y151.0764
G01 X63.8170Y151.0946
G01 X63.8274Y151.1118
G01 X63.8394Y151.1280
G01 X63.8529Y151.1429
G01 X63.8678Y151.1564
G01 X63.8839Y151.1684
G01 X63.9058Y151.1810
G01 X63.9242Y151.1892
G01 X63.9383Y151.1941
G01 X63.9528Y151.1979
G01 X63.9777Y151.2019
G01 X63.9978Y151.2029
G01 X140.9979Y151.2029
G01 X141.0180Y151.2019
G01 X141.0329Y151.1999
G01 X141.0430Y151.1979
G01 X141.0623Y151.1925
G01 X141.0764Y151.1873
G01 X141.0946Y151.1787
G01 X141.1118Y151.1684
G01 X141.1280Y151.1564
G01 X141.1429Y151.1429
G01 X141.1564Y151.1280
G01 X141.1684Y151.1118
G01 X141.1811Y151.0900
G01 X141.1892Y151.0716
G01 X141.1941Y151.0574
G01 X141.1979Y151.0429
G01 X141.2020Y151.0180
G01 X141.2029Y150.9979
G01 X141.2029Y53.9979
G01 X141.2020Y53.9778
G01 X141.1990Y53.9579
G01 X141.1941Y53.9384
G01 X141.1892Y53.9242
G01 X141.1852Y53.9147
G01 X141.1762Y53.8967
G01 X141.1684Y53.8840
G01 X141.1564Y53.8678
G01 X141.1429Y53.8529
G01 X141.1239Y53.8362
G01 X141.1075Y53.8247
G01 X141.0946Y53.8171
G01 X141.0811Y53.8106
G01 X141.0574Y53.8017
G01 X141.0379Y53.7968
G01 X141.0180Y53.7938
G01 X140.9979Y53.7929
G01 X63.9978Y53.7929
G01 X63.9777Y53.7938
G01 X63.9578Y53.7968
G01 X63.9383Y53.8017
G01 X63.9194Y53.8085
G01 X63.9012Y53.8171
G01 X63.8839Y53.8274
G01 X63.8678Y53.8394
G01 X63.8529Y53.8529
G01 X63.8394Y53.8678
G01 X63.8274Y53.8840
G01 X63.8170Y53.9012
G01 X63.8084Y53.9194
G01 X63.8017Y53.9384
G01 X63.7968Y53.9579
G01 X63.7938Y53.9778
G01 X63.7930Y53.9927
G00 Z3.0000
G00 X63.8229Y53.9942
G01 Z0.0000
G01 X63.8237Y53.9807
G01 X63.8262Y53.9637
G01 X63.8304Y53.9471
G01 X63.8362Y53.9309
G01 X63.8435Y53.9154
G01 X63.8523Y53.9006
G01 X63.8626Y53.8868
G01 X63.8741Y53.8741
G01 X63.8868Y53.8626
G01 X63.9006Y53.8524
G01 X63.9153Y53.8435
G01 X63.9309Y53.8362
G01 X63.9470Y53.8304
G01 X63.9637Y53.8262
G01 X63.9807Y53.8237
G01 X63.9978Y53.8229
G01 X140.9979Y53.8229
G01 X141.0151Y53.8237
G01 X141.0321Y53.8262
G01 X141.0487Y53.8304
G01 X141.0683Y53.8377
G01 X141.0804Y53.8435
G01 X141.0921Y53.8504
G01 X141.1061Y53.8603
G01 X141.1217Y53.8741
G01 X141.1332Y53.8868
G01 X141.1434Y53.9006
G01 X141.1505Y53.9122
G01 X141.1609Y53.9343
G01 X141.1654Y53.9471
G01 X141.1696Y53.9637
G01 X141.1721Y53.9807
G01 X141.1729Y53.9979
G01 X141.1729Y150.9979
G01 X141.1721Y151.0151
G01 X141.1688Y151.0357
G01 X141.1654Y151.0487
G01 X141.1609Y151.0615
G01 X141.1539Y151.0771
G01 X141.1434Y151.0951
G01 X141.1332Y151.1089
G01 X141.1217Y151.1217
G01 X141.1090Y151.1332
G01 X141.0952Y151.1434
G01 X141.0804Y151.1523
G01 X141.0649Y151.1596
G01 X141.0522Y151.1642
G01 X141.0285Y151.1702
G01 X141.0151Y151.1721
G01 X140.9979Y151.1729
G01 X63.9978Y151.1729
G01 X63.9807Y151.1721
G01 X63.9601Y151.1688
G01 X63.9470Y151.1654
G01 X63.9343Y151.1609
G01 X63.9186Y151.1539
G01 X63.9006Y151.1434
G01 X63.8868Y151.1332
G01 X63.8741Y151.1217
G01 X63.8626Y151.1089
G01 X63.8523Y151.0951
G01 X63.8435Y151.0804
G01 X63.8362Y151.0649
G01 X63.8315Y151.0522
G01 X63.8256Y151.0284
G01 X63.8237Y151.0151
G01 X63.8228Y150.9979
G01 X63.8229Y53.9942
G00 Z3.0000
G00 X140.7029Y54.2929
G01 Z0.0000
G01 X140.7029Y150.7029
G01 X64.2928Y150.7029
G01 X64.2928Y54.2929
G01 X140.7029Y54.2929
G00 Z3.0000
G00 X140.7329Y54.2629
G01 Z0.0000
G01 X140.7329Y150.7329
G01 X64.2628Y150.7329
G01 X64.2628Y54.2629
G01 X140.7329Y54.2629
G00 Z3.0000
G00 X140.7629Y54.2329
G01 Z0.0000
G01 X140.7629Y150.7629
G01 X64.2328Y150.7629
G01 X64.2328Y54.2329
G01 X140.7629Y54.2329
G00 Z3.0000
G00 X140.7929Y54.2029
G01 Z0.0000
G01 X140.7929Y150.7929
G01 X64.2028Y150.7929
G01 X64.2028Y54.2029
G01 X140.7929Y54.2029
G00 Z3.0000
G00 X140.8229Y54.1729
G01 Z0.0000
G01 X140.8229Y150.8229
G01 X64.1728Y150.8229
G01 X64.1728Y54.1729
G01 X140.8229Y54.1729
G00 Z3.0000
G00 Z3.0000
G00 X0Y0
M05

