EESchema Schematic File Version 2
LIBS:power
LIBS:device
LIBS:transistors
LIBS:conn
LIBS:linear
LIBS:regul
LIBS:74xx
LIBS:cmos4000
LIBS:adc-dac
LIBS:memory
LIBS:xilinx
LIBS:special
LIBS:microcontrollers
LIBS:dsp
LIBS:microchip
LIBS:analog_switches
LIBS:motorola
LIBS:texas
LIBS:intel
LIBS:audio
LIBS:interface
LIBS:digital-audio
LIBS:philips
LIBS:display
LIBS:cypress
LIBS:siliconi
LIBS:opto
LIBS:atmel
LIBS:contrib
LIBS:valves
LIBS:watchp10
LIBS:trial1-cache
EELAYER 27 0
EELAYER END
$Descr A4 11693 8268
encoding utf-8
Sheet 1 1
Title ""
Date "31 mar 2015"
Rev ""
Comp ""
Comment1 ""
Comment2 ""
Comment3 ""
Comment4 ""
$EndDescr
$Comp
L ATTINY13-P IC1
U 1 1 5509AEFF
P 4900 3750
F 0 "IC1" H 4100 4150 40  0000 C CNN
F 1 "ATTINY13-P" H 5550 3350 40  0000 C CNN
F 2 "DIP8" H 5550 3750 35  0000 C CIN
F 3 "~" H 4100 4100 60  0000 C CNN
	1    4900 3750
	1    0    0    -1  
$EndComp
$Comp
L LED D1
U 1 1 5509BFB7
P 3100 3550
F 0 "D1" H 3100 3650 50  0000 C CNN
F 1 "LED" H 3100 3450 50  0000 C CNN
F 2 "~" H 3100 3550 60  0000 C CNN
F 3 "~" H 3100 3550 60  0000 C CNN
	1    3100 3550
	-1   0    0    1   
$EndComp
$Comp
L LED D2
U 1 1 5509BFC6
P 3100 3300
F 0 "D2" H 3100 3400 50  0000 C CNN
F 1 "LED" H 3100 3200 50  0000 C CNN
F 2 "~" H 3100 3300 60  0000 C CNN
F 3 "~" H 3100 3300 60  0000 C CNN
	1    3100 3300
	-1   0    0    1   
$EndComp
$Comp
L R R1
U 1 1 5509C080
P 2500 3450
F 0 "R1" V 2580 3450 40  0000 C CNN
F 1 "R" V 2507 3451 40  0000 C CNN
F 2 "~" V 2430 3450 30  0000 C CNN
F 3 "~" H 2500 3450 30  0000 C CNN
	1    2500 3450
	0    1    1    0   
$EndComp
$Comp
L SW_PUSH SW1
U 1 1 5509C2E7
P 4200 4300
F 0 "SW1" H 4350 4410 50  0000 C CNN
F 1 "SW_PUSH" H 4200 4220 50  0000 C CNN
F 2 "~" H 4200 4300 60  0000 C CNN
F 3 "~" H 4200 4300 60  0000 C CNN
	1    4200 4300
	1    0    0    -1  
$EndComp
$Comp
L GND #PWR01
U 1 1 5517D2BA
P 6000 4150
F 0 "#PWR01" H 6000 4150 30  0001 C CNN
F 1 "GND" H 6000 4080 30  0001 C CNN
F 2 "" H 6000 4150 60  0000 C CNN
F 3 "" H 6000 4150 60  0000 C CNN
	1    6000 4150
	1    0    0    -1  
$EndComp
$Comp
L GND #PWR02
U 1 1 5517D2FB
P 4550 4350
F 0 "#PWR02" H 4550 4350 30  0001 C CNN
F 1 "GND" H 4550 4280 30  0001 C CNN
F 2 "" H 4550 4350 60  0000 C CNN
F 3 "" H 4550 4350 60  0000 C CNN
	1    4550 4350
	1    0    0    -1  
$EndComp
$Comp
L DS1302 U1
U 1 1 5517D412
P 4500 2000
F 0 "U1" H 4770 2550 60  0000 C CNN
F 1 "DS1302" H 4860 1450 60  0000 C CNN
F 2 "" H 4500 2000 60  0000 C CNN
F 3 "" H 4500 2000 60  0000 C CNN
	1    4500 2000
	1    0    0    -1  
$EndComp
$Comp
L CRYSTAL X1
U 1 1 5517D4BD
P 3050 2400
F 0 "X1" H 3050 2550 60  0000 C CNN
F 1 "CRYSTAL" H 3050 2250 60  0000 C CNN
F 2 "~" H 3050 2400 60  0000 C CNN
F 3 "~" H 3050 2400 60  0000 C CNN
	1    3050 2400
	1    0    0    -1  
$EndComp
$Comp
L GND #PWR03
U 1 1 5517D58F
P 4500 2750
F 0 "#PWR03" H 4500 2750 30  0001 C CNN
F 1 "GND" H 4500 2680 30  0001 C CNN
F 2 "" H 4500 2750 60  0000 C CNN
F 3 "" H 4500 2750 60  0000 C CNN
	1    4500 2750
	1    0    0    -1  
$EndComp
$Comp
L GND #PWR04
U 1 1 5517D737
P 5350 2450
F 0 "#PWR04" H 5350 2450 30  0001 C CNN
F 1 "GND" H 5350 2380 30  0001 C CNN
F 2 "" H 5350 2450 60  0000 C CNN
F 3 "" H 5350 2450 60  0000 C CNN
	1    5350 2450
	1    0    0    -1  
$EndComp
$Comp
L GND #PWR05
U 1 1 5517D746
P 5350 2450
F 0 "#PWR05" H 5350 2450 30  0001 C CNN
F 1 "GND" H 5350 2380 30  0001 C CNN
F 2 "" H 5350 2450 60  0000 C CNN
F 3 "" H 5350 2450 60  0000 C CNN
	1    5350 2450
	1    0    0    -1  
$EndComp
$Comp
L GND #PWR06
U 1 1 5517D881
P 2250 3650
F 0 "#PWR06" H 2250 3650 30  0001 C CNN
F 1 "GND" H 2250 3580 30  0001 C CNN
F 2 "" H 2250 3650 60  0000 C CNN
F 3 "" H 2250 3650 60  0000 C CNN
	1    2250 3650
	1    0    0    -1  
$EndComp
$Comp
L GND #PWR07
U 1 1 5517DA38
P 2550 4900
F 0 "#PWR07" H 2550 4900 30  0001 C CNN
F 1 "GND" H 2550 4830 30  0001 C CNN
F 2 "" H 2550 4900 60  0000 C CNN
F 3 "" H 2550 4900 60  0000 C CNN
	1    2550 4900
	1    0    0    -1  
$EndComp
Entry Wire Line
	1400 4600 1500 4700
Entry Wire Line
	1400 4800 1500 4900
Entry Wire Line
	1400 4900 1500 5000
Entry Wire Line
	1400 5000 1500 5100
$Comp
L GND #PWR08
U 1 1 551816E5
P 2450 1150
F 0 "#PWR08" H 2450 1150 30  0001 C CNN
F 1 "GND" H 2450 1080 30  0001 C CNN
F 2 "" H 2450 1150 60  0000 C CNN
F 3 "" H 2450 1150 60  0000 C CNN
	1    2450 1150
	1    0    0    -1  
$EndComp
Entry Wire Line
	1300 800  1400 900 
Entry Wire Line
	1300 1200 1400 1300
Entry Wire Line
	1300 1050 1400 1150
Entry Wire Line
	3100 1900 3200 2000
Entry Wire Line
	3000 1900 3100 2000
Entry Wire Line
	2900 1900 3000 2000
Wire Wire Line
	5900 4000 6000 4000
Wire Wire Line
	6000 4000 6000 4150
Wire Wire Line
	5900 3500 6350 3500
Wire Wire Line
	3800 4000 3800 4300
Wire Wire Line
	3800 4300 3900 4300
Wire Wire Line
	4550 4350 4550 4300
Wire Wire Line
	4550 4300 4500 4300
Wire Wire Line
	3650 2200 2700 2200
Wire Wire Line
	4500 950  4500 1400
Wire Wire Line
	4500 2750 4500 2600
Wire Wire Line
	5350 2300 5350 2450
Wire Wire Line
	2900 3300 2750 3300
Wire Wire Line
	2750 3300 2750 3550
Wire Wire Line
	2750 3550 2900 3550
Connection ~ 2750 3450
Wire Wire Line
	2250 3450 2250 3650
Wire Bus Line
	3550 4000 1400 4000
Wire Bus Line
	1400 4000 1400 5000
Wire Wire Line
	3900 3700 3650 3700
Wire Wire Line
	3650 3500 3900 3500
Wire Wire Line
	3650 3600 3900 3600
Wire Wire Line
	1500 4700 2000 4700
Wire Wire Line
	1500 4900 2000 4900
Wire Wire Line
	1500 5000 2000 5000
Wire Wire Line
	1500 5100 2000 5100
Wire Wire Line
	2700 2200 2700 2400
Wire Wire Line
	2700 2400 2750 2400
Wire Wire Line
	3350 2400 3650 2400
Wire Wire Line
	2250 4700 6350 4700
Wire Wire Line
	6350 4700 6350 3500
Wire Wire Line
	3300 3550 3300 3850
Wire Wire Line
	3900 3900 3400 3900
Wire Wire Line
	3400 3900 3400 3300
Wire Wire Line
	3400 3300 3300 3300
Wire Wire Line
	2200 950  4500 950 
Wire Bus Line
	1300 800  1300 1900
Wire Bus Line
	1300 1900 3100 1900
Wire Wire Line
	1950 950  1400 950 
Wire Wire Line
	1400 950  1400 900 
Wire Wire Line
	1950 1250 1400 1250
Wire Wire Line
	1400 1250 1400 1150
Wire Wire Line
	1950 1350 1400 1350
Wire Wire Line
	1400 1350 1400 1300
Wire Wire Line
	3200 2000 3200 1700
Wire Wire Line
	3200 1700 3650 1700
Wire Wire Line
	3100 2000 3100 2050
Wire Wire Line
	3100 2050 3650 2050
Wire Wire Line
	3650 2050 3650 1900
Wire Wire Line
	3000 2000 3000 2100
Wire Wire Line
	3000 2100 5350 2100
Wire Wire Line
	5350 2100 5350 1700
Entry Wire Line
	3550 3600 3650 3500
Entry Wire Line
	3550 3700 3650 3600
Entry Wire Line
	3550 3800 3650 3700
Wire Wire Line
	3300 3850 3900 3850
Wire Wire Line
	3900 3850 3900 3800
Wire Bus Line
	3550 3600 3550 4000
Text Label 3650 3500 0    60   ~ 0
MOSI
Text Label 3650 3600 0    60   ~ 0
MISO
Entry Wire Line
	3550 4000 3650 4100
Wire Wire Line
	3650 4100 3800 4100
Connection ~ 3800 4100
Wire Wire Line
	3900 4000 3800 4000
Text Label 3650 3700 0    60   ~ 0
SCK
Text Label 3650 4100 0    60   ~ 0
RST
Text Label 1500 4900 0    60   ~ 0
RST
Text Label 1500 4700 0    60   ~ 0
MOSI
Text Label 1500 5000 0    60   ~ 0
SCK
Text Label 1500 5100 0    60   ~ 0
MISO
Text Label 3250 1700 0    60   ~ 0
CLK
Text Label 3250 2050 0    60   ~ 0
CE
Text Label 3700 2100 0    60   ~ 0
DATA
Text Label 1500 1250 0    60   ~ 0
DATA
Text Label 1500 950  0    60   ~ 0
CE
Text Label 1500 1350 0    60   ~ 0
CLK
$Comp
L BATTERY BT1
U 1 1 55182120
P 5600 1050
F 0 "BT1" H 5600 1250 50  0000 C CNN
F 1 "BATTERY" H 5600 860 50  0000 C CNN
F 2 "~" H 5600 1050 60  0000 C CNN
F 3 "~" H 5600 1050 60  0000 C CNN
	1    5600 1050
	1    0    0    -1  
$EndComp
Wire Wire Line
	5300 1050 4500 1050
Connection ~ 4500 1050
$Comp
L GND #PWR09
U 1 1 551822BB
P 6050 1200
F 0 "#PWR09" H 6050 1200 30  0001 C CNN
F 1 "GND" H 6050 1130 30  0001 C CNN
F 2 "" H 6050 1200 60  0000 C CNN
F 3 "" H 6050 1200 60  0000 C CNN
	1    6050 1200
	1    0    0    -1  
$EndComp
Wire Wire Line
	6050 1200 6050 1050
Wire Wire Line
	6050 1050 5900 1050
$Comp
L WATCHP10 PROG1
U 1 1 55185D8E
P 2200 4900
F 0 "PROG1" H 2030 5230 50  0000 C CNN
F 1 "WATCHP10" H 1860 4570 50  0000 L BNN
F 2 "AVR-ISP-10" V 1450 4950 50  0001 C CNN
F 3 "~" H 2200 4900 60  0000 C CNN
	1    2200 4900
	1    0    0    -1  
$EndComp
Wire Wire Line
	2550 4900 2550 4800
Wire Wire Line
	2550 4800 2250 4800
$Comp
L WATCHP10 BAND1
U 1 1 55185E04
P 2150 1150
F 0 "BAND1" H 1980 1480 50  0000 C CNN
F 1 "WATCHP10" H 1810 820 50  0001 L BNN
F 2 "WatchP10" V 1400 1200 50  0001 C CNN
F 3 "~" H 2150 1150 60  0000 C CNN
	1    2150 1150
	1    0    0    -1  
$EndComp
Wire Wire Line
	2450 1150 2450 1050
Wire Wire Line
	2450 1050 2200 1050
Text Label 3150 950  0    60   ~ 0
VBAT
Text Label 6050 3500 0    60   ~ 0
VIN
Text Label 3450 2200 0    60   ~ 0
X1
Text Label 3450 2400 0    60   ~ 0
X2
Text Label 3400 3450 0    60   ~ 0
L1
Text Label 3300 3700 0    60   ~ 0
L0
$EndSCHEMATC
