(kicad_pcb (version 3) (host pcbnew "(2013-may-18)-stable")

  (general
    (links 26)
    (no_connects 0)
    (area 80.01 17.78 123.190001 68.580001)
    (thickness 1.6)
    (drawings 27)
    (tracks 126)
    (zones 0)
    (modules 10)
    (nets 16)
  )

  (page A3)
  (layers
    (15 F.Cu signal)
    (0 B.Cu signal)
    (16 B.Adhes user hide)
    (17 F.Adhes user hide)
    (18 B.Paste user hide)
    (19 F.Paste user hide)
    (20 B.SilkS user)
    (21 F.SilkS user)
    (22 B.Mask user)
    (23 F.Mask user)
    (24 Dwgs.User user hide)
    (25 Cmts.User user hide)
    (26 Eco1.User user hide)
    (27 Eco2.User user hide)
    (28 Edge.Cuts user)
  )

  (setup
    (last_trace_width 0.254)
    (user_trace_width 0.254)
    (user_trace_width 0.3048)
    (user_trace_width 0.3556)
    (user_trace_width 0.4064)
    (trace_clearance 0.254)
    (zone_clearance 0.508)
    (zone_45_only no)
    (trace_min 0.254)
    (segment_width 0.2)
    (edge_width 0.1)
    (via_size 0.889)
    (via_drill 0.635)
    (via_min_size 0.889)
    (via_min_drill 0.508)
    (uvia_size 0.508)
    (uvia_drill 0.127)
    (uvias_allowed no)
    (uvia_min_size 0.508)
    (uvia_min_drill 0.127)
    (pcb_text_width 0.3)
    (pcb_text_size 1.5 1.5)
    (mod_edge_width 0.15)
    (mod_text_size 1 1)
    (mod_text_width 0.15)
    (pad_size 1.50622 1.50622)
    (pad_drill 0.99822)
    (pad_to_mask_clearance 0)
    (aux_axis_origin 0 0)
    (visible_elements FFFFFFBF)
    (pcbplotparams
      (layerselection 284196865)
      (usegerberextensions false)
      (excludeedgelayer false)
      (linewidth 0.150000)
      (plotframeref false)
      (viasonmask false)
      (mode 1)
      (useauxorigin false)
      (hpglpennumber 1)
      (hpglpenspeed 20)
      (hpglpendiameter 15)
      (hpglpenoverlay 2)
      (psnegative false)
      (psa4output false)
      (plotreference true)
      (plotvalue true)
      (plotothertext true)
      (plotinvisibletext false)
      (padsonsilk false)
      (subtractmaskfromsilk true)
      (outputformat 1)
      (mirror false)
      (drillshape 0)
      (scaleselection 1)
      (outputdirectory ../../../../temp/gerber/))
  )

  (net 0 "")
  (net 1 /CE)
  (net 2 /CLK)
  (net 3 /DATA)
  (net 4 /L0)
  (net 5 /L1)
  (net 6 /MISO)
  (net 7 /MOSI)
  (net 8 /RST)
  (net 9 /SCK)
  (net 10 /VBAT)
  (net 11 /VIN)
  (net 12 /X1)
  (net 13 /X2)
  (net 14 GND)
  (net 15 N-0000023)

  (net_class Default "This is the default net class."
    (clearance 0.254)
    (trace_width 0.254)
    (via_dia 0.889)
    (via_drill 0.635)
    (uvia_dia 0.508)
    (uvia_drill 0.127)
    (add_net "")
    (add_net /CE)
    (add_net /CLK)
    (add_net /DATA)
    (add_net /L0)
    (add_net /L1)
    (add_net /MISO)
    (add_net /MOSI)
    (add_net /RST)
    (add_net /SCK)
    (add_net /X1)
    (add_net /X2)
    (add_net N-0000023)
  )

  (net_class POWER ""
    (clearance 0.254)
    (trace_width 0.4064)
    (via_dia 0.889)
    (via_drill 0.635)
    (uvia_dia 0.508)
    (uvia_drill 0.127)
    (add_net /VBAT)
    (add_net /VIN)
    (add_net GND)
  )

  (module VASCH5x2 (layer B.Cu) (tedit 551A9ED1) (tstamp 5518C370)
    (at 101.6 60.96)
    (descr CONNECTOR)
    (tags CONNECTOR)
    (path /55185E04)
    (attr virtual)
    (fp_text reference BAND1 (at -8.89 5.08) (layer B.SilkS)
      (effects (font (size 1.778 1.778) (thickness 0.0889)) (justify mirror))
    )
    (fp_text value WATCHP10 (at 1.27 -6.35) (layer B.SilkS)
      (effects (font (size 1.778 1.778) (thickness 0.0889)) (justify mirror))
    )
    (fp_line (start -9.525 3.81) (end -10.16 4.445) (layer B.SilkS) (width 0.254))
    (fp_line (start -9.525 -3.81) (end -10.16 -4.445) (layer B.SilkS) (width 0.254))
    (fp_line (start 9.525 -3.81) (end 10.16 -4.445) (layer B.SilkS) (width 0.254))
    (fp_line (start 9.525 3.81) (end 10.16 4.445) (layer B.SilkS) (width 0.254))
    (fp_line (start 1.905 -4.445) (end 1.905 -3.81) (layer B.SilkS) (width 0.254))
    (fp_line (start 1.905 -3.81) (end 9.525 -3.81) (layer B.SilkS) (width 0.254))
    (fp_line (start 9.525 -3.81) (end 9.525 3.81) (layer B.SilkS) (width 0.254))
    (fp_line (start 9.525 3.81) (end -9.525 3.81) (layer B.SilkS) (width 0.254))
    (fp_line (start -9.525 3.81) (end -9.525 -3.81) (layer B.SilkS) (width 0.254))
    (fp_line (start -9.525 -3.81) (end -1.905 -3.81) (layer B.SilkS) (width 0.254))
    (fp_line (start -1.905 -3.81) (end -1.905 -4.445) (layer B.SilkS) (width 0.254))
    (fp_line (start -10.16 -4.445) (end 10.16 -4.445) (layer B.SilkS) (width 0.254))
    (fp_line (start 10.16 4.445) (end -10.16 4.445) (layer B.SilkS) (width 0.254))
    (fp_line (start -10.16 4.445) (end -10.16 -4.445) (layer B.SilkS) (width 0.254))
    (fp_line (start 10.16 4.445) (end 10.16 -4.445) (layer B.SilkS) (width 0.254))
    (fp_line (start -7.49808 -1.9685) (end -6.79958 -3.03784) (layer B.SilkS) (width 0.4064))
    (fp_line (start -6.79958 -3.03784) (end -6.09854 -1.9685) (layer B.SilkS) (width 0.4064))
    (fp_line (start -6.09854 -1.9685) (end -7.49808 -1.9685) (layer B.SilkS) (width 0.4064))
    (pad 1 thru_hole circle (at -5.08 -1.27) (size 1.50622 1.50622) (drill 0.99822)
      (layers *.Cu B.Paste B.SilkS F.Mask)
      (net 1 /CE)
    )
    (pad 2 thru_hole circle (at -5.08 1.27) (size 1.50622 1.50622) (drill 0.99822)
      (layers *.Cu B.Paste B.SilkS F.Mask)
      (net 10 /VBAT)
    )
    (pad 3 thru_hole circle (at -2.54 -1.27) (size 1.50622 1.50622) (drill 0.99822)
      (layers *.Cu B.Paste B.SilkS F.Mask)
    )
    (pad 4 thru_hole circle (at -2.54 1.27) (size 1.50622 1.50622) (drill 0.99822)
      (layers *.Cu B.Paste B.SilkS F.Mask)
      (net 14 GND)
    )
    (pad 5 thru_hole circle (at 0 -1.27) (size 1.50622 1.50622) (drill 0.99822)
      (layers *.Cu B.Paste B.SilkS F.Mask)
    )
    (pad 6 thru_hole circle (at 0 1.27) (size 1.50622 1.50622) (drill 0.99822)
      (layers *.Cu B.Paste B.SilkS F.Mask)
    )
    (pad 7 thru_hole circle (at 2.54 -1.27) (size 1.50622 1.50622) (drill 0.99822)
      (layers *.Cu B.Paste B.SilkS F.Mask)
      (net 3 /DATA)
    )
    (pad 8 thru_hole circle (at 2.54 1.27) (size 1.50622 1.50622) (drill 0.99822)
      (layers *.Cu B.Paste B.SilkS F.Mask)
    )
    (pad 9 thru_hole circle (at 5.08 -1.27) (size 1.50622 1.50622) (drill 0.99822)
      (layers *.Cu B.Paste B.SilkS F.Mask)
      (net 2 /CLK)
    )
    (pad 10 thru_hole circle (at 5.08 1.27) (size 1.50622 1.50622) (drill 0.99822)
      (layers *.Cu B.Paste B.SilkS F.Mask)
    )
  )

  (module VASCH5x2 (layer B.Cu) (tedit 551A9D9D) (tstamp 5518C350)
    (at 101.6 25.4)
    (descr CONNECTOR)
    (tags CONNECTOR)
    (path /55185D8E)
    (attr virtual)
    (fp_text reference PROG1 (at -8.89 5.08) (layer B.SilkS)
      (effects (font (size 1.778 1.778) (thickness 0.0889)) (justify mirror))
    )
    (fp_text value WATCHP10 (at 1.27 -6.35) (layer B.SilkS)
      (effects (font (size 1.778 1.778) (thickness 0.0889)) (justify mirror))
    )
    (fp_line (start -9.525 3.81) (end -10.16 4.445) (layer B.SilkS) (width 0.254))
    (fp_line (start -9.525 -3.81) (end -10.16 -4.445) (layer B.SilkS) (width 0.254))
    (fp_line (start 9.525 -3.81) (end 10.16 -4.445) (layer B.SilkS) (width 0.254))
    (fp_line (start 9.525 3.81) (end 10.16 4.445) (layer B.SilkS) (width 0.254))
    (fp_line (start 1.905 -4.445) (end 1.905 -3.81) (layer B.SilkS) (width 0.254))
    (fp_line (start 1.905 -3.81) (end 9.525 -3.81) (layer B.SilkS) (width 0.254))
    (fp_line (start 9.525 -3.81) (end 9.525 3.81) (layer B.SilkS) (width 0.254))
    (fp_line (start 9.525 3.81) (end -9.525 3.81) (layer B.SilkS) (width 0.254))
    (fp_line (start -9.525 3.81) (end -9.525 -3.81) (layer B.SilkS) (width 0.254))
    (fp_line (start -9.525 -3.81) (end -1.905 -3.81) (layer B.SilkS) (width 0.254))
    (fp_line (start -1.905 -3.81) (end -1.905 -4.445) (layer B.SilkS) (width 0.254))
    (fp_line (start -10.16 -4.445) (end 10.16 -4.445) (layer B.SilkS) (width 0.254))
    (fp_line (start 10.16 4.445) (end -10.16 4.445) (layer B.SilkS) (width 0.254))
    (fp_line (start -10.16 4.445) (end -10.16 -4.445) (layer B.SilkS) (width 0.254))
    (fp_line (start 10.16 4.445) (end 10.16 -4.445) (layer B.SilkS) (width 0.254))
    (fp_line (start -7.49808 -1.9685) (end -6.79958 -3.03784) (layer B.SilkS) (width 0.4064))
    (fp_line (start -6.79958 -3.03784) (end -6.09854 -1.9685) (layer B.SilkS) (width 0.4064))
    (fp_line (start -6.09854 -1.9685) (end -7.49808 -1.9685) (layer B.SilkS) (width 0.4064))
    (pad 1 thru_hole circle (at -5.08 -1.27) (size 1.50622 1.50622) (drill 0.99822)
      (layers *.Cu F.Paste B.SilkS F.Mask)
      (net 7 /MOSI)
    )
    (pad 2 thru_hole circle (at -5.08 1.27) (size 1.50622 1.50622) (drill 0.99822)
      (layers *.Cu F.Paste B.SilkS F.Mask)
      (net 11 /VIN)
    )
    (pad 3 thru_hole circle (at -2.54 -1.27) (size 1.50622 1.50622) (drill 0.99822)
      (layers *.Cu F.Paste B.SilkS F.Mask)
    )
    (pad 4 thru_hole circle (at -2.54 1.27) (size 1.50622 1.50622) (drill 0.99822)
      (layers *.Cu F.Paste B.SilkS F.Mask)
      (net 14 GND)
    )
    (pad 5 thru_hole circle (at 0 -1.27) (size 1.50622 1.50622) (drill 0.99822)
      (layers *.Cu F.Paste B.SilkS F.Mask)
      (net 8 /RST)
    )
    (pad 6 thru_hole circle (at 0 1.27) (size 1.50622 1.50622) (drill 0.99822)
      (layers *.Cu F.Paste B.SilkS F.Mask)
    )
    (pad 7 thru_hole circle (at 2.54 -1.27) (size 1.50622 1.50622) (drill 0.99822)
      (layers *.Cu F.Paste B.SilkS F.Mask)
      (net 9 /SCK)
    )
    (pad 8 thru_hole circle (at 2.54 1.27) (size 1.50622 1.50622) (drill 0.99822)
      (layers *.Cu F.Paste B.SilkS F.Mask)
    )
    (pad 9 thru_hole circle (at 5.08 -1.27) (size 1.50622 1.50622) (drill 0.99822)
      (layers *.Cu F.Paste B.SilkS F.Mask)
      (net 6 /MISO)
    )
    (pad 10 thru_hole circle (at 5.08 1.27) (size 1.50622 1.50622) (drill 0.99822)
      (layers *.Cu F.Paste B.SilkS F.Mask)
    )
  )

  (module LED-3MM (layer F.Cu) (tedit 50ADE848) (tstamp 5509C21D)
    (at 99.06 44.45)
    (descr "LED 3mm - Lead pitch 100mil (2,54mm)")
    (tags "LED led 3mm 3MM 100mil 2,54mm")
    (path /5509BFB7)
    (fp_text reference D1 (at 1.778 -2.794) (layer F.SilkS)
      (effects (font (size 0.762 0.762) (thickness 0.0889)))
    )
    (fp_text value LED (at 0 2.54) (layer F.SilkS)
      (effects (font (size 0.762 0.762) (thickness 0.0889)))
    )
    (fp_line (start 1.8288 1.27) (end 1.8288 -1.27) (layer F.SilkS) (width 0.254))
    (fp_arc (start 0.254 0) (end -1.27 0) (angle 39.8) (layer F.SilkS) (width 0.1524))
    (fp_arc (start 0.254 0) (end -0.88392 1.01092) (angle 41.6) (layer F.SilkS) (width 0.1524))
    (fp_arc (start 0.254 0) (end 1.4097 -0.9906) (angle 40.6) (layer F.SilkS) (width 0.1524))
    (fp_arc (start 0.254 0) (end 1.778 0) (angle 39.8) (layer F.SilkS) (width 0.1524))
    (fp_arc (start 0.254 0) (end 0.254 -1.524) (angle 54.4) (layer F.SilkS) (width 0.1524))
    (fp_arc (start 0.254 0) (end -0.9652 -0.9144) (angle 53.1) (layer F.SilkS) (width 0.1524))
    (fp_arc (start 0.254 0) (end 1.45542 0.93472) (angle 52.1) (layer F.SilkS) (width 0.1524))
    (fp_arc (start 0.254 0) (end 0.254 1.524) (angle 52.1) (layer F.SilkS) (width 0.1524))
    (fp_arc (start 0.254 0) (end -0.381 0) (angle 90) (layer F.SilkS) (width 0.1524))
    (fp_arc (start 0.254 0) (end -0.762 0) (angle 90) (layer F.SilkS) (width 0.1524))
    (fp_arc (start 0.254 0) (end 0.889 0) (angle 90) (layer F.SilkS) (width 0.1524))
    (fp_arc (start 0.254 0) (end 1.27 0) (angle 90) (layer F.SilkS) (width 0.1524))
    (fp_arc (start 0.254 0) (end 0.254 -2.032) (angle 50.1) (layer F.SilkS) (width 0.254))
    (fp_arc (start 0.254 0) (end -1.5367 -0.95504) (angle 61.9) (layer F.SilkS) (width 0.254))
    (fp_arc (start 0.254 0) (end 1.8034 1.31064) (angle 49.7) (layer F.SilkS) (width 0.254))
    (fp_arc (start 0.254 0) (end 0.254 2.032) (angle 60.2) (layer F.SilkS) (width 0.254))
    (fp_arc (start 0.254 0) (end -1.778 0) (angle 28.3) (layer F.SilkS) (width 0.254))
    (fp_arc (start 0.254 0) (end -1.47574 1.06426) (angle 31.6) (layer F.SilkS) (width 0.254))
    (pad 1 thru_hole circle (at -1.27 0) (size 1.6764 1.6764) (drill 0.8128)
      (layers *.Cu *.Mask F.SilkS)
      (net 4 /L0)
    )
    (pad 2 thru_hole circle (at 1.27 0) (size 1.6764 1.6764) (drill 0.8128)
      (layers *.Cu *.Mask F.SilkS)
      (net 15 N-0000023)
    )
    (model discret/leds/led3_vertical_verde.wrl
      (at (xyz 0 0 0))
      (scale (xyz 1 1 1))
      (rotate (xyz 0 0 0))
    )
  )

  (module LED-3MM (layer F.Cu) (tedit 50ADE848) (tstamp 5509C236)
    (at 104.14 44.45 180)
    (descr "LED 3mm - Lead pitch 100mil (2,54mm)")
    (tags "LED led 3mm 3MM 100mil 2,54mm")
    (path /5509BFC6)
    (fp_text reference D2 (at 1.778 -2.794 180) (layer F.SilkS)
      (effects (font (size 0.762 0.762) (thickness 0.0889)))
    )
    (fp_text value LED (at 0 2.54 180) (layer F.SilkS)
      (effects (font (size 0.762 0.762) (thickness 0.0889)))
    )
    (fp_line (start 1.8288 1.27) (end 1.8288 -1.27) (layer F.SilkS) (width 0.254))
    (fp_arc (start 0.254 0) (end -1.27 0) (angle 39.8) (layer F.SilkS) (width 0.1524))
    (fp_arc (start 0.254 0) (end -0.88392 1.01092) (angle 41.6) (layer F.SilkS) (width 0.1524))
    (fp_arc (start 0.254 0) (end 1.4097 -0.9906) (angle 40.6) (layer F.SilkS) (width 0.1524))
    (fp_arc (start 0.254 0) (end 1.778 0) (angle 39.8) (layer F.SilkS) (width 0.1524))
    (fp_arc (start 0.254 0) (end 0.254 -1.524) (angle 54.4) (layer F.SilkS) (width 0.1524))
    (fp_arc (start 0.254 0) (end -0.9652 -0.9144) (angle 53.1) (layer F.SilkS) (width 0.1524))
    (fp_arc (start 0.254 0) (end 1.45542 0.93472) (angle 52.1) (layer F.SilkS) (width 0.1524))
    (fp_arc (start 0.254 0) (end 0.254 1.524) (angle 52.1) (layer F.SilkS) (width 0.1524))
    (fp_arc (start 0.254 0) (end -0.381 0) (angle 90) (layer F.SilkS) (width 0.1524))
    (fp_arc (start 0.254 0) (end -0.762 0) (angle 90) (layer F.SilkS) (width 0.1524))
    (fp_arc (start 0.254 0) (end 0.889 0) (angle 90) (layer F.SilkS) (width 0.1524))
    (fp_arc (start 0.254 0) (end 1.27 0) (angle 90) (layer F.SilkS) (width 0.1524))
    (fp_arc (start 0.254 0) (end 0.254 -2.032) (angle 50.1) (layer F.SilkS) (width 0.254))
    (fp_arc (start 0.254 0) (end -1.5367 -0.95504) (angle 61.9) (layer F.SilkS) (width 0.254))
    (fp_arc (start 0.254 0) (end 1.8034 1.31064) (angle 49.7) (layer F.SilkS) (width 0.254))
    (fp_arc (start 0.254 0) (end 0.254 2.032) (angle 60.2) (layer F.SilkS) (width 0.254))
    (fp_arc (start 0.254 0) (end -1.778 0) (angle 28.3) (layer F.SilkS) (width 0.254))
    (fp_arc (start 0.254 0) (end -1.47574 1.06426) (angle 31.6) (layer F.SilkS) (width 0.254))
    (pad 1 thru_hole circle (at -1.27 0 180) (size 1.6764 1.6764) (drill 0.8128)
      (layers *.Cu *.Mask F.SilkS)
      (net 5 /L1)
    )
    (pad 2 thru_hole circle (at 1.27 0 180) (size 1.6764 1.6764) (drill 0.8128)
      (layers *.Cu *.Mask F.SilkS)
      (net 15 N-0000023)
    )
    (model discret/leds/led3_vertical_verde.wrl
      (at (xyz 0 0 0))
      (scale (xyz 1 1 1))
      (rotate (xyz 0 0 0))
    )
  )

  (module QMONTRE (layer F.Cu) (tedit 451BB194) (tstamp 5517DCDF)
    (at 88.9 52.07 180)
    (path /5517D4BD)
    (fp_text reference X1 (at -0.889 5.969 270) (layer F.SilkS)
      (effects (font (size 1.27 1.016) (thickness 0.1524)))
    )
    (fp_text value CRYSTAL (at 0.889 6.096 270) (layer F.SilkS) hide
      (effects (font (size 1.27 0.762) (thickness 0.1524)))
    )
    (fp_line (start -1.905 1.905) (end 1.905 1.905) (layer F.SilkS) (width 0.2032))
    (fp_line (start 1.905 1.905) (end 1.905 10.16) (layer F.SilkS) (width 0.2032))
    (fp_line (start 1.905 10.16) (end -1.905 10.16) (layer F.SilkS) (width 0.2032))
    (fp_line (start -1.905 10.16) (end -1.905 1.905) (layer F.SilkS) (width 0.2032))
    (fp_line (start -1.27 0) (end -1.27 1.905) (layer F.SilkS) (width 0.2032))
    (fp_line (start 1.27 0) (end 1.27 1.905) (layer F.SilkS) (width 0.2032))
    (pad 1 thru_hole circle (at -1.27 0 180) (size 1.27 1.27) (drill 0.8128)
      (layers *.Cu *.Mask F.SilkS)
      (net 12 /X1)
    )
    (pad 2 thru_hole circle (at 1.27 0 180) (size 1.27 1.27) (drill 0.8128)
      (layers *.Cu *.Mask F.SilkS)
      (net 13 /X2)
    )
    (model discret/qmontre.wrl
      (at (xyz 0 0 0))
      (scale (xyz 1 1 1))
      (rotate (xyz 0 0 0))
    )
  )

  (module DIP-8__300_ELL (layer F.Cu) (tedit 200000) (tstamp 5509C249)
    (at 109.22 35.56)
    (descr "8 pins DIL package, elliptical pads")
    (tags DIL)
    (path /5509AEFF)
    (fp_text reference IC1 (at -6.35 0 90) (layer F.SilkS)
      (effects (font (size 1.778 1.143) (thickness 0.3048)))
    )
    (fp_text value ATTINY13-P (at 0 0) (layer F.SilkS)
      (effects (font (size 1.778 1.016) (thickness 0.3048)))
    )
    (fp_line (start -5.08 -1.27) (end -3.81 -1.27) (layer F.SilkS) (width 0.381))
    (fp_line (start -3.81 -1.27) (end -3.81 1.27) (layer F.SilkS) (width 0.381))
    (fp_line (start -3.81 1.27) (end -5.08 1.27) (layer F.SilkS) (width 0.381))
    (fp_line (start -5.08 -2.54) (end 5.08 -2.54) (layer F.SilkS) (width 0.381))
    (fp_line (start 5.08 -2.54) (end 5.08 2.54) (layer F.SilkS) (width 0.381))
    (fp_line (start 5.08 2.54) (end -5.08 2.54) (layer F.SilkS) (width 0.381))
    (fp_line (start -5.08 2.54) (end -5.08 -2.54) (layer F.SilkS) (width 0.381))
    (pad 1 thru_hole rect (at -3.81 3.81) (size 1.5748 2.286) (drill 0.8128)
      (layers *.Cu *.Mask F.SilkS)
      (net 8 /RST)
    )
    (pad 2 thru_hole oval (at -1.27 3.81) (size 1.5748 2.286) (drill 0.8128)
      (layers *.Cu *.Mask F.SilkS)
      (net 4 /L0)
    )
    (pad 3 thru_hole oval (at 1.27 3.81) (size 1.5748 2.286) (drill 0.8128)
      (layers *.Cu *.Mask F.SilkS)
      (net 5 /L1)
    )
    (pad 4 thru_hole oval (at 3.81 3.81) (size 1.5748 2.286) (drill 0.8128)
      (layers *.Cu *.Mask F.SilkS)
      (net 14 GND)
    )
    (pad 5 thru_hole oval (at 3.81 -3.81) (size 1.5748 2.286) (drill 0.8128)
      (layers *.Cu *.Mask F.SilkS)
      (net 7 /MOSI)
    )
    (pad 6 thru_hole oval (at 1.27 -3.81) (size 1.5748 2.286) (drill 0.8128)
      (layers *.Cu *.Mask F.SilkS)
      (net 6 /MISO)
    )
    (pad 7 thru_hole oval (at -1.27 -3.81) (size 1.5748 2.286) (drill 0.8128)
      (layers *.Cu *.Mask F.SilkS)
      (net 9 /SCK)
    )
    (pad 8 thru_hole oval (at -3.81 -3.81) (size 1.5748 2.286) (drill 0.8128)
      (layers *.Cu *.Mask F.SilkS)
      (net 11 /VIN)
    )
    (model dil/dil_8.wrl
      (at (xyz 0 0 0))
      (scale (xyz 1 1 1))
      (rotate (xyz 0 0 0))
    )
  )

  (module DIP-8__300_ELL (layer F.Cu) (tedit 200000) (tstamp 5517DCF2)
    (at 93.98 35.56 180)
    (descr "8 pins DIL package, elliptical pads")
    (tags DIL)
    (path /5517D412)
    (fp_text reference U1 (at -6.35 0 270) (layer F.SilkS)
      (effects (font (size 1.778 1.143) (thickness 0.3048)))
    )
    (fp_text value DS1302 (at 0 0 180) (layer F.SilkS)
      (effects (font (size 1.778 1.016) (thickness 0.3048)))
    )
    (fp_line (start -5.08 -1.27) (end -3.81 -1.27) (layer F.SilkS) (width 0.381))
    (fp_line (start -3.81 -1.27) (end -3.81 1.27) (layer F.SilkS) (width 0.381))
    (fp_line (start -3.81 1.27) (end -5.08 1.27) (layer F.SilkS) (width 0.381))
    (fp_line (start -5.08 -2.54) (end 5.08 -2.54) (layer F.SilkS) (width 0.381))
    (fp_line (start 5.08 -2.54) (end 5.08 2.54) (layer F.SilkS) (width 0.381))
    (fp_line (start 5.08 2.54) (end -5.08 2.54) (layer F.SilkS) (width 0.381))
    (fp_line (start -5.08 2.54) (end -5.08 -2.54) (layer F.SilkS) (width 0.381))
    (pad 1 thru_hole rect (at -3.81 3.81 180) (size 1.5748 2.286) (drill 0.8128)
      (layers *.Cu *.Mask F.SilkS)
      (net 10 /VBAT)
    )
    (pad 2 thru_hole oval (at -1.27 3.81 180) (size 1.5748 2.286) (drill 0.8128)
      (layers *.Cu *.Mask F.SilkS)
      (net 12 /X1)
    )
    (pad 3 thru_hole oval (at 1.27 3.81 180) (size 1.5748 2.286) (drill 0.8128)
      (layers *.Cu *.Mask F.SilkS)
      (net 13 /X2)
    )
    (pad 4 thru_hole oval (at 3.81 3.81 180) (size 1.5748 2.286) (drill 0.8128)
      (layers *.Cu *.Mask F.SilkS)
      (net 14 GND)
    )
    (pad 5 thru_hole oval (at 3.81 -3.81 180) (size 1.5748 2.286) (drill 0.8128)
      (layers *.Cu *.Mask F.SilkS)
      (net 1 /CE)
    )
    (pad 6 thru_hole oval (at 1.27 -3.81 180) (size 1.5748 2.286) (drill 0.8128)
      (layers *.Cu *.Mask F.SilkS)
      (net 3 /DATA)
    )
    (pad 7 thru_hole oval (at -1.27 -3.81 180) (size 1.5748 2.286) (drill 0.8128)
      (layers *.Cu *.Mask F.SilkS)
      (net 2 /CLK)
    )
    (pad 8 thru_hole oval (at -3.81 -3.81 180) (size 1.5748 2.286) (drill 0.8128)
      (layers *.Cu *.Mask F.SilkS)
      (net 14 GND)
    )
    (model dil/dil_8.wrl
      (at (xyz 0 0 0))
      (scale (xyz 1 1 1))
      (rotate (xyz 0 0 0))
    )
  )

  (module SW_PUSH_SMALL (layer F.Cu) (tedit 46544DB3) (tstamp 5509CC5B)
    (at 101.6 52.07 180)
    (path /5509C2E7)
    (fp_text reference SW1 (at 0 -0.762 180) (layer F.SilkS)
      (effects (font (size 1.016 1.016) (thickness 0.2032)))
    )
    (fp_text value SW_PUSH (at 0 1.016 180) (layer F.SilkS)
      (effects (font (size 1.016 1.016) (thickness 0.2032)))
    )
    (fp_circle (center 0 0) (end 0 -2.54) (layer F.SilkS) (width 0.127))
    (fp_line (start -3.81 -3.81) (end 3.81 -3.81) (layer F.SilkS) (width 0.127))
    (fp_line (start 3.81 -3.81) (end 3.81 3.81) (layer F.SilkS) (width 0.127))
    (fp_line (start 3.81 3.81) (end -3.81 3.81) (layer F.SilkS) (width 0.127))
    (fp_line (start -3.81 -3.81) (end -3.81 3.81) (layer F.SilkS) (width 0.127))
    (pad 1 thru_hole circle (at 3.81 -2.54 180) (size 1.397 1.397) (drill 0.8128)
      (layers *.Cu *.Mask F.SilkS)
      (net 8 /RST)
    )
    (pad 2 thru_hole circle (at 3.81 2.54 180) (size 1.397 1.397) (drill 0.8128)
      (layers *.Cu *.Mask F.SilkS)
      (net 14 GND)
    )
    (pad 1 thru_hole circle (at -3.81 -2.54 180) (size 1.397 1.397) (drill 0.8128)
      (layers *.Cu *.Mask F.SilkS)
      (net 8 /RST)
    )
    (pad 2 thru_hole circle (at -3.81 2.54 180) (size 1.397 1.397) (drill 0.8128)
      (layers *.Cu *.Mask F.SilkS)
      (net 14 GND)
    )
  )

  (module R4 (layer F.Cu) (tedit 200000) (tstamp 5509C204)
    (at 110.49 49.53 270)
    (descr "Resitance 4 pas")
    (tags R)
    (path /5509C080)
    (autoplace_cost180 10)
    (fp_text reference R1 (at 0 0 270) (layer F.SilkS)
      (effects (font (size 1.397 1.27) (thickness 0.2032)))
    )
    (fp_text value R (at 0 0 270) (layer F.SilkS) hide
      (effects (font (size 1.397 1.27) (thickness 0.2032)))
    )
    (fp_line (start -5.08 0) (end -4.064 0) (layer F.SilkS) (width 0.3048))
    (fp_line (start -4.064 0) (end -4.064 -1.016) (layer F.SilkS) (width 0.3048))
    (fp_line (start -4.064 -1.016) (end 4.064 -1.016) (layer F.SilkS) (width 0.3048))
    (fp_line (start 4.064 -1.016) (end 4.064 1.016) (layer F.SilkS) (width 0.3048))
    (fp_line (start 4.064 1.016) (end -4.064 1.016) (layer F.SilkS) (width 0.3048))
    (fp_line (start -4.064 1.016) (end -4.064 0) (layer F.SilkS) (width 0.3048))
    (fp_line (start -4.064 -0.508) (end -3.556 -1.016) (layer F.SilkS) (width 0.3048))
    (fp_line (start 5.08 0) (end 4.064 0) (layer F.SilkS) (width 0.3048))
    (pad 1 thru_hole circle (at -5.08 0 270) (size 1.524 1.524) (drill 0.8128)
      (layers *.Cu *.Mask F.SilkS)
      (net 15 N-0000023)
    )
    (pad 2 thru_hole circle (at 5.08 0 270) (size 1.524 1.524) (drill 0.8128)
      (layers *.Cu *.Mask F.SilkS)
      (net 14 GND)
    )
    (model discret/resistor.wrl
      (at (xyz 0 0 0))
      (scale (xyz 0.4 0.4 0.4))
      (rotate (xyz 0 0 0))
    )
  )

  (module CR2032H (layer B.Cu) (tedit 4C5E6DB1) (tstamp 5518CC53)
    (at 100.33 43.18)
    (path /55182120)
    (fp_text reference BT1 (at 0 12.7) (layer B.SilkS)
      (effects (font (size 1.524 1.524) (thickness 0.3048)) (justify mirror))
    )
    (fp_text value BATTERY (at 0 -12.7) (layer B.SilkS)
      (effects (font (size 1.524 1.524) (thickness 0.3048)) (justify mirror))
    )
    (fp_line (start 15.24 -3.81) (end 15.24 -5.08) (layer B.SilkS) (width 0.381))
    (fp_line (start 14.605 -4.445) (end 15.875 -4.445) (layer B.SilkS) (width 0.381))
    (fp_line (start 10.795 2.54) (end 17.145 2.54) (layer B.SilkS) (width 0.381))
    (fp_line (start 17.145 2.54) (end 17.145 -2.54) (layer B.SilkS) (width 0.381))
    (fp_line (start 17.145 -2.54) (end 10.795 -2.54) (layer B.SilkS) (width 0.381))
    (fp_line (start 17.145 3.175) (end 17.78 3.175) (layer B.SilkS) (width 0.381))
    (fp_line (start 17.78 3.175) (end 17.78 -3.175) (layer B.SilkS) (width 0.381))
    (fp_line (start 17.78 -3.175) (end 17.145 -3.175) (layer B.SilkS) (width 0.381))
    (fp_line (start 15.875 3.175) (end 17.145 3.175) (layer B.SilkS) (width 0.381))
    (fp_line (start 17.145 -3.175) (end 10.795 -3.175) (layer B.SilkS) (width 0.381))
    (fp_line (start 10.795 3.175) (end 15.875 3.175) (layer B.SilkS) (width 0.381))
    (fp_circle (center 0 0) (end -1.27 8.89) (layer B.SilkS) (width 0.381))
    (fp_circle (center 0 0) (end 6.35 -8.89) (layer B.SilkS) (width 0.381))
    (pad 2 thru_hole circle (at -7.62 0) (size 2.286 2.286) (drill 1.016)
      (layers *.Cu *.Mask B.SilkS)
      (net 14 GND)
    )
    (pad 1 thru_hole circle (at 15.24 0) (size 2.286 2.286) (drill 1.016)
      (layers *.Cu *.Mask B.SilkS)
      (net 10 /VBAT)
    )
  )

  (gr_line (start 90.17 64.77) (end 90.17 57.15) (angle 90) (layer Edge.Cuts) (width 0.1))
  (gr_line (start 91.44 66.04) (end 90.17 64.77) (angle 90) (layer Edge.Cuts) (width 0.1))
  (gr_line (start 111.76 66.04) (end 91.44 66.04) (angle 90) (layer Edge.Cuts) (width 0.1))
  (gr_line (start 113.03 64.77) (end 111.76 66.04) (angle 90) (layer Edge.Cuts) (width 0.1))
  (gr_line (start 113.03 57.15) (end 113.03 64.77) (angle 90) (layer Edge.Cuts) (width 0.1))
  (gr_arc (start 101.6 43.18) (end 113.03 29.21) (angle 101.5) (layer Edge.Cuts) (width 0.1) (tstamp 551A5CA1))
  (gr_line (start 106.045 43.815) (end 106.68 43.18) (angle 90) (layer F.SilkS) (width 0.2))
  (gr_line (start 106.045 46.355) (end 108.585 46.355) (angle 90) (layer F.SilkS) (width 0.2))
  (gr_line (start 107.315 42.545) (end 106.68 43.18) (angle 90) (layer F.SilkS) (width 0.2))
  (gr_line (start 107.315 46.355) (end 107.315 42.545) (angle 90) (layer F.SilkS) (width 0.2))
  (gr_line (start 107.95 46.355) (end 107.315 46.355) (angle 90) (layer F.SilkS) (width 0.2))
  (gr_line (start 106.68 46.355) (end 107.95 46.355) (angle 90) (layer F.SilkS) (width 0.2))
  (gr_line (start 94.615 45.72) (end 95.25 46.355) (angle 90) (layer F.SilkS) (width 0.2))
  (gr_line (start 94.615 43.18) (end 94.615 45.72) (angle 90) (layer F.SilkS) (width 0.2))
  (gr_line (start 95.25 42.545) (end 94.615 43.18) (angle 90) (layer F.SilkS) (width 0.2))
  (gr_line (start 96.52 42.545) (end 95.25 42.545) (angle 90) (layer F.SilkS) (width 0.2))
  (gr_line (start 97.155 43.18) (end 96.52 42.545) (angle 90) (layer F.SilkS) (width 0.2))
  (gr_line (start 97.155 45.72) (end 97.155 43.18) (angle 90) (layer F.SilkS) (width 0.2))
  (gr_line (start 96.52 46.355) (end 97.155 45.72) (angle 90) (layer F.SilkS) (width 0.2))
  (gr_line (start 95.25 46.355) (end 96.52 46.355) (angle 90) (layer F.SilkS) (width 0.2))
  (gr_line (start 94.615 43.815) (end 94.615 45.085) (angle 90) (layer F.SilkS) (width 0.2))
  (gr_line (start 90.17 21.59) (end 90.17 29.21) (angle 90) (layer Edge.Cuts) (width 0.1))
  (gr_line (start 91.44 20.32) (end 90.17 21.59) (angle 90) (layer Edge.Cuts) (width 0.1))
  (gr_line (start 111.76 20.32) (end 91.44 20.32) (angle 90) (layer Edge.Cuts) (width 0.1))
  (gr_line (start 113.03 21.59) (end 111.76 20.32) (angle 90) (layer Edge.Cuts) (width 0.1))
  (gr_line (start 113.03 29.21) (end 113.03 21.59) (angle 90) (layer Edge.Cuts) (width 0.1))
  (gr_arc (start 101.6 43.18) (end 90.17 57.15) (angle 101.5) (layer Edge.Cuts) (width 0.1))

  (segment (start 90.17 39.37) (end 90.17 40.64) (width 0.254) (layer F.Cu) (net 1))
  (segment (start 95.25 58.42) (end 96.52 59.69) (width 0.254) (layer F.Cu) (net 1) (tstamp 551A606F))
  (segment (start 95.25 50.8) (end 95.25 58.42) (width 0.254) (layer F.Cu) (net 1) (tstamp 551A606D))
  (segment (start 88.9 44.45) (end 95.25 50.8) (width 0.254) (layer F.Cu) (net 1) (tstamp 551A6068))
  (segment (start 88.9 41.91) (end 88.9 44.45) (width 0.254) (layer F.Cu) (net 1) (tstamp 551A6061))
  (segment (start 90.17 40.64) (end 88.9 41.91) (width 0.254) (layer F.Cu) (net 1) (tstamp 551A605E))
  (segment (start 95.25 39.37) (end 95.25 45.72) (width 0.254) (layer F.Cu) (net 2))
  (segment (start 106.68 58.42) (end 106.68 59.69) (width 0.254) (layer F.Cu) (net 2) (tstamp 551A6044))
  (segment (start 102.87 54.61) (end 106.68 58.42) (width 0.254) (layer F.Cu) (net 2) (tstamp 551A6042))
  (segment (start 102.87 48.26) (end 102.87 54.61) (width 0.254) (layer F.Cu) (net 2) (tstamp 551A6040))
  (segment (start 101.6 46.99) (end 102.87 48.26) (width 0.254) (layer F.Cu) (net 2) (tstamp 551A603E))
  (segment (start 96.52 46.99) (end 101.6 46.99) (width 0.254) (layer F.Cu) (net 2) (tstamp 551A603A))
  (segment (start 95.25 45.72) (end 96.52 46.99) (width 0.254) (layer F.Cu) (net 2) (tstamp 551A602D))
  (segment (start 92.71 39.37) (end 90.17 41.91) (width 0.254) (layer F.Cu) (net 3))
  (segment (start 104.14 58.42) (end 104.14 59.69) (width 0.254) (layer F.Cu) (net 3) (tstamp 551A6053))
  (segment (start 90.17 44.45) (end 104.14 58.42) (width 0.254) (layer F.Cu) (net 3) (tstamp 551A6052))
  (segment (start 90.17 41.91) (end 90.17 44.45) (width 0.254) (layer F.Cu) (net 3) (tstamp 551A604D))
  (segment (start 107.95 39.37) (end 107.95 40.64) (width 0.254) (layer F.Cu) (net 4))
  (segment (start 97.79 43.18) (end 97.79 44.45) (width 0.254) (layer F.Cu) (net 4) (tstamp 551A5EF8))
  (segment (start 99.06 41.91) (end 97.79 43.18) (width 0.254) (layer F.Cu) (net 4) (tstamp 551A5EF6))
  (segment (start 106.68 41.91) (end 99.06 41.91) (width 0.254) (layer F.Cu) (net 4) (tstamp 551A5EF4))
  (segment (start 107.95 40.64) (end 106.68 41.91) (width 0.254) (layer F.Cu) (net 4) (tstamp 551A5EF1))
  (segment (start 110.49 39.37) (end 110.49 40.64) (width 0.254) (layer F.Cu) (net 5))
  (segment (start 106.68 44.45) (end 105.41 44.45) (width 0.254) (layer F.Cu) (net 5) (tstamp 551A5EFE))
  (segment (start 110.49 40.64) (end 106.68 44.45) (width 0.254) (layer F.Cu) (net 5) (tstamp 551A5EFC))
  (segment (start 106.68 24.13) (end 106.68 26.67) (width 0.254) (layer B.Cu) (net 6))
  (segment (start 106.68 26.67) (end 107.95 27.94) (width 0.254) (layer B.Cu) (net 6) (tstamp 551A5EAD))
  (segment (start 107.95 27.94) (end 109.22 27.94) (width 0.254) (layer B.Cu) (net 6) (tstamp 551A5EAE))
  (segment (start 109.22 27.94) (end 110.49 29.21) (width 0.254) (layer B.Cu) (net 6) (tstamp 551A5EB0))
  (segment (start 110.49 29.21) (end 110.49 31.75) (width 0.254) (layer B.Cu) (net 6) (tstamp 551A5EB2))
  (segment (start 96.52 24.13) (end 96.52 22.86) (width 0.254) (layer F.Cu) (net 7))
  (segment (start 111.76 30.48) (end 113.03 31.75) (width 0.254) (layer F.Cu) (net 7) (tstamp 551A5F5F))
  (segment (start 111.76 22.86) (end 111.76 30.48) (width 0.254) (layer F.Cu) (net 7) (tstamp 551A5F5D))
  (segment (start 110.49 21.59) (end 111.76 22.86) (width 0.254) (layer F.Cu) (net 7) (tstamp 551A5F5B))
  (segment (start 97.79 21.59) (end 110.49 21.59) (width 0.254) (layer F.Cu) (net 7) (tstamp 551A5F59))
  (segment (start 96.52 22.86) (end 97.79 21.59) (width 0.254) (layer F.Cu) (net 7) (tstamp 551A5F57))
  (segment (start 97.79 54.61) (end 105.41 54.61) (width 0.254) (layer B.Cu) (net 8))
  (segment (start 105.41 39.37) (end 105.41 40.64) (width 0.254) (layer B.Cu) (net 8))
  (segment (start 106.68 54.61) (end 105.41 54.61) (width 0.254) (layer B.Cu) (net 8) (tstamp 551A5F9B))
  (segment (start 107.95 53.34) (end 106.68 54.61) (width 0.254) (layer B.Cu) (net 8) (tstamp 551A5F99))
  (segment (start 107.95 43.18) (end 107.95 53.34) (width 0.254) (layer B.Cu) (net 8) (tstamp 551A5F97))
  (segment (start 105.41 40.64) (end 107.95 43.18) (width 0.254) (layer B.Cu) (net 8) (tstamp 551A5F92))
  (segment (start 101.6 24.13) (end 101.6 38.1) (width 0.254) (layer B.Cu) (net 8))
  (segment (start 102.87 39.37) (end 105.41 39.37) (width 0.254) (layer B.Cu) (net 8) (tstamp 551A5EBE))
  (segment (start 101.6 38.1) (end 102.87 39.37) (width 0.254) (layer B.Cu) (net 8) (tstamp 551A5EBC))
  (segment (start 104.14 24.13) (end 104.14 26.67) (width 0.254) (layer B.Cu) (net 9))
  (segment (start 104.14 26.67) (end 105.41 27.94) (width 0.254) (layer B.Cu) (net 9) (tstamp 551A5EB6))
  (segment (start 105.41 27.94) (end 107.95 30.48) (width 0.254) (layer B.Cu) (net 9) (tstamp 551A5EB7))
  (segment (start 107.95 30.48) (end 107.95 31.75) (width 0.254) (layer B.Cu) (net 9) (tstamp 551A5EB9))
  (segment (start 97.79 31.75) (end 99.06 31.75) (width 0.4064) (layer F.Cu) (net 10))
  (segment (start 99.06 31.75) (end 102.87 35.56) (width 0.4064) (layer F.Cu) (net 10) (tstamp 551A8355))
  (segment (start 102.87 35.56) (end 114.3 35.56) (width 0.4064) (layer F.Cu) (net 10) (tstamp 551A835E))
  (segment (start 114.3 35.56) (end 115.57 36.83) (width 0.4064) (layer F.Cu) (net 10) (tstamp 551A8363))
  (segment (start 115.57 36.83) (end 115.57 43.18) (width 0.4064) (layer F.Cu) (net 10) (tstamp 551A8365))
  (segment (start 115.57 43.18) (end 116.84 44.45) (width 0.4064) (layer F.Cu) (net 10))
  (segment (start 116.84 44.45) (end 116.84 49.53) (width 0.4064) (layer F.Cu) (net 10) (tstamp 551A5F21))
  (segment (start 116.84 49.53) (end 116.84 50.8) (width 0.4064) (layer F.Cu) (net 10) (tstamp 551A5F26))
  (segment (start 116.84 50.8) (end 109.22 58.42) (width 0.4064) (layer F.Cu) (net 10) (tstamp 551A5F28))
  (segment (start 109.22 58.42) (end 109.22 63.5) (width 0.4064) (layer F.Cu) (net 10) (tstamp 551A5F2F))
  (segment (start 96.52 63.5) (end 96.52 62.23) (width 0.4064) (layer F.Cu) (net 10) (tstamp 551A5F3C))
  (segment (start 109.22 63.5) (end 107.95 64.77) (width 0.4064) (layer F.Cu) (net 10) (tstamp 551A5F32))
  (segment (start 107.95 64.77) (end 97.79 64.77) (width 0.4064) (layer F.Cu) (net 10) (tstamp 551A5F33))
  (segment (start 97.79 64.77) (end 96.52 63.5) (width 0.4064) (layer F.Cu) (net 10) (tstamp 551A5F3B))
  (segment (start 109.22 63.5) (end 109.22 63.5) (width 0.254) (layer F.Cu) (net 10) (tstamp 551A5F30))
  (segment (start 101.6 31.75) (end 96.52 26.67) (width 0.4064) (layer F.Cu) (net 11) (tstamp 551A5F63))
  (segment (start 105.41 31.75) (end 101.6 31.75) (width 0.4064) (layer F.Cu) (net 11))
  (segment (start 95.25 31.75) (end 95.25 33.02) (width 0.254) (layer F.Cu) (net 12))
  (segment (start 87.63 49.53) (end 90.17 52.07) (width 0.254) (layer F.Cu) (net 12) (tstamp 551A5F7E))
  (segment (start 87.63 36.83) (end 87.63 49.53) (width 0.254) (layer F.Cu) (net 12) (tstamp 551A5F7C))
  (segment (start 88.9 35.56) (end 87.63 36.83) (width 0.254) (layer F.Cu) (net 12) (tstamp 551A5F7A))
  (segment (start 92.71 35.56) (end 88.9 35.56) (width 0.254) (layer F.Cu) (net 12) (tstamp 551A5F78))
  (segment (start 95.25 33.02) (end 92.71 35.56) (width 0.254) (layer F.Cu) (net 12) (tstamp 551A5F76))
  (segment (start 92.71 31.75) (end 92.71 33.02) (width 0.254) (layer F.Cu) (net 13))
  (segment (start 87.63 50.8) (end 87.63 52.07) (width 0.254) (layer F.Cu) (net 13) (tstamp 551A5F72))
  (segment (start 86.36 49.53) (end 87.63 50.8) (width 0.254) (layer F.Cu) (net 13) (tstamp 551A5F70))
  (segment (start 86.36 35.56) (end 86.36 49.53) (width 0.254) (layer F.Cu) (net 13) (tstamp 551A5F6E))
  (segment (start 87.63 34.29) (end 86.36 35.56) (width 0.254) (layer F.Cu) (net 13) (tstamp 551A5F6C))
  (segment (start 91.44 34.29) (end 87.63 34.29) (width 0.254) (layer F.Cu) (net 13) (tstamp 551A5F69))
  (segment (start 92.71 33.02) (end 91.44 34.29) (width 0.254) (layer F.Cu) (net 13) (tstamp 551A5F67))
  (segment (start 90.17 31.75) (end 92.71 29.21) (width 0.254) (layer B.Cu) (net 14))
  (via (at 92.71 27.94) (size 0.889) (layers F.Cu B.Cu) (net 14))
  (segment (start 92.71 29.21) (end 92.71 27.94) (width 0.254) (layer B.Cu) (net 14) (tstamp 551B40C8))
  (segment (start 93.98 52.07) (end 95.25 53.34) (width 0.254) (layer B.Cu) (net 14))
  (via (at 97.79 57.15) (size 0.889) (layers F.Cu B.Cu) (net 14))
  (segment (start 96.52 57.15) (end 97.79 57.15) (width 0.254) (layer B.Cu) (net 14) (tstamp 551B40C3))
  (segment (start 95.25 55.88) (end 96.52 57.15) (width 0.254) (layer B.Cu) (net 14) (tstamp 551B40C1))
  (segment (start 95.25 53.34) (end 95.25 55.88) (width 0.254) (layer B.Cu) (net 14) (tstamp 551B40BF))
  (segment (start 109.22 60.96) (end 110.49 59.69) (width 0.254) (layer B.Cu) (net 14))
  (via (at 110.49 59.69) (size 0.889) (layers F.Cu B.Cu) (net 14))
  (segment (start 110.49 54.61) (end 109.22 55.88) (width 0.254) (layer B.Cu) (net 14))
  (segment (start 99.06 63.5) (end 100.33 64.77) (width 0.254) (layer B.Cu) (net 14) (tstamp 551A5FA5))
  (segment (start 100.33 64.77) (end 107.95 64.77) (width 0.254) (layer B.Cu) (net 14) (tstamp 551A5FA9))
  (segment (start 107.95 64.77) (end 109.22 63.5) (width 0.254) (layer B.Cu) (net 14) (tstamp 551A5FAB))
  (segment (start 109.22 63.5) (end 109.22 60.96) (width 0.254) (layer B.Cu) (net 14) (tstamp 551A5FAD))
  (segment (start 109.22 60.96) (end 109.22 55.88) (width 0.254) (layer B.Cu) (net 14) (tstamp 551B40A7))
  (segment (start 99.06 63.5) (end 99.06 62.23) (width 0.254) (layer B.Cu) (net 14))
  (segment (start 113.03 39.37) (end 116.84 39.37) (width 0.254) (layer B.Cu) (net 14))
  (via (at 116.84 39.37) (size 0.889) (layers F.Cu B.Cu) (net 14))
  (segment (start 96.52 49.53) (end 93.98 52.07) (width 0.254) (layer B.Cu) (net 14))
  (via (at 92.71 52.07) (size 0.889) (layers F.Cu B.Cu) (net 14))
  (segment (start 93.98 52.07) (end 92.71 52.07) (width 0.254) (layer B.Cu) (net 14) (tstamp 551B4069))
  (segment (start 97.79 49.53) (end 105.41 49.53) (width 0.254) (layer B.Cu) (net 14))
  (segment (start 113.03 39.37) (end 113.03 36.83) (width 0.4064) (layer F.Cu) (net 14))
  (segment (start 113.03 36.83) (end 97.79 36.83) (width 0.4064) (layer F.Cu) (net 14) (tstamp 551A5F82))
  (segment (start 97.79 36.83) (end 97.79 39.37) (width 0.4064) (layer F.Cu) (net 14) (tstamp 551A5F86))
  (segment (start 105.41 49.53) (end 110.49 54.61) (width 0.254) (layer F.Cu) (net 14))
  (segment (start 92.71 43.18) (end 88.9 43.18) (width 0.4064) (layer B.Cu) (net 14))
  (segment (start 88.9 43.18) (end 87.63 41.91) (width 0.4064) (layer B.Cu) (net 14) (tstamp 551A5EE1))
  (segment (start 87.63 41.91) (end 87.63 34.29) (width 0.4064) (layer B.Cu) (net 14) (tstamp 551A5EE3))
  (segment (start 87.63 34.29) (end 90.17 31.75) (width 0.4064) (layer B.Cu) (net 14) (tstamp 551A5EE5))
  (segment (start 97.79 49.53) (end 96.52 49.53) (width 0.254) (layer B.Cu) (net 14))
  (segment (start 92.71 45.72) (end 92.71 43.18) (width 0.254) (layer B.Cu) (net 14) (tstamp 551A5ED0))
  (segment (start 96.52 49.53) (end 92.71 45.72) (width 0.254) (layer B.Cu) (net 14) (tstamp 551A5ECE))
  (segment (start 97.79 39.37) (end 97.79 40.64) (width 0.4064) (layer B.Cu) (net 14))
  (segment (start 97.79 40.64) (end 95.25 43.18) (width 0.4064) (layer B.Cu) (net 14) (tstamp 551A5EC8))
  (segment (start 95.25 43.18) (end 92.71 43.18) (width 0.4064) (layer B.Cu) (net 14) (tstamp 551A5ECA))
  (segment (start 99.06 26.67) (end 100.33 27.94) (width 0.4064) (layer B.Cu) (net 14))
  (segment (start 100.33 27.94) (end 100.33 38.1) (width 0.4064) (layer B.Cu) (net 14) (tstamp 551A5EC2))
  (segment (start 100.33 38.1) (end 99.06 39.37) (width 0.4064) (layer B.Cu) (net 14) (tstamp 551A5EC3))
  (segment (start 99.06 39.37) (end 97.79 39.37) (width 0.4064) (layer B.Cu) (net 14) (tstamp 551A5EC4))
  (segment (start 100.33 44.45) (end 102.87 44.45) (width 0.254) (layer F.Cu) (net 15))
  (segment (start 102.87 44.45) (end 102.87 45.72) (width 0.254) (layer F.Cu) (net 15) (tstamp 551A5F02))
  (segment (start 102.87 45.72) (end 104.14 46.99) (width 0.254) (layer F.Cu) (net 15) (tstamp 551A5F03))
  (segment (start 104.14 46.99) (end 109.22 46.99) (width 0.254) (layer F.Cu) (net 15) (tstamp 551A5F11))
  (segment (start 109.22 46.99) (end 110.49 45.72) (width 0.254) (layer F.Cu) (net 15) (tstamp 551A5F12))
  (segment (start 110.49 45.72) (end 110.49 44.45) (width 0.254) (layer F.Cu) (net 15) (tstamp 551A5F15))

  (zone (net 14) (net_name GND) (layer F.Cu) (tstamp 551B40D8) (hatch edge 0.508)
    (connect_pads thru_hole_only (clearance 0.508))
    (min_thickness 0.254)
    (fill (arc_segments 16) (thermal_gap 0.508) (thermal_bridge_width 0.508))
    (polygon
      (pts
        (xy 121.92 17.78) (xy 80.01 17.78) (xy 80.01 68.58) (xy 123.19 68.58) (xy 123.19 17.78)
        (xy 121.92 17.78)
      )
    )
    (filled_polygon
      (pts
        (xy 90.317 31.877) (xy 90.297 31.877) (xy 90.297 31.897) (xy 90.043 31.897) (xy 90.043 31.877)
        (xy 88.7476 31.877) (xy 88.7476 32.2326) (xy 88.904475 32.767262) (xy 89.254014 33.201191) (xy 89.743004 33.468327)
        (xy 89.82294 33.48501) (xy 90.042998 33.362852) (xy 90.042998 33.528) (xy 87.63 33.528) (xy 87.43424 33.566939)
        (xy 88.175041 32.173694) (xy 88.7476 31.601136) (xy 88.7476 31.623) (xy 90.043 31.623) (xy 90.043 31.603)
        (xy 90.297 31.603) (xy 90.297 31.623) (xy 90.317 31.623) (xy 90.317 31.877)
      )
    )
    (filled_polygon
      (pts
        (xy 97.189606 65.355) (xy 91.723736 65.355) (xy 90.855 64.486264) (xy 90.855 57.214514) (xy 90.855584 57.212574)
        (xy 90.855 57.206774) (xy 90.855 57.15) (xy 90.843421 57.091793) (xy 90.828806 56.946645) (xy 90.806169 56.904516)
        (xy 90.802857 56.887862) (xy 90.774079 56.844793) (xy 90.702301 56.711206) (xy 87.912812 53.327285) (xy 88.348457 53.147281)
        (xy 88.706025 52.790336) (xy 88.899778 52.323727) (xy 88.900167 51.877797) (xy 88.900168 51.877799) (xy 88.899781 52.32151)
        (xy 89.092719 52.788457) (xy 89.449664 53.146025) (xy 89.916273 53.339778) (xy 90.42151 53.340219) (xy 90.888457 53.147281)
        (xy 91.246025 52.790336) (xy 91.439778 52.323727) (xy 91.440219 51.81849) (xy 91.247281 51.351543) (xy 90.890336 50.993975)
        (xy 90.423727 50.800222) (xy 89.977463 50.799832) (xy 88.392 49.214369) (xy 88.392 45.01963) (xy 94.488 51.11563)
        (xy 94.488 58.42) (xy 94.546004 58.711605) (xy 94.711185 58.958815) (xy 95.141789 59.389419) (xy 95.132132 59.412677)
        (xy 95.13165 59.964901) (xy 95.342532 60.475274) (xy 95.732673 60.866096) (xy 95.958744 60.959969) (xy 95.734726 61.052532)
        (xy 95.343904 61.442673) (xy 95.132132 61.952677) (xy 95.13165 62.504901) (xy 95.342532 63.015274) (xy 95.6818 63.355134)
        (xy 95.6818 63.5) (xy 95.745604 63.820766) (xy 95.927303 64.092697) (xy 97.189606 65.355)
      )
    )
    (filled_polygon
      (pts
        (xy 98.636657 29.972051) (xy 98.451645 29.97189) (xy 96.876845 29.97189) (xy 96.643371 30.068359) (xy 96.464587 30.246832)
        (xy 96.367711 30.480136) (xy 96.367675 30.521227) (xy 96.255789 30.353778) (xy 95.794329 30.045441) (xy 95.25 29.937167)
        (xy 94.705671 30.045441) (xy 94.244211 30.353778) (xy 93.98 30.749198) (xy 93.715789 30.353778) (xy 93.254329 30.045441)
        (xy 92.71 29.937167) (xy 92.165671 30.045441) (xy 91.704211 30.353778) (xy 91.440246 30.748829) (xy 91.435525 30.732738)
        (xy 91.085986 30.298809) (xy 90.596996 30.031673) (xy 90.51706 30.01499) (xy 90.297002 30.137147) (xy 90.297002 30.051734)
        (xy 90.654368 29.694368) (xy 90.671836 29.6769) (xy 90.820325 29.45467) (xy 90.872468 29.192532) (xy 90.855 29.104715)
        (xy 90.855 21.873736) (xy 91.723736 21.005) (xy 97.320304 21.005) (xy 97.251184 21.051185) (xy 95.981185 22.321185)
        (xy 95.816004 22.568395) (xy 95.758 22.86) (xy 95.758 22.942915) (xy 95.734726 22.952532) (xy 95.343904 23.342673)
        (xy 95.132132 23.852677) (xy 95.13165 24.404901) (xy 95.342532 24.915274) (xy 95.732673 25.306096) (xy 95.958744 25.399969)
        (xy 95.734726 25.492532) (xy 95.343904 25.882673) (xy 95.132132 26.392677) (xy 95.13165 26.944901) (xy 95.342532 27.455274)
        (xy 95.732673 27.846096) (xy 96.242677 28.057868) (xy 96.722893 28.058287) (xy 98.636657 29.972051)
      )
    )
    (filled_polygon
      (pts
        (xy 103.254726 58.612357) (xy 102.963904 58.902673) (xy 102.87003 59.128744) (xy 102.777468 58.904726) (xy 102.387327 58.513904)
        (xy 101.877323 58.302132) (xy 101.325099 58.30165) (xy 100.814726 58.512532) (xy 100.423904 58.902673) (xy 100.33003 59.128744)
        (xy 100.237468 58.904726) (xy 99.847327 58.513904) (xy 99.337323 58.302132) (xy 98.785099 58.30165) (xy 98.274726 58.512532)
        (xy 97.883904 58.902673) (xy 97.79003 59.128744) (xy 97.697468 58.904726) (xy 97.307327 58.513904) (xy 96.797323 58.302132)
        (xy 96.245099 58.30165) (xy 96.219753 58.312122) (xy 96.012 58.104369) (xy 96.012 51.36963) (xy 97.918982 53.276613)
        (xy 97.525914 53.27627) (xy 97.03562 53.478855) (xy 96.660174 53.853647) (xy 96.456733 54.343587) (xy 96.45627 54.874086)
        (xy 96.658855 55.36438) (xy 97.033647 55.739826) (xy 97.523587 55.943267) (xy 98.054086 55.94373) (xy 98.54438 55.741145)
        (xy 98.919826 55.366353) (xy 99.123267 54.876413) (xy 99.123611 54.481242) (xy 103.254726 58.612357)
      )
    )
    (filled_polygon
      (pts
        (xy 105.794726 58.612357) (xy 105.503904 58.902673) (xy 105.41003 59.128744) (xy 105.317468 58.904726) (xy 104.927327 58.513904)
        (xy 104.902 58.503387) (xy 104.902 58.42) (xy 104.843996 58.128395) (xy 104.678815 57.881185) (xy 104.678815 57.881184)
        (xy 99.135924 52.338293) (xy 99.135924 49.72252) (xy 99.107146 49.192802) (xy 98.959798 48.837072) (xy 98.724186 48.775419)
        (xy 98.544581 48.955024) (xy 98.544581 48.595814) (xy 98.482928 48.360202) (xy 97.98252 48.184076) (xy 97.452802 48.212854)
        (xy 97.097072 48.360202) (xy 97.035419 48.595814) (xy 97.79 49.350395) (xy 98.544581 48.595814) (xy 98.544581 48.955024)
        (xy 97.969605 49.53) (xy 98.724186 50.284581) (xy 98.959798 50.222928) (xy 99.135924 49.72252) (xy 99.135924 52.338293)
        (xy 97.669634 50.872004) (xy 98.127198 50.847146) (xy 98.482928 50.699798) (xy 98.544581 50.464186) (xy 97.79 49.709605)
        (xy 97.775857 49.723747) (xy 97.596252 49.544142) (xy 97.610395 49.53) (xy 96.855814 48.775419) (xy 96.620202 48.837072)
        (xy 96.444076 49.33748) (xy 96.461825 49.664195) (xy 93.786358 46.988727) (xy 93.786358 44.435963) (xy 92.71 43.359605)
        (xy 91.633642 44.435963) (xy 91.749807 44.717657) (xy 92.411333 44.96806) (xy 93.118329 44.946247) (xy 93.670193 44.717657)
        (xy 93.786358 44.435963) (xy 93.786358 46.988727) (xy 90.932 44.134369) (xy 90.932 43.207394) (xy 90.943753 43.588329)
        (xy 91.172343 44.140193) (xy 91.454037 44.256358) (xy 92.530395 43.18) (xy 91.454037 42.103642) (xy 91.172343 42.219807)
        (xy 90.932 42.854756) (xy 90.932 42.22563) (xy 92.116156 41.041474) (xy 92.165671 41.074559) (xy 92.71 41.182833)
        (xy 93.254329 41.074559) (xy 93.715789 40.766222) (xy 93.98 40.370801) (xy 94.244211 40.766222) (xy 94.488 40.929116)
        (xy 94.488 43.152605) (xy 94.476247 42.771671) (xy 94.247657 42.219807) (xy 93.965963 42.103642) (xy 93.786358 42.283247)
        (xy 93.786358 41.924037) (xy 93.670193 41.642343) (xy 93.008667 41.39194) (xy 92.301671 41.413753) (xy 91.749807 41.642343)
        (xy 91.633642 41.924037) (xy 92.71 43.000395) (xy 93.786358 41.924037) (xy 93.786358 42.283247) (xy 92.889605 43.18)
        (xy 93.965963 44.256358) (xy 94.247657 44.140193) (xy 94.488 43.505243) (xy 94.488 45.72) (xy 94.546004 46.011605)
        (xy 94.711185 46.258815) (xy 95.981184 47.528815) (xy 95.981185 47.528815) (xy 96.228395 47.693996) (xy 96.52 47.752)
        (xy 101.284369 47.752) (xy 102.108 48.57563) (xy 102.108 54.61) (xy 102.166004 54.901605) (xy 102.331185 55.148815)
        (xy 105.794726 58.612357)
      )
    )
    (filled_polygon
      (pts
        (xy 110.998 30.038214) (xy 110.49 29.937167) (xy 109.945671 30.045441) (xy 109.484211 30.353778) (xy 109.22 30.749198)
        (xy 108.955789 30.353778) (xy 108.494329 30.045441) (xy 107.95 29.937167) (xy 107.405671 30.045441) (xy 106.944211 30.353778)
        (xy 106.68 30.749198) (xy 106.415789 30.353778) (xy 105.954329 30.045441) (xy 105.41 29.937167) (xy 104.865671 30.045441)
        (xy 104.404211 30.353778) (xy 104.095874 30.815238) (xy 104.076666 30.9118) (xy 101.947194 30.9118) (xy 99.09358 28.058186)
        (xy 99.405946 28.042372) (xy 99.785793 27.885034) (xy 99.854165 27.64377) (xy 99.06 26.849605) (xy 99.045857 26.863747)
        (xy 98.866252 26.684142) (xy 98.880395 26.67) (xy 98.08623 25.875835) (xy 97.844966 25.944207) (xy 97.788065 26.103987)
        (xy 97.697468 25.884726) (xy 97.307327 25.493904) (xy 97.081255 25.40003) (xy 97.305274 25.307468) (xy 97.696096 24.917327)
        (xy 97.789969 24.691255) (xy 97.882532 24.915274) (xy 98.272673 25.306096) (xy 98.482882 25.393382) (xy 98.334207 25.454966)
        (xy 98.265835 25.69623) (xy 99.06 26.490395) (xy 99.854165 25.69623) (xy 99.785793 25.454966) (xy 99.626012 25.398065)
        (xy 99.845274 25.307468) (xy 100.236096 24.917327) (xy 100.329969 24.691255) (xy 100.422532 24.915274) (xy 100.812673 25.306096)
        (xy 101.038744 25.399969) (xy 100.814726 25.492532) (xy 100.423904 25.882673) (xy 100.336617 26.092882) (xy 100.275034 25.944207)
        (xy 100.03377 25.875835) (xy 99.239605 26.67) (xy 100.03377 27.464165) (xy 100.275034 27.395793) (xy 100.331934 27.236012)
        (xy 100.422532 27.455274) (xy 100.812673 27.846096) (xy 101.322677 28.057868) (xy 101.874901 28.05835) (xy 102.385274 27.847468)
        (xy 102.776096 27.457327) (xy 102.869969 27.231255) (xy 102.962532 27.455274) (xy 103.352673 27.846096) (xy 103.862677 28.057868)
        (xy 104.414901 28.05835) (xy 104.925274 27.847468) (xy 105.316096 27.457327) (xy 105.409969 27.231255) (xy 105.502532 27.455274)
        (xy 105.892673 27.846096) (xy 106.402677 28.057868) (xy 106.954901 28.05835) (xy 107.465274 27.847468) (xy 107.856096 27.457327)
        (xy 108.067868 26.947323) (xy 108.06835 26.395099) (xy 107.857468 25.884726) (xy 107.467327 25.493904) (xy 107.241255 25.40003)
        (xy 107.465274 25.307468) (xy 107.856096 24.917327) (xy 108.067868 24.407323) (xy 108.06835 23.855099) (xy 107.857468 23.344726)
        (xy 107.467327 22.953904) (xy 106.957323 22.742132) (xy 106.405099 22.74165) (xy 105.894726 22.952532) (xy 105.503904 23.342673)
        (xy 105.41003 23.568744) (xy 105.317468 23.344726) (xy 104.927327 22.953904) (xy 104.417323 22.742132) (xy 103.865099 22.74165)
        (xy 103.354726 22.952532) (xy 102.963904 23.342673) (xy 102.87003 23.568744) (xy 102.777468 23.344726) (xy 102.387327 22.953904)
        (xy 101.877323 22.742132) (xy 101.325099 22.74165) (xy 100.814726 22.952532) (xy 100.423904 23.342673) (xy 100.33003 23.568744)
        (xy 100.237468 23.344726) (xy 99.847327 22.953904) (xy 99.337323 22.742132) (xy 98.785099 22.74165) (xy 98.274726 22.952532)
        (xy 97.883904 23.342673) (xy 97.79003 23.568744) (xy 97.697468 23.344726) (xy 97.405441 23.052189) (xy 98.10563 22.352)
        (xy 110.174369 22.352) (xy 110.998 23.17563) (xy 110.998 30.038214)
      )
    )
    (filled_polygon
      (pts
        (xy 115.451369 53.374024) (xy 115.017236 54.190509) (xy 112.526405 56.681341) (xy 112.377916 56.903571) (xy 112.325773 57.165709)
        (xy 112.345 57.262368) (xy 112.345 64.486264) (xy 111.476264 65.355) (xy 108.550394 65.355) (xy 109.812697 64.092697)
        (xy 109.994396 63.820766) (xy 109.994396 63.820765) (xy 110.0582 63.5) (xy 110.0582 58.767194) (xy 115.451369 53.374024)
      )
    )
    (filled_polygon
      (pts
        (xy 116.0018 50.452806) (xy 112.903 53.551605) (xy 112.903 40.982851) (xy 112.903 39.497) (xy 112.883 39.497)
        (xy 112.883 39.243) (xy 112.903 39.243) (xy 112.903 37.757149) (xy 112.68294 37.63499) (xy 112.603004 37.651673)
        (xy 112.114014 37.918809) (xy 111.764475 38.352738) (xy 111.759753 38.368829) (xy 111.495789 37.973778) (xy 111.034329 37.665441)
        (xy 110.49 37.557167) (xy 109.945671 37.665441) (xy 109.484211 37.973778) (xy 109.22 38.369198) (xy 108.955789 37.973778)
        (xy 108.494329 37.665441) (xy 107.95 37.557167) (xy 107.405671 37.665441) (xy 106.944211 37.973778) (xy 106.83251 38.14095)
        (xy 106.83251 38.101245) (xy 106.736041 37.867771) (xy 106.557568 37.688987) (xy 106.324264 37.592111) (xy 106.071645 37.59189)
        (xy 104.496845 37.59189) (xy 104.263371 37.688359) (xy 104.084587 37.866832) (xy 103.987711 38.100136) (xy 103.98749 38.352755)
        (xy 103.98749 40.638755) (xy 104.083959 40.872229) (xy 104.262432 41.051013) (xy 104.495736 41.147889) (xy 104.622617 41.148)
        (xy 99.2124 41.148) (xy 99.2124 39.8526) (xy 99.2124 39.497) (xy 99.2124 39.243) (xy 99.2124 38.8874)
        (xy 99.055525 38.352738) (xy 98.705986 37.918809) (xy 98.216996 37.651673) (xy 98.13706 37.63499) (xy 97.917 37.757149)
        (xy 97.917 39.243) (xy 99.2124 39.243) (xy 99.2124 39.497) (xy 97.917 39.497) (xy 97.917 40.982851)
        (xy 98.13706 41.10501) (xy 98.216996 41.088327) (xy 98.705986 40.821191) (xy 99.055525 40.387262) (xy 99.2124 39.8526)
        (xy 99.2124 41.148) (xy 99.06 41.148) (xy 98.768395 41.206004) (xy 98.521184 41.371185) (xy 97.251185 42.641185)
        (xy 97.086004 42.888395) (xy 97.029983 43.170028) (xy 96.95659 43.200354) (xy 96.541811 43.61441) (xy 96.317057 44.155677)
        (xy 96.316546 44.741752) (xy 96.540354 45.28341) (xy 96.95441 45.698189) (xy 97.495677 45.922943) (xy 98.081752 45.923454)
        (xy 98.62341 45.699646) (xy 99.038189 45.28559) (xy 99.059775 45.233605) (xy 99.080354 45.28341) (xy 99.49441 45.698189)
        (xy 100.035677 45.922943) (xy 100.621752 45.923454) (xy 101.16341 45.699646) (xy 101.578189 45.28559) (xy 101.599775 45.233605)
        (xy 101.620354 45.28341) (xy 102.03441 45.698189) (xy 102.109896 45.729533) (xy 102.166004 46.011605) (xy 102.331185 46.258815)
        (xy 103.601184 47.528815) (xy 103.601185 47.528815) (xy 103.848395 47.693996) (xy 104.14 47.752) (xy 109.22 47.752)
        (xy 109.22 47.751999) (xy 109.511604 47.693996) (xy 109.511605 47.693996) (xy 109.758815 47.528815) (xy 111.028815 46.258816)
        (xy 111.028815 46.258815) (xy 111.193996 46.011605) (xy 111.251999 45.72) (xy 111.252 45.72) (xy 111.252 45.646703)
        (xy 111.280303 45.635009) (xy 111.673628 45.24237) (xy 111.886756 44.729099) (xy 111.887241 44.173339) (xy 111.675009 43.659697)
        (xy 111.28237 43.266372) (xy 110.769099 43.053244) (xy 110.213339 43.052759) (xy 109.699697 43.264991) (xy 109.306372 43.65763)
        (xy 109.093244 44.170901) (xy 109.092759 44.726661) (xy 109.304991 45.240303) (xy 109.598272 45.534096) (xy 108.904369 46.228)
        (xy 104.45563 46.228) (xy 103.81544 45.58781) (xy 104.118189 45.28559) (xy 104.139775 45.233605) (xy 104.160354 45.28341)
        (xy 104.57441 45.698189) (xy 105.115677 45.922943) (xy 105.701752 45.923454) (xy 106.24341 45.699646) (xy 106.658189 45.28559)
        (xy 106.689533 45.210103) (xy 106.971604 45.153996) (xy 106.971605 45.153996) (xy 107.218815 44.988815) (xy 111.028815 41.178816)
        (xy 111.028815 41.178815) (xy 111.150216 40.997125) (xy 111.495789 40.766222) (xy 111.759753 40.37117) (xy 111.764475 40.387262)
        (xy 112.114014 40.821191) (xy 112.603004 41.088327) (xy 112.68294 41.10501) (xy 112.903 40.982851) (xy 112.903 53.551605)
        (xy 111.886642 54.567963) (xy 111.87136 54.262631) (xy 111.712396 53.878858) (xy 111.470212 53.809393) (xy 111.290607 53.988998)
        (xy 111.290607 53.629788) (xy 111.221142 53.387604) (xy 110.697696 53.200857) (xy 110.142631 53.22864) (xy 109.758858 53.387604)
        (xy 109.689393 53.629788) (xy 110.49 54.430395) (xy 111.290607 53.629788) (xy 111.290607 53.988998) (xy 110.669605 54.61)
        (xy 110.683747 54.624142) (xy 110.504142 54.803747) (xy 110.49 54.789605) (xy 110.310395 54.96921) (xy 110.310395 54.61)
        (xy 109.509788 53.809393) (xy 109.267604 53.878858) (xy 109.080857 54.402304) (xy 109.10864 54.957369) (xy 109.267604 55.341142)
        (xy 109.509788 55.410607) (xy 110.310395 54.61) (xy 110.310395 54.96921) (xy 109.689393 55.590212) (xy 109.758858 55.832396)
        (xy 110.282304 56.019143) (xy 110.443533 56.011072) (xy 108.627303 57.827303) (xy 108.445604 58.099234) (xy 108.3818 58.42)
        (xy 108.3818 63.152806) (xy 107.602806 63.9318) (xy 99.854165 63.9318) (xy 99.854165 63.20377) (xy 99.06 62.409605)
        (xy 98.265835 63.20377) (xy 98.334207 63.445034) (xy 98.854428 63.630294) (xy 99.405946 63.602372) (xy 99.785793 63.445034)
        (xy 99.854165 63.20377) (xy 99.854165 63.9318) (xy 98.137194 63.9318) (xy 97.459202 63.253808) (xy 97.696096 63.017327)
        (xy 97.783382 62.807117) (xy 97.844966 62.955793) (xy 98.08623 63.024165) (xy 98.880395 62.23) (xy 98.08623 61.435835)
        (xy 97.844966 61.504207) (xy 97.788065 61.663987) (xy 97.697468 61.444726) (xy 97.307327 61.053904) (xy 97.081255 60.96003)
        (xy 97.305274 60.867468) (xy 97.696096 60.477327) (xy 97.789969 60.251255) (xy 97.882532 60.475274) (xy 98.272673 60.866096)
        (xy 98.482882 60.953382) (xy 98.334207 61.014966) (xy 98.265835 61.25623) (xy 99.06 62.050395) (xy 99.854165 61.25623)
        (xy 99.785793 61.014966) (xy 99.626012 60.958065) (xy 99.845274 60.867468) (xy 100.236096 60.477327) (xy 100.329969 60.251255)
        (xy 100.422532 60.475274) (xy 100.812673 60.866096) (xy 101.038744 60.959969) (xy 100.814726 61.052532) (xy 100.423904 61.442673)
        (xy 100.336617 61.652882) (xy 100.275034 61.504207) (xy 100.03377 61.435835) (xy 99.239605 62.23) (xy 100.03377 63.024165)
        (xy 100.275034 62.955793) (xy 100.331934 62.796012) (xy 100.422532 63.015274) (xy 100.812673 63.406096) (xy 101.322677 63.617868)
        (xy 101.874901 63.61835) (xy 102.385274 63.407468) (xy 102.776096 63.017327) (xy 102.869969 62.791255) (xy 102.962532 63.015274)
        (xy 103.352673 63.406096) (xy 103.862677 63.617868) (xy 104.414901 63.61835) (xy 104.925274 63.407468) (xy 105.316096 63.017327)
        (xy 105.409969 62.791255) (xy 105.502532 63.015274) (xy 105.892673 63.406096) (xy 106.402677 63.617868) (xy 106.954901 63.61835)
        (xy 107.465274 63.407468) (xy 107.856096 63.017327) (xy 108.067868 62.507323) (xy 108.06835 61.955099) (xy 107.857468 61.444726)
        (xy 107.467327 61.053904) (xy 107.241255 60.96003) (xy 107.465274 60.867468) (xy 107.856096 60.477327) (xy 108.067868 59.967323)
        (xy 108.06835 59.415099) (xy 107.857468 58.904726) (xy 107.467327 58.513904) (xy 107.442 58.503387) (xy 107.442 58.42)
        (xy 107.383996 58.128395) (xy 107.218815 57.881185) (xy 107.218815 57.881184) (xy 106.755924 57.418293) (xy 106.755924 49.72252)
        (xy 106.727146 49.192802) (xy 106.579798 48.837072) (xy 106.344186 48.775419) (xy 106.164581 48.955024) (xy 106.164581 48.595814)
        (xy 106.102928 48.360202) (xy 105.60252 48.184076) (xy 105.072802 48.212854) (xy 104.717072 48.360202) (xy 104.655419 48.595814)
        (xy 105.41 49.350395) (xy 106.164581 48.595814) (xy 106.164581 48.955024) (xy 105.589605 49.53) (xy 106.344186 50.284581)
        (xy 106.579798 50.222928) (xy 106.755924 49.72252) (xy 106.755924 57.418293) (xy 105.281017 55.943386) (xy 105.674086 55.94373)
        (xy 106.16438 55.741145) (xy 106.539826 55.366353) (xy 106.743267 54.876413) (xy 106.74373 54.345914) (xy 106.541145 53.85562)
        (xy 106.166353 53.480174) (xy 106.164581 53.479438) (xy 106.164581 50.464186) (xy 105.41 49.709605) (xy 105.230395 49.88921)
        (xy 105.230395 49.53) (xy 104.475814 48.775419) (xy 104.240202 48.837072) (xy 104.064076 49.33748) (xy 104.092854 49.867198)
        (xy 104.240202 50.222928) (xy 104.475814 50.284581) (xy 105.230395 49.53) (xy 105.230395 49.88921) (xy 104.655419 50.464186)
        (xy 104.717072 50.699798) (xy 105.21748 50.875924) (xy 105.747198 50.847146) (xy 106.102928 50.699798) (xy 106.164581 50.464186)
        (xy 106.164581 53.479438) (xy 105.676413 53.276733) (xy 105.145914 53.27627) (xy 104.65562 53.478855) (xy 104.280174 53.853647)
        (xy 104.076733 54.343587) (xy 104.076388 54.738757) (xy 103.632 54.294369) (xy 103.632 48.26) (xy 103.573996 47.968395)
        (xy 103.408815 47.721185) (xy 103.408815 47.721184) (xy 102.138815 46.451185) (xy 101.891605 46.286004) (xy 101.6 46.228)
        (xy 96.83563 46.228) (xy 96.012 45.404369) (xy 96.012 40.929116) (xy 96.255789 40.766222) (xy 96.519753 40.37117)
        (xy 96.524475 40.387262) (xy 96.874014 40.821191) (xy 97.363004 41.088327) (xy 97.44294 41.10501) (xy 97.663 40.982851)
        (xy 97.663 39.497) (xy 97.643 39.497) (xy 97.643 39.243) (xy 97.663 39.243) (xy 97.663 37.757149)
        (xy 97.44294 37.63499) (xy 97.363004 37.651673) (xy 96.874014 37.918809) (xy 96.524475 38.352738) (xy 96.519753 38.368829)
        (xy 96.255789 37.973778) (xy 95.794329 37.665441) (xy 95.25 37.557167) (xy 94.705671 37.665441) (xy 94.244211 37.973778)
        (xy 93.98 38.369198) (xy 93.715789 37.973778) (xy 93.254329 37.665441) (xy 92.71 37.557167) (xy 92.165671 37.665441)
        (xy 91.704211 37.973778) (xy 91.44 38.369198) (xy 91.175789 37.973778) (xy 90.714329 37.665441) (xy 90.17 37.557167)
        (xy 89.625671 37.665441) (xy 89.164211 37.973778) (xy 88.855874 38.435238) (xy 88.7476 38.979567) (xy 88.7476 39.760433)
        (xy 88.855874 40.304762) (xy 89.084877 40.647491) (xy 88.392 41.340369) (xy 88.392 37.14563) (xy 89.21563 36.322)
        (xy 92.71 36.322) (xy 92.71 36.321999) (xy 93.001604 36.263996) (xy 93.001605 36.263996) (xy 93.248815 36.098815)
        (xy 95.788815 33.558816) (xy 95.788815 33.558815) (xy 95.910216 33.377125) (xy 96.255789 33.146222) (xy 96.36749 32.979049)
        (xy 96.36749 33.018755) (xy 96.463959 33.252229) (xy 96.642432 33.431013) (xy 96.875736 33.527889) (xy 97.128355 33.52811)
        (xy 98.703155 33.52811) (xy 98.936629 33.431641) (xy 99.115413 33.253168) (xy 99.19239 33.067784) (xy 102.2773 36.152693)
        (xy 102.277303 36.152697) (xy 102.549234 36.334395) (xy 102.549235 36.334396) (xy 102.87 36.3982) (xy 113.952806 36.3982)
        (xy 114.7318 37.177194) (xy 114.7318 41.602538) (xy 114.56416 41.671806) (xy 114.4524 41.783371) (xy 114.4524 39.8526)
        (xy 114.4524 39.497) (xy 114.4524 39.243) (xy 114.4524 38.8874) (xy 114.295525 38.352738) (xy 113.945986 37.918809)
        (xy 113.456996 37.651673) (xy 113.37706 37.63499) (xy 113.157 37.757149) (xy 113.157 39.243) (xy 114.4524 39.243)
        (xy 114.4524 39.497) (xy 113.157 39.497) (xy 113.157 40.982851) (xy 113.37706 41.10501) (xy 113.456996 41.088327)
        (xy 113.945986 40.821191) (xy 114.295525 40.387262) (xy 114.4524 39.8526) (xy 114.4524 41.783371) (xy 114.063564 42.171529)
        (xy 113.792309 42.824782) (xy 113.791692 43.532114) (xy 114.061806 44.18584) (xy 114.561529 44.686436) (xy 115.214782 44.957691)
        (xy 115.922114 44.958308) (xy 116.0018 44.925382) (xy 116.0018 49.53) (xy 116.0018 50.452806)
      )
    )
    (filled_polygon
      (pts
        (xy 118.863119 41.429219) (xy 118.213095 48.179972) (xy 117.6782 49.185965) (xy 117.6782 44.45) (xy 117.614396 44.129235)
        (xy 117.614396 44.129234) (xy 117.432697 43.857303) (xy 117.27813 43.702736) (xy 117.347691 43.535218) (xy 117.348308 42.827886)
        (xy 117.078194 42.17416) (xy 116.578471 41.673564) (xy 116.4082 41.602861) (xy 116.4082 36.83) (xy 116.344396 36.509235)
        (xy 116.344396 36.509234) (xy 116.162697 36.237303) (xy 114.892697 34.967303) (xy 114.620766 34.785604) (xy 114.3 34.7218)
        (xy 103.217193 34.7218) (xy 99.652697 31.157303) (xy 99.380766 30.975604) (xy 99.21251 30.942136) (xy 99.21251 30.942135)
        (xy 99.21251 30.547904) (xy 101.007302 32.342696) (xy 101.007303 32.342697) (xy 101.279234 32.524395) (xy 101.279235 32.524396)
        (xy 101.536195 32.575508) (xy 101.599999 32.5882) (xy 101.599999 32.588199) (xy 101.6 32.5882) (xy 104.076666 32.5882)
        (xy 104.095874 32.684762) (xy 104.404211 33.146222) (xy 104.865671 33.454559) (xy 105.41 33.562833) (xy 105.954329 33.454559)
        (xy 106.415789 33.146222) (xy 106.68 32.750801) (xy 106.944211 33.146222) (xy 107.405671 33.454559) (xy 107.95 33.562833)
        (xy 108.494329 33.454559) (xy 108.955789 33.146222) (xy 109.22 32.750801) (xy 109.484211 33.146222) (xy 109.945671 33.454559)
        (xy 110.49 33.562833) (xy 111.034329 33.454559) (xy 111.495789 33.146222) (xy 111.76 32.750801) (xy 112.024211 33.146222)
        (xy 112.485671 33.454559) (xy 113.03 33.562833) (xy 113.574329 33.454559) (xy 114.035789 33.146222) (xy 114.344126 32.684762)
        (xy 114.4524 32.140433) (xy 114.4524 32.012421) (xy 116.887098 34.965946) (xy 118.863119 41.429219)
      )
    )
  )
  (zone (net 14) (net_name GND) (layer B.Cu) (tstamp 551B40D8) (hatch edge 0.508)
    (connect_pads thru_hole_only (clearance 0.508))
    (min_thickness 0.254)
    (fill (arc_segments 16) (thermal_gap 0.508) (thermal_bridge_width 0.508))
    (polygon
      (pts
        (xy 121.92 17.78) (xy 80.01 17.78) (xy 80.01 68.58) (xy 123.19 68.58) (xy 123.19 17.78)
        (xy 121.92 17.78)
      )
    )
    (filled_polygon
      (pts
        (xy 118.863119 41.429219) (xy 118.213095 48.179972) (xy 117.348308 49.806399) (xy 117.348308 42.827886) (xy 117.078194 42.17416)
        (xy 116.578471 41.673564) (xy 115.925218 41.402309) (xy 115.217886 41.401692) (xy 114.56416 41.671806) (xy 114.4524 41.783371)
        (xy 114.4524 39.8526) (xy 114.4524 39.497) (xy 114.4524 39.243) (xy 114.4524 38.8874) (xy 114.295525 38.352738)
        (xy 113.945986 37.918809) (xy 113.456996 37.651673) (xy 113.37706 37.63499) (xy 113.157 37.757149) (xy 113.157 39.243)
        (xy 114.4524 39.243) (xy 114.4524 39.497) (xy 113.157 39.497) (xy 113.157 40.982851) (xy 113.37706 41.10501)
        (xy 113.456996 41.088327) (xy 113.945986 40.821191) (xy 114.295525 40.387262) (xy 114.4524 39.8526) (xy 114.4524 41.783371)
        (xy 114.063564 42.171529) (xy 113.792309 42.824782) (xy 113.791692 43.532114) (xy 114.061806 44.18584) (xy 114.561529 44.686436)
        (xy 115.214782 44.957691) (xy 115.922114 44.958308) (xy 116.57584 44.688194) (xy 117.076436 44.188471) (xy 117.347691 43.535218)
        (xy 117.348308 42.827886) (xy 117.348308 49.806399) (xy 115.017236 54.190509) (xy 112.526405 56.681341) (xy 112.377916 56.903571)
        (xy 112.325773 57.165709) (xy 112.345 57.262368) (xy 112.345 64.486264) (xy 111.899143 64.932121) (xy 111.899143 54.817696)
        (xy 111.887241 54.57991) (xy 111.887241 44.173339) (xy 111.675009 43.659697) (xy 111.28237 43.266372) (xy 110.769099 43.053244)
        (xy 110.213339 43.052759) (xy 109.699697 43.264991) (xy 109.306372 43.65763) (xy 109.093244 44.170901) (xy 109.092759 44.726661)
        (xy 109.304991 45.240303) (xy 109.69763 45.633628) (xy 110.210901 45.846756) (xy 110.766661 45.847241) (xy 111.280303 45.635009)
        (xy 111.673628 45.24237) (xy 111.886756 44.729099) (xy 111.887241 44.173339) (xy 111.887241 54.57991) (xy 111.87136 54.262631)
        (xy 111.712396 53.878858) (xy 111.470212 53.809393) (xy 111.290607 53.988998) (xy 111.290607 53.629788) (xy 111.221142 53.387604)
        (xy 110.697696 53.200857) (xy 110.142631 53.22864) (xy 109.758858 53.387604) (xy 109.689393 53.629788) (xy 110.49 54.430395)
        (xy 111.290607 53.629788) (xy 111.290607 53.988998) (xy 110.669605 54.61) (xy 111.470212 55.410607) (xy 111.712396 55.341142)
        (xy 111.899143 54.817696) (xy 111.899143 64.932121) (xy 111.476264 65.355) (xy 111.290607 65.355) (xy 111.290607 55.590212)
        (xy 110.49 54.789605) (xy 110.310395 54.96921) (xy 110.310395 54.61) (xy 109.509788 53.809393) (xy 109.267604 53.878858)
        (xy 109.080857 54.402304) (xy 109.10864 54.957369) (xy 109.267604 55.341142) (xy 109.509788 55.410607) (xy 110.310395 54.61)
        (xy 110.310395 54.96921) (xy 109.689393 55.590212) (xy 109.758858 55.832396) (xy 110.282304 56.019143) (xy 110.837369 55.99136)
        (xy 111.221142 55.832396) (xy 111.290607 55.590212) (xy 111.290607 65.355) (xy 108.06835 65.355) (xy 108.06835 61.955099)
        (xy 107.857468 61.444726) (xy 107.467327 61.053904) (xy 107.241255 60.96003) (xy 107.465274 60.867468) (xy 107.856096 60.477327)
        (xy 108.067868 59.967323) (xy 108.06835 59.415099) (xy 107.857468 58.904726) (xy 107.467327 58.513904) (xy 106.957323 58.302132)
        (xy 106.405099 58.30165) (xy 105.894726 58.512532) (xy 105.503904 58.902673) (xy 105.41003 59.128744) (xy 105.317468 58.904726)
        (xy 104.927327 58.513904) (xy 104.417323 58.302132) (xy 103.865099 58.30165) (xy 103.354726 58.512532) (xy 102.963904 58.902673)
        (xy 102.87003 59.128744) (xy 102.777468 58.904726) (xy 102.387327 58.513904) (xy 101.877323 58.302132) (xy 101.325099 58.30165)
        (xy 100.814726 58.512532) (xy 100.423904 58.902673) (xy 100.33003 59.128744) (xy 100.237468 58.904726) (xy 99.847327 58.513904)
        (xy 99.337323 58.302132) (xy 98.785099 58.30165) (xy 98.274726 58.512532) (xy 97.883904 58.902673) (xy 97.79003 59.128744)
        (xy 97.697468 58.904726) (xy 97.307327 58.513904) (xy 96.797323 58.302132) (xy 96.245099 58.30165) (xy 95.734726 58.512532)
        (xy 95.343904 58.902673) (xy 95.132132 59.412677) (xy 95.13165 59.964901) (xy 95.342532 60.475274) (xy 95.732673 60.866096)
        (xy 95.958744 60.959969) (xy 95.734726 61.052532) (xy 95.343904 61.442673) (xy 95.132132 61.952677) (xy 95.13165 62.504901)
        (xy 95.342532 63.015274) (xy 95.732673 63.406096) (xy 96.242677 63.617868) (xy 96.794901 63.61835) (xy 97.305274 63.407468)
        (xy 97.696096 63.017327) (xy 97.783382 62.807117) (xy 97.844966 62.955793) (xy 98.08623 63.024165) (xy 98.880395 62.23)
        (xy 98.08623 61.435835) (xy 97.844966 61.504207) (xy 97.788065 61.663987) (xy 97.697468 61.444726) (xy 97.307327 61.053904)
        (xy 97.081255 60.96003) (xy 97.305274 60.867468) (xy 97.696096 60.477327) (xy 97.789969 60.251255) (xy 97.882532 60.475274)
        (xy 98.272673 60.866096) (xy 98.482882 60.953382) (xy 98.334207 61.014966) (xy 98.265835 61.25623) (xy 99.06 62.050395)
        (xy 99.854165 61.25623) (xy 99.785793 61.014966) (xy 99.626012 60.958065) (xy 99.845274 60.867468) (xy 100.236096 60.477327)
        (xy 100.329969 60.251255) (xy 100.422532 60.475274) (xy 100.812673 60.866096) (xy 101.038744 60.959969) (xy 100.814726 61.052532)
        (xy 100.423904 61.442673) (xy 100.336617 61.652882) (xy 100.275034 61.504207) (xy 100.03377 61.435835) (xy 99.239605 62.23)
        (xy 100.03377 63.024165) (xy 100.275034 62.955793) (xy 100.331934 62.796012) (xy 100.422532 63.015274) (xy 100.812673 63.406096)
        (xy 101.322677 63.617868) (xy 101.874901 63.61835) (xy 102.385274 63.407468) (xy 102.776096 63.017327) (xy 102.869969 62.791255)
        (xy 102.962532 63.015274) (xy 103.352673 63.406096) (xy 103.862677 63.617868) (xy 104.414901 63.61835) (xy 104.925274 63.407468)
        (xy 105.316096 63.017327) (xy 105.409969 62.791255) (xy 105.502532 63.015274) (xy 105.892673 63.406096) (xy 106.402677 63.617868)
        (xy 106.954901 63.61835) (xy 107.465274 63.407468) (xy 107.856096 63.017327) (xy 108.067868 62.507323) (xy 108.06835 61.955099)
        (xy 108.06835 65.355) (xy 99.854165 65.355) (xy 99.854165 63.20377) (xy 99.06 62.409605) (xy 98.265835 63.20377)
        (xy 98.334207 63.445034) (xy 98.854428 63.630294) (xy 99.405946 63.602372) (xy 99.785793 63.445034) (xy 99.854165 63.20377)
        (xy 99.854165 65.355) (xy 94.49806 65.355) (xy 94.49806 43.478667) (xy 94.476247 42.771671) (xy 94.247657 42.219807)
        (xy 93.965963 42.103642) (xy 93.786358 42.283247) (xy 93.786358 41.924037) (xy 93.670193 41.642343) (xy 93.008667 41.39194)
        (xy 92.301671 41.413753) (xy 91.749807 41.642343) (xy 91.633642 41.924037) (xy 92.71 43.000395) (xy 93.786358 41.924037)
        (xy 93.786358 42.283247) (xy 92.889605 43.18) (xy 93.965963 44.256358) (xy 94.247657 44.140193) (xy 94.49806 43.478667)
        (xy 94.49806 65.355) (xy 93.786358 65.355) (xy 93.786358 44.435963) (xy 92.71 43.359605) (xy 92.530395 43.53921)
        (xy 92.530395 43.18) (xy 91.454037 42.103642) (xy 91.172343 42.219807) (xy 90.92194 42.881333) (xy 90.943753 43.588329)
        (xy 91.172343 44.140193) (xy 91.454037 44.256358) (xy 92.530395 43.18) (xy 92.530395 43.53921) (xy 91.633642 44.435963)
        (xy 91.749807 44.717657) (xy 92.411333 44.96806) (xy 93.118329 44.946247) (xy 93.670193 44.717657) (xy 93.786358 44.435963)
        (xy 93.786358 65.355) (xy 91.723736 65.355) (xy 91.440219 65.071483) (xy 91.440219 51.81849) (xy 91.247281 51.351543)
        (xy 90.890336 50.993975) (xy 90.423727 50.800222) (xy 89.91849 50.799781) (xy 89.451543 50.992719) (xy 89.093975 51.349664)
        (xy 88.900222 51.816273) (xy 88.899781 52.32151) (xy 89.092719 52.788457) (xy 89.449664 53.146025) (xy 89.916273 53.339778)
        (xy 90.42151 53.340219) (xy 90.888457 53.147281) (xy 91.246025 52.790336) (xy 91.439778 52.323727) (xy 91.440219 51.81849)
        (xy 91.440219 65.071483) (xy 90.855 64.486264) (xy 90.855 57.214514) (xy 90.855584 57.212574) (xy 90.855 57.206774)
        (xy 90.855 57.15) (xy 90.843421 57.091793) (xy 90.828806 56.946645) (xy 90.806169 56.904516) (xy 90.802857 56.887862)
        (xy 90.774079 56.844793) (xy 90.702301 56.711206) (xy 87.912812 53.327285) (xy 88.348457 53.147281) (xy 88.706025 52.790336)
        (xy 88.899778 52.323727) (xy 88.900219 51.81849) (xy 88.707281 51.351543) (xy 88.350336 50.993975) (xy 87.883727 50.800222)
        (xy 87.37849 50.799781) (xy 86.911543 50.992719) (xy 86.553975 51.349664) (xy 86.463064 51.5686) (xy 86.317252 51.391716)
        (xy 84.334393 44.906075) (xy 84.982175 38.178601) (xy 88.175041 32.173694) (xy 88.7476 31.601136) (xy 88.7476 31.623)
        (xy 90.043 31.623) (xy 90.043 31.603) (xy 90.297 31.603) (xy 90.297 31.623) (xy 90.317 31.623)
        (xy 90.317 31.877) (xy 90.297 31.877) (xy 90.297 33.362851) (xy 90.51706 33.48501) (xy 90.596996 33.468327)
        (xy 91.085986 33.201191) (xy 91.435525 32.767262) (xy 91.440246 32.75117) (xy 91.704211 33.146222) (xy 92.165671 33.454559)
        (xy 92.71 33.562833) (xy 93.254329 33.454559) (xy 93.715789 33.146222) (xy 93.98 32.750801) (xy 94.244211 33.146222)
        (xy 94.705671 33.454559) (xy 95.25 33.562833) (xy 95.794329 33.454559) (xy 96.255789 33.146222) (xy 96.36749 32.979049)
        (xy 96.36749 33.018755) (xy 96.463959 33.252229) (xy 96.642432 33.431013) (xy 96.875736 33.527889) (xy 97.128355 33.52811)
        (xy 98.703155 33.52811) (xy 98.936629 33.431641) (xy 99.115413 33.253168) (xy 99.212289 33.019864) (xy 99.21251 32.767245)
        (xy 99.21251 30.481245) (xy 99.116041 30.247771) (xy 98.937568 30.068987) (xy 98.704264 29.972111) (xy 98.451645 29.97189)
        (xy 96.876845 29.97189) (xy 96.643371 30.068359) (xy 96.464587 30.246832) (xy 96.367711 30.480136) (xy 96.367675 30.521227)
        (xy 96.255789 30.353778) (xy 95.794329 30.045441) (xy 95.25 29.937167) (xy 94.705671 30.045441) (xy 94.244211 30.353778)
        (xy 93.98 30.749198) (xy 93.715789 30.353778) (xy 93.254329 30.045441) (xy 92.71 29.937167) (xy 92.165671 30.045441)
        (xy 91.704211 30.353778) (xy 91.440246 30.748829) (xy 91.435525 30.732738) (xy 91.085986 30.298809) (xy 90.596996 30.031673)
        (xy 90.51706 30.01499) (xy 90.297002 30.137147) (xy 90.297002 30.051734) (xy 90.654368 29.694368) (xy 90.671836 29.6769)
        (xy 90.820325 29.45467) (xy 90.872468 29.192532) (xy 90.855 29.104715) (xy 90.855 21.873736) (xy 91.723736 21.005)
        (xy 111.476264 21.005) (xy 112.345 21.873736) (xy 112.345 29.21) (xy 112.364776 29.309423) (xy 112.374932 29.410274)
        (xy 112.390659 29.439545) (xy 112.397143 29.472138) (xy 112.453457 29.556418) (xy 112.501437 29.645714) (xy 112.782306 29.986436)
        (xy 112.485671 30.045441) (xy 112.024211 30.353778) (xy 111.76 30.749198) (xy 111.495789 30.353778) (xy 111.252 30.190883)
        (xy 111.252 29.21) (xy 111.193996 28.918395) (xy 111.028815 28.671185) (xy 111.028815 28.671184) (xy 109.758815 27.401185)
        (xy 109.511605 27.236004) (xy 109.22 27.178) (xy 108.26563 27.178) (xy 108.05821 26.97058) (xy 108.067868 26.947323)
        (xy 108.06835 26.395099) (xy 107.857468 25.884726) (xy 107.467327 25.493904) (xy 107.442 25.483387) (xy 107.442 25.317084)
        (xy 107.465274 25.307468) (xy 107.856096 24.917327) (xy 108.067868 24.407323) (xy 108.06835 23.855099) (xy 107.857468 23.344726)
        (xy 107.467327 22.953904) (xy 106.957323 22.742132) (xy 106.405099 22.74165) (xy 105.894726 22.952532) (xy 105.503904 23.342673)
        (xy 105.41003 23.568744) (xy 105.317468 23.344726) (xy 104.927327 22.953904) (xy 104.417323 22.742132) (xy 103.865099 22.74165)
        (xy 103.354726 22.952532) (xy 102.963904 23.342673) (xy 102.87003 23.568744) (xy 102.777468 23.344726) (xy 102.387327 22.953904)
        (xy 101.877323 22.742132) (xy 101.325099 22.74165) (xy 100.814726 22.952532) (xy 100.423904 23.342673) (xy 100.33003 23.568744)
        (xy 100.237468 23.344726) (xy 99.847327 22.953904) (xy 99.337323 22.742132) (xy 98.785099 22.74165) (xy 98.274726 22.952532)
        (xy 97.883904 23.342673) (xy 97.79003 23.568744) (xy 97.697468 23.344726) (xy 97.307327 22.953904) (xy 96.797323 22.742132)
        (xy 96.245099 22.74165) (xy 95.734726 22.952532) (xy 95.343904 23.342673) (xy 95.132132 23.852677) (xy 95.13165 24.404901)
        (xy 95.342532 24.915274) (xy 95.732673 25.306096) (xy 95.958744 25.399969) (xy 95.734726 25.492532) (xy 95.343904 25.882673)
        (xy 95.132132 26.392677) (xy 95.13165 26.944901) (xy 95.342532 27.455274) (xy 95.732673 27.846096) (xy 96.242677 28.057868)
        (xy 96.794901 28.05835) (xy 97.305274 27.847468) (xy 97.696096 27.457327) (xy 97.783382 27.247117) (xy 97.844966 27.395793)
        (xy 98.08623 27.464165) (xy 98.880395 26.67) (xy 98.08623 25.875835) (xy 97.844966 25.944207) (xy 97.788065 26.103987)
        (xy 97.697468 25.884726) (xy 97.307327 25.493904) (xy 97.081255 25.40003) (xy 97.305274 25.307468) (xy 97.696096 24.917327)
        (xy 97.789969 24.691255) (xy 97.882532 24.915274) (xy 98.272673 25.306096) (xy 98.482882 25.393382) (xy 98.334207 25.454966)
        (xy 98.265835 25.69623) (xy 99.06 26.490395) (xy 99.854165 25.69623) (xy 99.785793 25.454966) (xy 99.626012 25.398065)
        (xy 99.845274 25.307468) (xy 100.236096 24.917327) (xy 100.329969 24.691255) (xy 100.422532 24.915274) (xy 100.812673 25.306096)
        (xy 100.838 25.316612) (xy 100.838 25.482915) (xy 100.814726 25.492532) (xy 100.423904 25.882673) (xy 100.336617 26.092882)
        (xy 100.275034 25.944207) (xy 100.03377 25.875835) (xy 99.239605 26.67) (xy 100.03377 27.464165) (xy 100.275034 27.395793)
        (xy 100.331934 27.236012) (xy 100.422532 27.455274) (xy 100.812673 27.846096) (xy 100.838 27.856612) (xy 100.838 38.1)
        (xy 100.896004 38.391605) (xy 101.061185 38.638815) (xy 102.331184 39.908815) (xy 102.331185 39.908815) (xy 102.578395 40.073996)
        (xy 102.87 40.132) (xy 103.98749 40.132) (xy 103.98749 40.638755) (xy 104.083959 40.872229) (xy 104.262432 41.051013)
        (xy 104.495736 41.147889) (xy 104.748355 41.14811) (xy 104.850668 41.14811) (xy 104.871185 41.178815) (xy 107.188 43.49563)
        (xy 107.188 53.024369) (xy 106.883454 53.328915) (xy 106.883454 44.158248) (xy 106.659646 43.61659) (xy 106.24559 43.201811)
        (xy 105.704323 42.977057) (xy 105.118248 42.976546) (xy 104.57659 43.200354) (xy 104.161811 43.61441) (xy 104.140224 43.666394)
        (xy 104.119646 43.61659) (xy 103.70559 43.201811) (xy 103.164323 42.977057) (xy 102.578248 42.976546) (xy 102.03659 43.200354)
        (xy 101.621811 43.61441) (xy 101.600224 43.666394) (xy 101.579646 43.61659) (xy 101.16559 43.201811) (xy 100.624323 42.977057)
        (xy 100.038248 42.976546) (xy 99.854165 43.052607) (xy 99.854165 27.64377) (xy 99.06 26.849605) (xy 98.265835 27.64377)
        (xy 98.334207 27.885034) (xy 98.854428 28.070294) (xy 99.405946 28.042372) (xy 99.785793 27.885034) (xy 99.854165 27.64377)
        (xy 99.854165 43.052607) (xy 99.49659 43.200354) (xy 99.21251 43.483938) (xy 99.2124 43.484048) (xy 99.2124 39.8526)
        (xy 99.2124 39.497) (xy 99.2124 39.243) (xy 99.2124 38.8874) (xy 99.055525 38.352738) (xy 98.705986 37.918809)
        (xy 98.216996 37.651673) (xy 98.13706 37.63499) (xy 97.917 37.757149) (xy 97.917 39.243) (xy 99.2124 39.243)
        (xy 99.2124 39.497) (xy 97.917 39.497) (xy 97.917 40.982851) (xy 98.13706 41.10501) (xy 98.216996 41.088327)
        (xy 98.705986 40.821191) (xy 99.055525 40.387262) (xy 99.2124 39.8526) (xy 99.2124 43.484048) (xy 99.081811 43.61441)
        (xy 99.060224 43.666394) (xy 99.039646 43.61659) (xy 98.62559 43.201811) (xy 98.084323 42.977057) (xy 97.663 42.976689)
        (xy 97.663 40.982851) (xy 97.663 39.497) (xy 97.643 39.497) (xy 97.643 39.243) (xy 97.663 39.243)
        (xy 97.663 37.757149) (xy 97.44294 37.63499) (xy 97.363004 37.651673) (xy 96.874014 37.918809) (xy 96.524475 38.352738)
        (xy 96.519753 38.368829) (xy 96.255789 37.973778) (xy 95.794329 37.665441) (xy 95.25 37.557167) (xy 94.705671 37.665441)
        (xy 94.244211 37.973778) (xy 93.98 38.369198) (xy 93.715789 37.973778) (xy 93.254329 37.665441) (xy 92.71 37.557167)
        (xy 92.165671 37.665441) (xy 91.704211 37.973778) (xy 91.44 38.369198) (xy 91.175789 37.973778) (xy 90.714329 37.665441)
        (xy 90.17 37.557167) (xy 90.043 37.582428) (xy 90.043 33.362851) (xy 90.043 31.877) (xy 88.7476 31.877)
        (xy 88.7476 32.2326) (xy 88.904475 32.767262) (xy 89.254014 33.201191) (xy 89.743004 33.468327) (xy 89.82294 33.48501)
        (xy 90.043 33.362851) (xy 90.043 37.582428) (xy 89.625671 37.665441) (xy 89.164211 37.973778) (xy 88.855874 38.435238)
        (xy 88.7476 38.979567) (xy 88.7476 39.760433) (xy 88.855874 40.304762) (xy 89.164211 40.766222) (xy 89.625671 41.074559)
        (xy 90.17 41.182833) (xy 90.714329 41.074559) (xy 91.175789 40.766222) (xy 91.44 40.370801) (xy 91.704211 40.766222)
        (xy 92.165671 41.074559) (xy 92.71 41.182833) (xy 93.254329 41.074559) (xy 93.715789 40.766222) (xy 93.98 40.370801)
        (xy 94.244211 40.766222) (xy 94.705671 41.074559) (xy 95.25 41.182833) (xy 95.794329 41.074559) (xy 96.255789 40.766222)
        (xy 96.519753 40.37117) (xy 96.524475 40.387262) (xy 96.874014 40.821191) (xy 97.363004 41.088327) (xy 97.44294 41.10501)
        (xy 97.663 40.982851) (xy 97.663 42.976689) (xy 97.498248 42.976546) (xy 96.95659 43.200354) (xy 96.541811 43.61441)
        (xy 96.317057 44.155677) (xy 96.316546 44.741752) (xy 96.540354 45.28341) (xy 96.95441 45.698189) (xy 97.495677 45.922943)
        (xy 98.081752 45.923454) (xy 98.62341 45.699646) (xy 99.038189 45.28559) (xy 99.059775 45.233605) (xy 99.080354 45.28341)
        (xy 99.49441 45.698189) (xy 100.035677 45.922943) (xy 100.621752 45.923454) (xy 101.16341 45.699646) (xy 101.578189 45.28559)
        (xy 101.599775 45.233605) (xy 101.620354 45.28341) (xy 102.03441 45.698189) (xy 102.575677 45.922943) (xy 103.161752 45.923454)
        (xy 103.70341 45.699646) (xy 104.118189 45.28559) (xy 104.139775 45.233605) (xy 104.160354 45.28341) (xy 104.57441 45.698189)
        (xy 105.115677 45.922943) (xy 105.701752 45.923454) (xy 106.24341 45.699646) (xy 106.658189 45.28559) (xy 106.882943 44.744323)
        (xy 106.883454 44.158248) (xy 106.883454 53.328915) (xy 106.755924 53.456445) (xy 106.755924 49.72252) (xy 106.727146 49.192802)
        (xy 106.579798 48.837072) (xy 106.344186 48.775419) (xy 106.164581 48.955024) (xy 106.164581 48.595814) (xy 106.102928 48.360202)
        (xy 105.60252 48.184076) (xy 105.072802 48.212854) (xy 104.717072 48.360202) (xy 104.655419 48.595814) (xy 105.41 49.350395)
        (xy 106.164581 48.595814) (xy 106.164581 48.955024) (xy 105.589605 49.53) (xy 106.344186 50.284581) (xy 106.579798 50.222928)
        (xy 106.755924 49.72252) (xy 106.755924 53.456445) (xy 106.449027 53.763342) (xy 106.166353 53.480174) (xy 106.164581 53.479438)
        (xy 106.164581 50.464186) (xy 105.41 49.709605) (xy 105.230395 49.88921) (xy 105.230395 49.53) (xy 104.475814 48.775419)
        (xy 104.240202 48.837072) (xy 104.064076 49.33748) (xy 104.092854 49.867198) (xy 104.240202 50.222928) (xy 104.475814 50.284581)
        (xy 105.230395 49.53) (xy 105.230395 49.88921) (xy 104.655419 50.464186) (xy 104.717072 50.699798) (xy 105.21748 50.875924)
        (xy 105.747198 50.847146) (xy 106.102928 50.699798) (xy 106.164581 50.464186) (xy 106.164581 53.479438) (xy 105.676413 53.276733)
        (xy 105.145914 53.27627) (xy 104.65562 53.478855) (xy 104.28583 53.848) (xy 99.135924 53.848) (xy 99.135924 49.72252)
        (xy 99.107146 49.192802) (xy 98.959798 48.837072) (xy 98.724186 48.775419) (xy 98.544581 48.955024) (xy 98.544581 48.595814)
        (xy 98.482928 48.360202) (xy 97.98252 48.184076) (xy 97.452802 48.212854) (xy 97.097072 48.360202) (xy 97.035419 48.595814)
        (xy 97.79 49.350395) (xy 98.544581 48.595814) (xy 98.544581 48.955024) (xy 97.969605 49.53) (xy 98.724186 50.284581)
        (xy 98.959798 50.222928) (xy 99.135924 49.72252) (xy 99.135924 53.848) (xy 98.913538 53.848) (xy 98.546353 53.480174)
        (xy 98.544581 53.479438) (xy 98.544581 50.464186) (xy 97.79 49.709605) (xy 97.610395 49.88921) (xy 97.610395 49.53)
        (xy 96.855814 48.775419) (xy 96.620202 48.837072) (xy 96.444076 49.33748) (xy 96.472854 49.867198) (xy 96.620202 50.222928)
        (xy 96.855814 50.284581) (xy 97.610395 49.53) (xy 97.610395 49.88921) (xy 97.035419 50.464186) (xy 97.097072 50.699798)
        (xy 97.59748 50.875924) (xy 98.127198 50.847146) (xy 98.482928 50.699798) (xy 98.544581 50.464186) (xy 98.544581 53.479438)
        (xy 98.056413 53.276733) (xy 97.525914 53.27627) (xy 97.03562 53.478855) (xy 96.660174 53.853647) (xy 96.456733 54.343587)
        (xy 96.45627 54.874086) (xy 96.658855 55.36438) (xy 97.033647 55.739826) (xy 97.523587 55.943267) (xy 98.054086 55.94373)
        (xy 98.54438 55.741145) (xy 98.914169 55.372) (xy 104.286461 55.372) (xy 104.653647 55.739826) (xy 105.143587 55.943267)
        (xy 105.674086 55.94373) (xy 106.16438 55.741145) (xy 106.534169 55.372) (xy 106.68 55.372) (xy 106.68 55.371999)
        (xy 106.971604 55.313996) (xy 106.971605 55.313996) (xy 107.218815 55.148815) (xy 108.488815 53.878816) (xy 108.488815 53.878815)
        (xy 108.653996 53.631605) (xy 108.711999 53.34) (xy 108.712 53.34) (xy 108.712 43.18) (xy 108.653996 42.888395)
        (xy 108.488815 42.641185) (xy 108.488815 42.641184) (xy 106.728099 40.880468) (xy 106.735413 40.873168) (xy 106.832289 40.639864)
        (xy 106.832324 40.598772) (xy 106.944211 40.766222) (xy 107.405671 41.074559) (xy 107.95 41.182833) (xy 108.494329 41.074559)
        (xy 108.955789 40.766222) (xy 109.22 40.370801) (xy 109.484211 40.766222) (xy 109.945671 41.074559) (xy 110.49 41.182833)
        (xy 111.034329 41.074559) (xy 111.495789 40.766222) (xy 111.759753 40.37117) (xy 111.764475 40.387262) (xy 112.114014 40.821191)
        (xy 112.603004 41.088327) (xy 112.68294 41.10501) (xy 112.903 40.982851) (xy 112.903 39.497) (xy 112.883 39.497)
        (xy 112.883 39.243) (xy 112.903 39.243) (xy 112.903 37.757149) (xy 112.68294 37.63499) (xy 112.603004 37.651673)
        (xy 112.114014 37.918809) (xy 111.764475 38.352738) (xy 111.759753 38.368829) (xy 111.495789 37.973778) (xy 111.034329 37.665441)
        (xy 110.49 37.557167) (xy 109.945671 37.665441) (xy 109.484211 37.973778) (xy 109.22 38.369198) (xy 108.955789 37.973778)
        (xy 108.494329 37.665441) (xy 107.95 37.557167) (xy 107.405671 37.665441) (xy 106.944211 37.973778) (xy 106.83251 38.14095)
        (xy 106.83251 38.101245) (xy 106.736041 37.867771) (xy 106.557568 37.688987) (xy 106.324264 37.592111) (xy 106.071645 37.59189)
        (xy 104.496845 37.59189) (xy 104.263371 37.688359) (xy 104.084587 37.866832) (xy 103.987711 38.100136) (xy 103.98749 38.352755)
        (xy 103.98749 38.608) (xy 103.18563 38.608) (xy 102.362 37.784369) (xy 102.362 27.857084) (xy 102.385274 27.847468)
        (xy 102.776096 27.457327) (xy 102.869969 27.231255) (xy 102.962532 27.455274) (xy 103.352673 27.846096) (xy 103.862677 28.057868)
        (xy 104.414901 28.05835) (xy 104.440246 28.047877) (xy 104.871184 28.478815) (xy 104.871185 28.478815) (xy 104.871187 28.478817)
        (xy 106.864877 30.472508) (xy 106.68 30.749198) (xy 106.415789 30.353778) (xy 105.954329 30.045441) (xy 105.41 29.937167)
        (xy 104.865671 30.045441) (xy 104.404211 30.353778) (xy 104.095874 30.815238) (xy 103.9876 31.359567) (xy 103.9876 32.140433)
        (xy 104.095874 32.684762) (xy 104.404211 33.146222) (xy 104.865671 33.454559) (xy 105.41 33.562833) (xy 105.954329 33.454559)
        (xy 106.415789 33.146222) (xy 106.68 32.750801) (xy 106.944211 33.146222) (xy 107.405671 33.454559) (xy 107.95 33.562833)
        (xy 108.494329 33.454559) (xy 108.955789 33.146222) (xy 109.22 32.750801) (xy 109.484211 33.146222) (xy 109.945671 33.454559)
        (xy 110.49 33.562833) (xy 111.034329 33.454559) (xy 111.495789 33.146222) (xy 111.76 32.750801) (xy 112.024211 33.146222)
        (xy 112.485671 33.454559) (xy 113.03 33.562833) (xy 113.574329 33.454559) (xy 114.035789 33.146222) (xy 114.344126 32.684762)
        (xy 114.4524 32.140433) (xy 114.4524 32.012421) (xy 116.887098 34.965946) (xy 118.863119 41.429219)
      )
    )
  )
)
