<?xml version="1.0" standalone="no"?>
 <!DOCTYPE svg PUBLIC "-//W3C//DTD SVG 1.1//EN" 
 "http://www.w3.org/Graphics/SVG/1.1/DTD/svg11.dtd"> 
<svg xmlns="http://www.w3.org/2000/svg" version="1.1" 
    width="41.9989cm" height="29.7002cm" viewBox="0 0 165350 116930 ">
<title>SVG Picture created as trial1-B_SilkS.svg date 2015/09/16 14:49:45 </title>
  <desc>Picture generated by PCBNEW </desc>
<g style="fill:#000000; fill-opacity:1;stroke:#000000; stroke-opacity:1;
stroke-linecap:round; stroke-linejoin:round; "
 transform="translate(0 0) scale(1 1)">
</g>
<g style="fill:#000000; fill-opacity:0.0; 
stroke:#000000; stroke-width:75; stroke-opacity:1; 
stroke-linecap:round; stroke-linejoin:round;">
<path d="M75630 18121
L75630 17821
" />
<path d="M75416 18121
L75416 17964
L75440 17935
L75488 17921
L75559 17921
L75607 17935
L75630 17950
" />
<path d="M75250 17921
L75059 17921
" />
<path d="M75178 17821
L75178 18078
L75154 18107
L75107 18121
L75059 18121
" />
<path d="M74964 17921
L74773 17921
" />
<path d="M74892 17821
L74892 18078
L74869 18107
L74821 18121
L74773 18121
" />
<path d="M74607 17921
L74607 18221
" />
<path d="M74607 17935
L74559 17921
L74464 17921
L74416 17935
L74392 17950
L74369 17978
L74369 18064
L74392 18092
L74416 18107
L74464 18121
L74559 18121
L74607 18107
" />
<path d="M74178 18107
L74130 18121
L74035 18121
L73988 18107
L73964 18078
L73964 18064
L73988 18035
L74035 18021
L74107 18021
L74154 18007
L74178 17978
L74178 17964
L74154 17935
L74107 17921
L74035 17921
L73988 17935
" />
<path d="M73750 18092
L73726 18107
L73750 18121
L73773 18107
L73750 18092
L73750 18121
" />
<path d="M73750 17935
L73726 17950
L73750 17964
L73773 17950
L73750 17935
L73750 17964
" />
<path d="M73154 17807
L73583 18192
" />
<path d="M72630 17807
L73059 18192
" />
<path d="M72464 18121
L72464 17821
" />
<path d="M72464 17935
L72416 17921
L72321 17921
L72273 17935
L72250 17950
L72226 17978
L72226 18064
L72250 18092
L72273 18107
L72321 18121
L72416 18121
L72464 18107
" />
<path d="M72011 18121
L72011 17921
" />
<path d="M72011 17821
L72035 17835
L72011 17850
L71988 17835
L72011 17821
L72011 17850
" />
<path d="M71845 17921
L71654 17921
" />
<path d="M71773 17821
L71773 18078
L71750 18107
L71702 18121
L71654 18121
" />
<path d="M71488 18121
L71488 17821
" />
<path d="M71488 17935
L71440 17921
L71345 17921
L71297 17935
L71273 17950
L71250 17978
L71250 18064
L71273 18092
L71297 18107
L71345 18121
L71440 18121
L71488 18107
" />
<path d="M70821 17921
L70821 18121
" />
<path d="M71035 17921
L71035 18078
L71011 18107
L70964 18121
L70892 18121
L70845 18107
L70821 18092
" />
<path d="M70369 18107
L70416 18121
L70511 18121
L70559 18107
L70583 18092
L70607 18064
L70607 17978
L70583 17950
L70559 17935
L70511 17921
L70416 17921
L70369 17935
" />
<path d="M70154 18121
L70154 17821
" />
<path d="M70107 18007
L69964 18121
" />
<path d="M69964 17921
L70154 18035
" />
<path d="M69559 18107
L69607 18121
L69702 18121
L69750 18107
L69773 18078
L69773 17964
L69750 17935
L69702 17921
L69607 17921
L69559 17935
L69535 17964
L69535 17992
L69773 18021
" />
<path d="M69392 17921
L69202 17921
" />
<path d="M69321 17821
L69321 18078
L69297 18107
L69250 18121
L69202 18121
" />
<path d="M69035 18092
L69011 18107
L69035 18121
L69059 18107
L69035 18092
L69035 18121
" />
<path d="M68726 18121
L68773 18107
L68797 18092
L68821 18064
L68821 17978
L68797 17950
L68773 17935
L68726 17921
L68654 17921
L68607 17935
L68583 17950
L68559 17978
L68559 18064
L68583 18092
L68607 18107
L68654 18121
L68726 18121
" />
<path d="M68345 18121
L68345 17921
" />
<path d="M68345 17978
L68321 17950
L68297 17935
L68250 17921
L68202 17921
" />
<path d="M67821 17921
L67821 18164
L67845 18192
L67869 18207
L67916 18221
L67988 18221
L68035 18207
" />
<path d="M67821 18107
L67869 18121
L67964 18121
L68011 18107
L68035 18092
L68059 18064
L68059 17978
L68035 17950
L68011 17935
L67964 17921
L67869 17921
L67821 17935
" />
<path d="M67226 17807
L67654 18192
" />
<path d="M75654 18602
L75607 18616
L75511 18616
L75464 18602
L75440 18573
L75440 18559
L75464 18530
L75511 18516
L75583 18516
L75630 18502
L75654 18473
L75654 18459
L75630 18430
L75583 18416
L75511 18416
L75464 18430
" />
<path d="M75226 18416
L75226 18673
L75250 18702
L75297 18716
L75321 18716
" />
<path d="M75226 18316
L75250 18330
L75226 18345
L75202 18330
L75226 18316
L75226 18345
" />
<path d="M74916 18616
L74964 18602
L74988 18587
L75011 18559
L75011 18473
L74988 18445
L74964 18430
L74916 18416
L74845 18416
L74797 18430
L74773 18445
L74750 18473
L74750 18559
L74773 18587
L74797 18602
L74845 18616
L74916 18616
" />
<path d="M74345 18602
L74392 18616
L74488 18616
L74535 18602
L74559 18573
L74559 18459
L74535 18430
L74488 18416
L74392 18416
L74345 18430
L74321 18459
L74321 18487
L74559 18516
" />
<path d="M74107 18616
L74107 18416
" />
<path d="M74107 18473
L74083 18445
L74059 18430
L74011 18416
L73964 18416
" />
<path d="M73583 18616
L73583 18316
" />
<path d="M73583 18602
L73630 18616
L73726 18616
L73773 18602
L73797 18587
L73821 18559
L73821 18473
L73797 18445
L73773 18430
L73726 18416
L73630 18416
L73583 18430
" />
<path d="M73416 18416
L73226 18416
" />
<path d="M73345 18316
L73345 18573
L73321 18602
L73273 18616
L73226 18616
" />
<path d="M73059 18616
L73059 18416
" />
<path d="M73059 18316
L73083 18330
L73059 18345
L73035 18330
L73059 18316
L73059 18345
" />
<path d="M72821 18616
L72821 18416
" />
<path d="M72821 18445
L72797 18430
L72750 18416
L72678 18416
L72630 18430
L72607 18459
L72607 18616
" />
<path d="M72607 18459
L72583 18430
L72535 18416
L72464 18416
L72416 18430
L72392 18459
L72392 18616
" />
<path d="M72154 18616
L72154 18416
" />
<path d="M72154 18445
L72130 18430
L72083 18416
L72011 18416
L71964 18430
L71940 18459
L71940 18616
" />
<path d="M71940 18459
L71916 18430
L71869 18416
L71797 18416
L71750 18430
L71726 18459
L71726 18616
" />
<path d="M71297 18602
L71345 18616
L71440 18616
L71488 18602
L71511 18573
L71511 18459
L71488 18430
L71440 18416
L71345 18416
L71297 18430
L71273 18459
L71273 18487
L71511 18516
" />
<path d="M71059 18616
L71059 18416
" />
<path d="M71059 18473
L71035 18445
L71011 18430
L70964 18416
L70916 18416
" />
<path d="M70392 18302
L70821 18687
" />
<path d="M70226 18616
L70226 18416
" />
<path d="M70226 18473
L70202 18445
L70178 18430
L70130 18416
L70083 18416
" />
<path d="M69702 18616
L69702 18459
L69726 18430
L69773 18416
L69869 18416
L69916 18430
" />
<path d="M69702 18602
L69750 18616
L69869 18616
L69916 18602
L69940 18573
L69940 18545
L69916 18516
L69869 18502
L69750 18502
L69702 18487
" />
<path d="M69464 18416
L69464 18616
" />
<path d="M69464 18445
L69440 18430
L69392 18416
L69321 18416
L69273 18430
L69250 18459
L69250 18616
" />
<path d="M68797 18616
L68797 18316
" />
<path d="M68797 18602
L68845 18616
L68940 18616
L68988 18602
L69011 18587
L69035 18559
L69035 18473
L69011 18445
L68988 18430
L68940 18416
L68845 18416
L68797 18430
" />
<path d="M68488 18616
L68535 18602
L68559 18587
L68583 18559
L68583 18473
L68559 18445
L68535 18430
L68488 18416
L68416 18416
L68369 18430
L68345 18445
L68321 18473
L68321 18559
L68345 18587
L68369 18602
L68416 18616
L68488 18616
" />
<path d="M68107 18616
L68107 18416
" />
<path d="M68107 18445
L68083 18430
L68035 18416
L67964 18416
L67916 18430
L67892 18459
L67892 18616
" />
<path d="M67892 18459
L67869 18430
L67821 18416
L67750 18416
L67702 18430
L67678 18459
L67678 18616
" />
<path d="M67488 18416
L67392 18616
L67297 18473
L67202 18616
L67107 18416
" />
<path d="M66702 18616
L66702 18459
L66726 18430
L66773 18416
L66869 18416
L66916 18430
" />
<path d="M66702 18602
L66750 18616
L66869 18616
L66916 18602
L66940 18573
L66940 18545
L66916 18516
L66869 18502
L66750 18502
L66702 18487
" />
<path d="M66535 18416
L66345 18416
" />
<path d="M66464 18316
L66464 18573
L66440 18602
L66392 18616
L66345 18616
" />
<path d="M65964 18602
L66011 18616
L66107 18616
L66154 18602
L66178 18587
L66202 18559
L66202 18473
L66178 18445
L66154 18430
L66107 18416
L66011 18416
L65964 18430
" />
<path d="M65750 18616
L65750 18316
" />
<path d="M65535 18616
L65535 18459
L65559 18430
L65607 18416
L65678 18416
L65726 18430
L65750 18445
" />
</g>
<g style="fill:#000000; fill-opacity:0.0; 
stroke:#000000; stroke-width:59.0551; stroke-opacity:1; 
stroke-linecap:round; stroke-linejoin:round;">
<path d="M69000 14493
L69000 14243
" />
<path d="M65000 14493
L65000 14243
" />
<path d="M66000 14493
L66000 14243
" />
<path d="M67000 14493
L67000 14243
" />
<path d="M68000 14493
L68000 14243
" />
<path d="M71094 14214
L71094 10750
" />
<path d="M62905 14214
L62905 10750
" />
<path d="M66400 10753
L66400 12553
" />
<path d="M66400 12553
L67600 12553
" />
<path d="M67600 12553
L67600 10753
" />
<path d="M62944 10750
L71055 10750
" />
<path d="M71055 14218
L62944 14218
" />
<path d="M65000 24506
L65000 24756
" />
<path d="M69000 24506
L69000 24756
" />
<path d="M68000 24506
L68000 24756
" />
<path d="M67000 24506
L67000 24756
" />
<path d="M66000 24506
L66000 24756
" />
<path d="M62905 24785
L62905 28250
" />
<path d="M71094 24785
L71094 28250
" />
<path d="M67600 28246
L67600 26446
" />
<path d="M67600 26446
L66400 26446
" />
<path d="M66400 26446
L66400 28246
" />
<path d="M71055 28250
L62944 28250
" />
<path d="M62944 24781
L71055 24781
" />
<path d="M64728 11371
L64746 11390
L64803 11409
L64840 11409
L64896 11390
L64934 11353
L64953 11315
L64971 11240
L64971 11184
L64953 11109
L64934 11071
L64896 11034
L64840 11015
L64803 11015
L64746 11034
L64728 11053
" />
<path d="M64484 11015
L64409 11015
L64371 11034
L64334 11071
L64315 11146
L64315 11278
L64334 11353
L64371 11390
L64409 11409
L64484 11409
L64521 11390
L64559 11353
L64578 11278
L64578 11146
L64559 11071
L64521 11034
L64484 11015
" />
<path d="M64146 11409
L64146 11015
L63921 11409
L63921 11015
" />
<path d="M63753 11053
L63734 11034
L63696 11015
L63603 11015
L63565 11034
L63546 11053
L63528 11090
L63528 11128
L63546 11184
L63771 11409
L63528 11409
" />
<path d="M70453 11409
L70453 11015
L70303 11015
L70265 11034
L70246 11053
L70228 11090
L70228 11146
L70246 11184
L70265 11203
L70303 11221
L70453 11221
" />
<path d="M69834 11409
L69965 11221
" />
<path d="M70059 11409
L70059 11015
L69909 11015
L69871 11034
L69853 11053
L69834 11090
L69834 11146
L69853 11184
L69871 11203
L69909 11221
L70059 11221
" />
<path d="M69590 11015
L69515 11015
L69478 11034
L69440 11071
L69421 11146
L69421 11278
L69440 11353
L69478 11390
L69515 11409
L69590 11409
L69628 11390
L69665 11353
L69684 11278
L69684 11146
L69665 11071
L69628 11034
L69590 11015
" />
<path d="M69046 11034
L69084 11015
L69140 11015
L69196 11034
L69234 11071
L69253 11109
L69271 11184
L69271 11240
L69253 11315
L69234 11353
L69196 11390
L69140 11409
L69103 11409
L69046 11390
L69028 11371
L69028 11240
L69103 11240
" />
<path d="M70478 27871
L70496 27890
L70553 27909
L70590 27909
L70646 27890
L70684 27853
L70703 27815
L70721 27740
L70721 27684
L70703 27609
L70684 27571
L70646 27534
L70590 27515
L70553 27515
L70496 27534
L70478 27553
" />
<path d="M70234 27515
L70159 27515
L70121 27534
L70084 27571
L70065 27646
L70065 27778
L70084 27853
L70121 27890
L70159 27909
L70234 27909
L70271 27890
L70309 27853
L70328 27778
L70328 27646
L70309 27571
L70271 27534
L70234 27515
" />
<path d="M69896 27909
L69896 27515
L69671 27909
L69671 27515
" />
<path d="M69278 27909
L69503 27909
" />
<path d="M69390 27909
L69390 27515
L69428 27571
L69465 27609
L69503 27628
" />
<path d="M64543 27703
L64487 27721
L64468 27740
L64449 27778
L64449 27834
L64468 27871
L64487 27890
L64524 27909
L64674 27909
L64674 27515
L64543 27515
L64506 27534
L64487 27553
L64468 27590
L64468 27628
L64487 27665
L64506 27684
L64543 27703
L64674 27703
" />
<path d="M64299 27796
L64112 27796
" />
<path d="M64337 27909
L64206 27515
L64074 27909
" />
<path d="M63943 27909
L63943 27515
L63718 27909
L63718 27515
" />
<path d="M63531 27909
L63531 27515
L63437 27515
L63381 27534
L63343 27571
L63325 27609
L63306 27684
L63306 27740
L63325 27815
L63343 27853
L63381 27890
L63437 27909
L63531 27909
" />
</g> 
</svg>
